v 20130925 2
N 43500 49300 43500 49100 4
C 43600 48900 1 0 0 EMBEDDEDgnd-1.sym
[
P 43700 49000 43700 49200 1 0 1
{
T 43758 49061 5 4 0 1 0 0 1
pinnumber=1
T 43758 49061 5 4 0 0 0 0 1
pinseq=1
T 43758 49061 5 4 0 1 0 0 1
pinlabel=1
T 43758 49061 5 4 0 1 0 0 1
pintype=pwr
}
L 43600 49000 43800 49000 3 0 0 0 -1 -1
L 43655 48950 43745 48950 3 0 0 0 -1 -1
L 43680 48910 43720 48910 3 0 0 0 -1 -1
T 43900 48950 8 10 0 0 0 0 1
net=GND:1
]
N 43700 49200 43500 49200 4
N 44000 48900 44000 49900 4
N 44000 49900 43500 49900 4
N 43500 48500 44000 48500 4
N 44000 48500 44000 48800 4
C 47500 47900 1 180 1 EMBEDDEDlm7912-1.sym
[
B 47800 47000 1000 600 3 0 0 0 -1 -1 0 -1 -1 -1 -1 -1
P 47800 47300 47500 47300 1 0 1
{
T 47700 47250 5 8 1 1 180 0 1
pinnumber=2
T 47700 47350 5 8 0 1 180 2 1
pinseq=2
T 47850 47300 9 8 1 1 180 6 1
pinlabel=IN
T 47850 47300 5 8 0 1 180 8 1
pintype=pas
}
P 48300 47900 48300 47600 1 0 0
{
T 48350 47800 5 8 1 1 180 6 1
pinnumber=1
T 48350 47800 5 8 0 1 180 8 1
pinseq=1
T 48300 47550 9 8 1 1 180 3 1
pinlabel=GND
T 48300 47400 5 8 0 1 180 3 1
pintype=pwr
}
P 48800 47300 49100 47300 1 0 1
{
T 48900 47250 5 8 1 1 180 6 1
pinnumber=3
T 48900 47350 5 8 0 1 180 8 1
pinseq=3
T 48750 47300 9 8 1 1 180 0 1
pinlabel=OUT
T 48750 47300 5 8 0 1 180 2 1
pintype=pas
}
T 47800 46750 5 10 0 0 180 6 1
device=7912
T 48900 46900 8 10 0 1 180 0 1
refdes=U?
T 47800 46150 5 10 0 0 180 6 1
footprint=TO220
T 47800 45950 5 10 0 0 180 6 1
description=negative voltage regulator
T 47800 46350 5 10 0 0 180 6 1
numslots=0
T 47800 46550 5 10 0 0 180 6 1
symversion=1.0
T 47800 45750 5 10 0 0 180 6 1
documentation=http://www.onsemi.com/pub/Collateral/MC7900-D.PDF
T 47800 46950 9 8 1 0 180 6 1
7912
]
{
T 47800 46750 5 10 0 0 180 6 1
device=7912
T 48900 46900 5 10 1 1 180 0 1
refdes=U8
T 47800 46150 5 10 0 0 180 6 1
footprint=SOT89
T 47800 46550 5 10 0 0 180 6 1
symversion=1.0
}
C 46600 50100 1 270 0 EMBEDDEDcapacitor-5.sym
[
P 46800 50100 46800 49900 1 0 0
{
T 46850 49950 5 8 0 1 270 6 1
pinnumber=1
T 46750 49950 5 8 0 1 270 8 1
pinseq=1
T 46800 49900 9 8 0 1 270 0 1
pinlabel=+
T 46800 49900 5 8 0 1 270 2 1
pintype=pas
}
P 46800 49200 46800 49400 1 0 0
{
T 46850 49350 5 8 0 1 270 0 1
pinnumber=2
T 46750 49350 5 8 0 1 270 2 1
pinseq=2
T 46800 49400 9 8 0 1 270 6 1
pinlabel=-
T 46800 49400 5 8 0 1 270 8 1
pintype=pas
}
L 47000 49550 46600 49550 3 0 0 0 -1 -1
L 46800 49400 46800 49550 3 0 0 0 -1 -1
L 46800 49750 46800 49900 3 0 0 0 -1 -1
L 47000 49861 46900 49861 3 0 0 0 -1 -1
L 46949 49810 46949 49910 3 0 0 0 -1 -1
B 46600 49650 400 100 3 0 0 0 -1 -1 0 -1 -1 -1 -1 -1
T 47700 49900 5 10 0 0 270 0 1
device=POLARIZED_CAPACITOR
T 47100 49900 8 10 0 1 270 0 1
refdes=C?
T 47900 49900 5 10 0 0 270 0 1
description=polarized capacitor
T 47500 49900 5 10 0 0 270 0 1
numslots=0
T 47300 49900 5 10 0 0 270 0 1
symversion=0.1
T 47100 49500 8 10 0 1 270 0 1
value=1u
]
{
T 47700 49900 5 10 0 0 270 0 1
device=POLARIZED_CAPACITOR
T 47300 49900 5 10 0 0 270 0 1
symversion=0.1
T 46700 49500 5 10 1 1 90 6 1
refdes=C14
T 46500 49300 5 10 1 1 90 0 1
value=1000u/25
T 46600 50100 5 10 0 0 0 0 1
footprint=cap_12p5x20p0_5p0_1
}
C 46500 48400 1 270 0 EMBEDDEDcapacitor-5.sym
[
P 46700 48400 46700 48200 1 0 0
{
T 46750 48250 5 8 0 1 270 6 1
pinnumber=1
T 46650 48250 5 8 0 1 270 8 1
pinseq=1
T 46700 48200 9 8 0 1 270 0 1
pinlabel=+
T 46700 48200 5 8 0 1 270 2 1
pintype=pas
}
P 46700 47500 46700 47700 1 0 0
{
T 46750 47650 5 8 0 1 270 0 1
pinnumber=2
T 46650 47650 5 8 0 1 270 2 1
pinseq=2
T 46700 47700 9 8 0 1 270 6 1
pinlabel=-
T 46700 47700 5 8 0 1 270 8 1
pintype=pas
}
L 46900 47850 46500 47850 3 0 0 0 -1 -1
L 46700 47700 46700 47850 3 0 0 0 -1 -1
L 46700 48050 46700 48200 3 0 0 0 -1 -1
L 46900 48161 46800 48161 3 0 0 0 -1 -1
L 46849 48110 46849 48210 3 0 0 0 -1 -1
B 46500 47950 400 100 3 0 0 0 -1 -1 0 -1 -1 -1 -1 -1
T 47600 48200 5 10 0 0 270 0 1
device=POLARIZED_CAPACITOR
T 47000 48200 8 10 0 1 270 0 1
refdes=C?
T 47800 48200 5 10 0 0 270 0 1
description=polarized capacitor
T 47400 48200 5 10 0 0 270 0 1
numslots=0
T 47200 48200 5 10 0 0 270 0 1
symversion=0.1
T 47000 47800 8 10 0 1 270 0 1
value=1u
]
{
T 47600 48200 5 10 0 0 270 0 1
device=POLARIZED_CAPACITOR
T 47200 48200 5 10 0 0 270 0 1
symversion=0.1
T 46600 47800 5 10 1 1 90 6 1
refdes=C16
T 46400 47600 5 10 1 1 90 0 1
value=1000u/25
T 46500 48400 5 10 0 0 0 0 1
footprint=cap_12p5x20p0_5p0_1
}
C 47600 49200 1 90 0 EMBEDDEDcapacitor-1.sym
[
P 47400 49200 47400 49400 1 0 0
{
T 47350 49350 5 8 0 1 90 6 1
pinnumber=1
T 47450 49350 5 8 0 1 90 8 1
pinseq=1
T 47400 49400 9 8 0 1 90 0 1
pinlabel=1
T 47400 49400 5 8 0 1 90 2 1
pintype=pas
}
P 47400 50100 47400 49900 1 0 0
{
T 47350 49950 5 8 0 1 90 0 1
pinnumber=2
T 47450 49950 5 8 0 1 90 2 1
pinseq=2
T 47400 49900 9 8 0 1 90 6 1
pinlabel=2
T 47400 49900 5 8 0 1 90 8 1
pintype=pas
}
L 47200 49600 47600 49600 3 0 0 0 -1 -1
L 47200 49700 47600 49700 3 0 0 0 -1 -1
L 47400 49900 47400 49700 3 0 0 0 -1 -1
L 47400 49600 47400 49400 3 0 0 0 -1 -1
T 46900 49400 5 10 0 0 90 0 1
device=CAPACITOR
T 47100 49400 8 10 0 1 90 0 1
refdes=C?
T 46300 49400 5 10 0 0 90 0 1
description=capacitor
T 46500 49400 5 10 0 0 90 0 1
numslots=0
T 46700 49400 5 10 0 0 90 0 1
symversion=0.1
]
{
T 46900 49400 5 10 0 0 90 0 1
device=CAPACITOR
T 47300 49500 5 10 1 1 90 6 1
refdes=C15
T 46700 49400 5 10 0 0 90 0 1
symversion=0.1
T 47300 49800 5 10 1 1 90 0 1
value=100n
T 47600 49200 5 10 0 0 0 0 1
footprint=0603_BS_1
}
C 47500 47500 1 90 0 EMBEDDEDcapacitor-1.sym
[
P 47300 47500 47300 47700 1 0 0
{
T 47250 47650 5 8 0 1 90 6 1
pinnumber=1
T 47350 47650 5 8 0 1 90 8 1
pinseq=1
T 47300 47700 9 8 0 1 90 0 1
pinlabel=1
T 47300 47700 5 8 0 1 90 2 1
pintype=pas
}
P 47300 48400 47300 48200 1 0 0
{
T 47250 48250 5 8 0 1 90 0 1
pinnumber=2
T 47350 48250 5 8 0 1 90 2 1
pinseq=2
T 47300 48200 9 8 0 1 90 6 1
pinlabel=2
T 47300 48200 5 8 0 1 90 8 1
pintype=pas
}
L 47100 47900 47500 47900 3 0 0 0 -1 -1
L 47100 48000 47500 48000 3 0 0 0 -1 -1
L 47300 48200 47300 48000 3 0 0 0 -1 -1
L 47300 47900 47300 47700 3 0 0 0 -1 -1
T 46800 47700 5 10 0 0 90 0 1
device=CAPACITOR
T 47000 47700 8 10 0 1 90 0 1
refdes=C?
T 46200 47700 5 10 0 0 90 0 1
description=capacitor
T 46400 47700 5 10 0 0 90 0 1
numslots=0
T 46600 47700 5 10 0 0 90 0 1
symversion=0.1
]
{
T 46800 47700 5 10 0 0 90 0 1
device=CAPACITOR
T 47200 47800 5 10 1 1 90 6 1
refdes=C17
T 46600 47700 5 10 0 0 90 0 1
symversion=0.1
T 47500 48100 5 10 1 1 90 0 1
value=100n
T 47500 47500 5 10 0 0 0 0 1
footprint=0603_BS_1
}
C 49600 49200 1 90 0 EMBEDDEDcapacitor-1.sym
[
P 49400 49200 49400 49400 1 0 0
{
T 49350 49350 5 8 0 1 90 6 1
pinnumber=1
T 49450 49350 5 8 0 1 90 8 1
pinseq=1
T 49400 49400 9 8 0 1 90 0 1
pinlabel=1
T 49400 49400 5 8 0 1 90 2 1
pintype=pas
}
P 49400 50100 49400 49900 1 0 0
{
T 49350 49950 5 8 0 1 90 0 1
pinnumber=2
T 49450 49950 5 8 0 1 90 2 1
pinseq=2
T 49400 49900 9 8 0 1 90 6 1
pinlabel=2
T 49400 49900 5 8 0 1 90 8 1
pintype=pas
}
L 49200 49600 49600 49600 3 0 0 0 -1 -1
L 49200 49700 49600 49700 3 0 0 0 -1 -1
L 49400 49900 49400 49700 3 0 0 0 -1 -1
L 49400 49600 49400 49400 3 0 0 0 -1 -1
T 48900 49400 5 10 0 0 90 0 1
device=CAPACITOR
T 49100 49400 8 10 0 1 90 0 1
refdes=C?
T 48300 49400 5 10 0 0 90 0 1
description=capacitor
T 48500 49400 5 10 0 0 90 0 1
numslots=0
T 48700 49400 5 10 0 0 90 0 1
symversion=0.1
]
{
T 48900 49400 5 10 0 0 90 0 1
device=CAPACITOR
T 49300 49500 5 10 1 1 90 6 1
refdes=C18
T 48700 49400 5 10 0 0 90 0 1
symversion=0.1
T 49300 49800 5 10 1 1 90 0 1
value=1u
T 49600 49200 5 10 0 0 0 0 1
footprint=0603_BS_1
}
C 49700 47500 1 90 0 EMBEDDEDcapacitor-1.sym
[
P 49500 47500 49500 47700 1 0 0
{
T 49450 47650 5 8 0 1 90 6 1
pinnumber=1
T 49550 47650 5 8 0 1 90 8 1
pinseq=1
T 49500 47700 9 8 0 1 90 0 1
pinlabel=1
T 49500 47700 5 8 0 1 90 2 1
pintype=pas
}
P 49500 48400 49500 48200 1 0 0
{
T 49450 48250 5 8 0 1 90 0 1
pinnumber=2
T 49550 48250 5 8 0 1 90 2 1
pinseq=2
T 49500 48200 9 8 0 1 90 6 1
pinlabel=2
T 49500 48200 5 8 0 1 90 8 1
pintype=pas
}
L 49300 47900 49700 47900 3 0 0 0 -1 -1
L 49300 48000 49700 48000 3 0 0 0 -1 -1
L 49500 48200 49500 48000 3 0 0 0 -1 -1
L 49500 47900 49500 47700 3 0 0 0 -1 -1
T 49000 47700 5 10 0 0 90 0 1
device=CAPACITOR
T 49200 47700 8 10 0 1 90 0 1
refdes=C?
T 48400 47700 5 10 0 0 90 0 1
description=capacitor
T 48600 47700 5 10 0 0 90 0 1
numslots=0
T 48800 47700 5 10 0 0 90 0 1
symversion=0.1
]
{
T 49000 47700 5 10 0 0 90 0 1
device=CAPACITOR
T 49400 47800 5 10 1 1 90 6 1
refdes=C21
T 48800 47700 5 10 0 0 90 0 1
symversion=0.1
T 49400 48100 5 10 1 1 90 0 1
value=1u
T 49700 47500 5 10 0 0 0 0 1
footprint=0603_BS_1
}
N 44800 47300 47500 47300 4
N 46700 47500 46700 47300 4
N 47300 47500 47300 47300 4
N 47600 50300 44800 50300 4
N 44800 50400 44800 50100 4
N 46800 50100 46800 50300 4
N 47400 50100 47400 50300 4
N 46800 49200 46800 48800 4
N 47400 49200 47400 48800 4
N 49100 47300 52000 47300 4
N 49500 47300 49500 47500 4
N 49200 50300 52000 50300 4
N 49400 50300 49400 50100 4
N 49500 48800 49500 48400 4
N 46700 48800 51900 48800 4
N 47300 48800 47300 48400 4
C 51800 48500 1 0 0 EMBEDDEDgnd-1.sym
[
P 51900 48600 51900 48800 1 0 1
{
T 51958 48661 5 4 0 1 0 0 1
pinnumber=1
T 51958 48661 5 4 0 0 0 0 1
pinseq=1
T 51958 48661 5 4 0 1 0 0 1
pinlabel=1
T 51958 48661 5 4 0 1 0 0 1
pintype=pwr
}
L 51800 48600 52000 48600 3 0 0 0 -1 -1
L 51855 48550 51945 48550 3 0 0 0 -1 -1
L 51880 48510 51920 48510 3 0 0 0 -1 -1
T 52100 48550 8 10 0 0 0 0 1
net=GND:1
]
N 48400 49700 48400 48800 4
N 48300 47900 48300 48800 4
C 51800 50300 1 0 0 EMBEDDED12V-plus-1.sym
[
P 52000 50300 52000 50500 1 0 0
{
T 52050 50350 5 6 0 1 0 0 1
pinnumber=1
T 52050 50350 5 6 0 0 0 0 1
pinseq=1
T 52050 50350 5 6 0 1 0 0 1
pinlabel=1
T 52050 50350 5 6 0 1 0 0 1
pintype=pwr
}
L 51850 50500 52150 50500 3 0 0 0 -1 -1
T 51875 50550 9 8 1 0 0 0 1
+12V
T 52100 50300 9 8 0 0 0 0 1
net=+12V:1
]
C 51800 47300 1 0 0 EMBEDDED12V-minus-1.sym
[
P 52000 47300 52000 47500 1 0 0
{
T 52050 47350 5 6 0 1 0 0 1
pinnumber=1
T 52050 47350 5 6 0 0 0 0 1
pinseq=1
T 52050 47350 5 6 0 1 0 0 1
pinlabel=1
T 52050 47350 5 6 0 1 0 0 1
pintype=pwr
}
L 51850 47500 52150 47500 3 0 0 0 -1 -1
T 51875 47550 9 8 1 0 0 0 1
-12V
T 52100 47300 8 8 0 0 0 0 1
net=-12V:1
]
N 42000 49900 41900 49900 4
N 41900 49800 41900 49900 4
N 41900 49800 41800 49800 4
N 42000 48500 41900 48500 4
N 41900 48500 41900 48600 4
N 41900 48600 41800 48600 4
N 42000 49100 41900 49100 4
N 41900 49000 41900 49100 4
N 41900 49000 41800 49000 4
N 42000 49300 41900 49300 4
N 41900 49300 41900 49400 4
N 41900 49400 41800 49400 4
C 41800 48200 1 0 1 EMBEDDEDconnector4-2.sym
[
P 41800 49800 41600 49800 1 0 0
{
T 41600 49850 5 8 0 1 0 0 1
pinnumber=1
T 41600 49750 5 8 0 1 0 2 1
pinseq=1
T 41450 49800 9 8 1 1 0 6 1
pinlabel=1
T 41450 49800 5 8 0 1 0 8 1
pintype=pas
}
V 41550 49800 50 6 0 0 0 -1 -1 0 -1 -1 -1 -1 -1
P 41800 49400 41600 49400 1 0 0
{
T 41600 49450 5 8 0 1 0 0 1
pinnumber=2
T 41600 49350 5 8 0 1 0 2 1
pinseq=2
T 41450 49400 9 8 1 1 0 6 1
pinlabel=2
T 41450 49400 5 8 0 1 0 8 1
pintype=pas
}
V 41550 49400 50 6 0 0 0 -1 -1 0 -1 -1 -1 -1 -1
P 41800 49000 41600 49000 1 0 0
{
T 41600 49050 5 8 0 1 0 0 1
pinnumber=3
T 41600 48950 5 8 0 1 0 2 1
pinseq=3
T 41450 49000 9 8 1 1 0 6 1
pinlabel=3
T 41450 49000 5 8 0 1 0 8 1
pintype=pas
}
V 41550 49000 50 6 0 0 0 -1 -1 0 -1 -1 -1 -1 -1
P 41800 48600 41600 48600 1 0 0
{
T 41600 48650 5 8 0 1 0 0 1
pinnumber=4
T 41600 48550 5 8 0 1 0 2 1
pinseq=4
T 41450 48600 9 8 1 1 0 6 1
pinlabel=4
T 41450 48600 5 8 0 1 0 8 1
pintype=pas
}
V 41550 48600 50 6 0 0 0 -1 -1 0 -1 -1 -1 -1 -1
B 41100 48200 400 2000 3 0 0 0 -1 -1 0 -1 -1 -1 -1 -1
T 41100 50300 8 10 0 1 0 0 1
refdes=CONN?
T 41500 50250 5 10 0 0 0 6 1
device=CONNECTOR_4
T 41500 50450 5 10 0 0 0 6 1
footprint=SIP4N
T 41500 50650 5 10 0 0 0 6 1
author=Leon Kos
T 41500 50850 5 10 0 0 0 6 1
description=generic connector
T 41500 51050 5 10 0 0 0 6 1
numslots=0
]
{
T 41100 50300 5 10 1 1 0 0 1
refdes=J1
T 41500 50250 5 10 0 0 0 6 1
device=CONNECTOR_4
T 41500 50450 5 10 0 0 0 6 1
footprint=TYCO_CONN4
}
C 50200 49200 1 90 0 EMBEDDEDcapacitor-1.sym
[
P 50000 49200 50000 49400 1 0 0
{
T 49950 49350 5 8 0 1 90 6 1
pinnumber=1
T 50050 49350 5 8 0 1 90 8 1
pinseq=1
T 50000 49400 9 8 0 1 90 0 1
pinlabel=1
T 50000 49400 5 8 0 1 90 2 1
pintype=pas
}
P 50000 50100 50000 49900 1 0 0
{
T 49950 49950 5 8 0 1 90 0 1
pinnumber=2
T 50050 49950 5 8 0 1 90 2 1
pinseq=2
T 50000 49900 9 8 0 1 90 6 1
pinlabel=2
T 50000 49900 5 8 0 1 90 8 1
pintype=pas
}
L 49800 49600 50200 49600 3 0 0 0 -1 -1
L 49800 49700 50200 49700 3 0 0 0 -1 -1
L 50000 49900 50000 49700 3 0 0 0 -1 -1
L 50000 49600 50000 49400 3 0 0 0 -1 -1
T 49500 49400 5 10 0 0 90 0 1
device=CAPACITOR
T 49700 49400 8 10 0 1 90 0 1
refdes=C?
T 48900 49400 5 10 0 0 90 0 1
description=capacitor
T 49100 49400 5 10 0 0 90 0 1
numslots=0
T 49300 49400 5 10 0 0 90 0 1
symversion=0.1
]
{
T 49500 49400 5 10 0 0 90 0 1
device=CAPACITOR
T 49900 49500 5 10 1 1 90 6 1
refdes=C19
T 49300 49400 5 10 0 0 90 0 1
symversion=0.1
T 49900 49800 5 10 1 1 90 0 1
value=100n
T 50200 49200 5 10 0 0 0 0 1
footprint=0603_BS_1
}
C 50300 47500 1 90 0 EMBEDDEDcapacitor-1.sym
[
P 50100 47500 50100 47700 1 0 0
{
T 50050 47650 5 8 0 1 90 6 1
pinnumber=1
T 50150 47650 5 8 0 1 90 8 1
pinseq=1
T 50100 47700 9 8 0 1 90 0 1
pinlabel=1
T 50100 47700 5 8 0 1 90 2 1
pintype=pas
}
P 50100 48400 50100 48200 1 0 0
{
T 50050 48250 5 8 0 1 90 0 1
pinnumber=2
T 50150 48250 5 8 0 1 90 2 1
pinseq=2
T 50100 48200 9 8 0 1 90 6 1
pinlabel=2
T 50100 48200 5 8 0 1 90 8 1
pintype=pas
}
L 49900 47900 50300 47900 3 0 0 0 -1 -1
L 49900 48000 50300 48000 3 0 0 0 -1 -1
L 50100 48200 50100 48000 3 0 0 0 -1 -1
L 50100 47900 50100 47700 3 0 0 0 -1 -1
T 49600 47700 5 10 0 0 90 0 1
device=CAPACITOR
T 49800 47700 8 10 0 1 90 0 1
refdes=C?
T 49000 47700 5 10 0 0 90 0 1
description=capacitor
T 49200 47700 5 10 0 0 90 0 1
numslots=0
T 49400 47700 5 10 0 0 90 0 1
symversion=0.1
]
{
T 49600 47700 5 10 0 0 90 0 1
device=CAPACITOR
T 50000 47800 5 10 1 1 90 6 1
refdes=C24
T 49400 47700 5 10 0 0 90 0 1
symversion=0.1
T 50000 48100 5 10 1 1 90 0 1
value=100n
T 50300 47500 5 10 0 0 0 0 1
footprint=0603_BS_1
}
C 50800 49200 1 90 0 EMBEDDEDcapacitor-1.sym
[
P 50600 49200 50600 49400 1 0 0
{
T 50550 49350 5 8 0 1 90 6 1
pinnumber=1
T 50650 49350 5 8 0 1 90 8 1
pinseq=1
T 50600 49400 9 8 0 1 90 0 1
pinlabel=1
T 50600 49400 5 8 0 1 90 2 1
pintype=pas
}
P 50600 50100 50600 49900 1 0 0
{
T 50550 49950 5 8 0 1 90 0 1
pinnumber=2
T 50650 49950 5 8 0 1 90 2 1
pinseq=2
T 50600 49900 9 8 0 1 90 6 1
pinlabel=2
T 50600 49900 5 8 0 1 90 8 1
pintype=pas
}
L 50400 49600 50800 49600 3 0 0 0 -1 -1
L 50400 49700 50800 49700 3 0 0 0 -1 -1
L 50600 49900 50600 49700 3 0 0 0 -1 -1
L 50600 49600 50600 49400 3 0 0 0 -1 -1
T 50100 49400 5 10 0 0 90 0 1
device=CAPACITOR
T 50300 49400 8 10 0 1 90 0 1
refdes=C?
T 49500 49400 5 10 0 0 90 0 1
description=capacitor
T 49700 49400 5 10 0 0 90 0 1
numslots=0
T 49900 49400 5 10 0 0 90 0 1
symversion=0.1
]
{
T 50100 49400 5 10 0 0 90 0 1
device=CAPACITOR
T 50500 49500 5 10 1 1 90 6 1
refdes=C20
T 49900 49400 5 10 0 0 90 0 1
symversion=0.1
T 50500 49800 5 10 1 1 90 0 1
value=100n
T 50800 49200 5 10 0 0 0 0 1
footprint=0603_BS_1
}
C 50900 47500 1 90 0 EMBEDDEDcapacitor-1.sym
[
P 50700 47500 50700 47700 1 0 0
{
T 50650 47650 5 8 0 1 90 6 1
pinnumber=1
T 50750 47650 5 8 0 1 90 8 1
pinseq=1
T 50700 47700 9 8 0 1 90 0 1
pinlabel=1
T 50700 47700 5 8 0 1 90 2 1
pintype=pas
}
P 50700 48400 50700 48200 1 0 0
{
T 50650 48250 5 8 0 1 90 0 1
pinnumber=2
T 50750 48250 5 8 0 1 90 2 1
pinseq=2
T 50700 48200 9 8 0 1 90 6 1
pinlabel=2
T 50700 48200 5 8 0 1 90 8 1
pintype=pas
}
L 50500 47900 50900 47900 3 0 0 0 -1 -1
L 50500 48000 50900 48000 3 0 0 0 -1 -1
L 50700 48200 50700 48000 3 0 0 0 -1 -1
L 50700 47900 50700 47700 3 0 0 0 -1 -1
T 50200 47700 5 10 0 0 90 0 1
device=CAPACITOR
T 50400 47700 8 10 0 1 90 0 1
refdes=C?
T 49600 47700 5 10 0 0 90 0 1
description=capacitor
T 49800 47700 5 10 0 0 90 0 1
numslots=0
T 50000 47700 5 10 0 0 90 0 1
symversion=0.1
]
{
T 50200 47700 5 10 0 0 90 0 1
device=CAPACITOR
T 50600 47800 5 10 1 1 90 6 1
refdes=C26
T 50000 47700 5 10 0 0 90 0 1
symversion=0.1
T 50600 48100 5 10 1 1 90 0 1
value=100n
T 50900 47500 5 10 0 0 0 0 1
footprint=0603_BS_1
}
N 49400 49200 49400 48800 4
N 50000 49200 50000 48800 4
N 50100 48400 50100 48800 4
N 50600 49200 50600 48800 4
N 50700 48800 50700 48400 4
N 50600 50100 50600 50300 4
N 50000 50100 50000 50300 4
N 50100 47500 50100 47300 4
N 50700 47500 50700 47300 4
C 51400 49200 1 90 0 EMBEDDEDcapacitor-1.sym
[
P 51200 49200 51200 49400 1 0 0
{
T 51150 49350 5 8 0 1 90 6 1
pinnumber=1
T 51250 49350 5 8 0 1 90 8 1
pinseq=1
T 51200 49400 9 8 0 1 90 0 1
pinlabel=1
T 51200 49400 5 8 0 1 90 2 1
pintype=pas
}
P 51200 50100 51200 49900 1 0 0
{
T 51150 49950 5 8 0 1 90 0 1
pinnumber=2
T 51250 49950 5 8 0 1 90 2 1
pinseq=2
T 51200 49900 9 8 0 1 90 6 1
pinlabel=2
T 51200 49900 5 8 0 1 90 8 1
pintype=pas
}
L 51000 49600 51400 49600 3 0 0 0 -1 -1
L 51000 49700 51400 49700 3 0 0 0 -1 -1
L 51200 49900 51200 49700 3 0 0 0 -1 -1
L 51200 49600 51200 49400 3 0 0 0 -1 -1
T 50700 49400 5 10 0 0 90 0 1
device=CAPACITOR
T 50900 49400 8 10 0 1 90 0 1
refdes=C?
T 50100 49400 5 10 0 0 90 0 1
description=capacitor
T 50300 49400 5 10 0 0 90 0 1
numslots=0
T 50500 49400 5 10 0 0 90 0 1
symversion=0.1
]
{
T 50700 49400 5 10 0 0 90 0 1
device=CAPACITOR
T 51100 49500 5 10 1 1 90 6 1
refdes=C22
T 50500 49400 5 10 0 0 90 0 1
symversion=0.1
T 51100 49800 5 10 1 1 90 0 1
value=100n
T 51400 49200 5 10 0 0 0 0 1
footprint=0603_BS_1
}
N 51200 50100 51200 50300 4
N 51200 49200 51200 48800 4
C 44600 50400 1 0 0 EMBEDDEDgeneric-power.sym
[
P 44800 50400 44800 50600 1 0 0
{
T 44850 50450 5 6 0 1 0 0 1
pinnumber=1
T 44850 50450 5 6 0 0 0 0 1
pinseq=1
T 44850 50450 5 6 0 1 0 0 1
pinlabel=1
T 44850 50450 5 6 0 1 0 0 1
pintype=pwr
}
L 44650 50600 44950 50600 3 0 0 0 -1 -1
T 44800 50650 8 10 0 1 0 3 1
net=Vcc:1
]
{
T 44800 50650 5 10 1 1 0 3 1
net=VAUX:1
}
C 45300 43800 1 0 1 EMBEDDEDMC34063-1.sym
[
P 43200 44000 43500 44000 1 0 0
{
T 43400 44050 5 8 1 1 0 6 1
pinnumber=5
T 43550 44000 9 8 1 1 0 0 1
pinlabel=COMP
T 43550 44000 5 8 0 1 0 2 1
pintype=io
T 43400 43950 5 8 0 1 0 8 1
pinseq=5
}
P 43200 44300 43500 44300 1 0 0
{
T 43400 44350 5 8 1 1 0 6 1
pinnumber=6
T 43550 44300 9 8 1 1 0 0 1
pinlabel=VCC
T 43550 44300 5 8 0 1 0 2 1
pintype=pwr
T 43400 44250 5 8 0 1 0 8 1
pinseq=6
}
P 43200 44600 43500 44600 1 0 0
{
T 43400 44650 5 8 1 1 0 6 1
pinnumber=7
T 43550 44600 9 8 1 1 0 0 1
pinlabel=IPK
T 43550 44600 5 8 0 1 0 2 1
pintype=io
T 43400 44550 5 8 0 1 0 8 1
pinseq=7
}
P 43200 44900 43500 44900 1 0 0
{
T 43400 44950 5 8 1 1 0 6 1
pinnumber=8
T 43550 44900 9 8 1 1 0 0 1
pinlabel=COLL_D
T 43550 44900 5 8 0 1 0 2 1
pintype=io
T 43400 44850 5 8 0 1 0 8 1
pinseq=8
}
P 45300 44000 45000 44000 1 0 0
{
T 45100 44050 5 8 1 1 0 0 1
pinnumber=4
T 44950 44000 9 8 1 1 0 6 1
pinlabel=GND
T 44950 44000 5 8 0 1 0 8 1
pintype=pwr
T 45100 43950 5 8 0 1 0 2 1
pinseq=4
}
P 45300 44300 45000 44300 1 0 0
{
T 45100 44350 5 8 1 1 0 0 1
pinnumber=3
T 44950 44300 9 8 1 1 0 6 1
pinlabel=CT
T 44950 44300 5 8 0 1 0 8 1
pintype=io
T 45100 44250 5 8 0 1 0 2 1
pinseq=3
}
P 45300 44600 45000 44600 1 0 0
{
T 45100 44650 5 8 1 1 0 0 1
pinnumber=2
T 44950 44600 9 8 1 1 0 6 1
pinlabel=EMT_S
T 44950 44600 5 8 0 1 0 8 1
pintype=io
T 45100 44550 5 8 0 1 0 2 1
pinseq=2
}
P 45300 44900 45000 44900 1 0 0
{
T 45100 44950 5 8 1 1 0 0 1
pinnumber=1
T 44950 44900 9 8 1 1 0 6 1
pinlabel=COLL_S
T 44950 44900 5 8 0 1 0 8 1
pintype=in
T 45100 44850 5 8 0 1 0 2 1
pinseq=1
}
B 43500 43800 1500 1300 3 0 0 0 -1 -1 0 -1 -1 -1 -1 -1
T 45000 46400 8 10 0 0 0 6 1
symversion=1.0
T 45000 46200 8 10 0 0 0 6 1
documentation=http://www.onsemi.com/pub/Collateral/MC34063A-D.PDF
T 45000 45150 9 10 1 0 0 6 1
MC34063
T 45000 46000 8 10 0 0 0 6 1
numslots=0
T 45000 45400 8 10 0 0 0 6 1
device=MC34063
T 45000 45800 8 10 0 0 0 6 1
footprint=DIP8
T 45000 45600 8 10 0 0 0 6 1
description=Step-Up/-Down/Inverting Switching Regulator
T 43500 45200 8 10 0 1 0 0 1
refdes=U?
]
{
T 45000 45800 5 10 0 0 0 6 1
footprint=SO8
T 45000 45400 5 10 0 0 0 6 1
device=MC34063
T 45000 46400 5 10 0 0 0 6 1
symversion=1.0
T 43500 45200 5 10 1 1 0 0 1
refdes=U9
}
C 46700 44600 1 0 0 EMBEDDEDcoil-1.sym
[
P 46900 44600 46700 44600 1 0 1
{
T 46850 44650 5 8 0 1 0 6 1
pinnumber=1
T 46850 44550 5 8 0 1 0 8 1
pinseq=1
T 46950 44600 9 8 0 1 0 0 1
pinlabel=1
T 46950 44600 5 8 0 1 0 2 1
pintype=pas
}
P 47500 44600 47700 44600 1 0 1
{
T 47550 44650 5 8 0 1 0 0 1
pinnumber=2
T 47550 44550 5 8 0 1 0 2 1
pinseq=2
T 47450 44600 9 8 0 1 0 6 1
pinlabel=2
T 47450 44600 5 8 0 1 0 8 1
pintype=pas
}
A 47000 44600 100 0 180 3 0 0 0 -1 -1
A 47200 44600 100 0 180 3 0 0 0 -1 -1
A 47400 44600 100 0 180 3 0 0 0 -1 -1
T 46900 45000 5 10 0 0 0 0 1
device=COIL
T 46900 44800 8 10 0 1 0 0 1
refdes=L?
T 46900 45600 5 10 0 0 0 0 1
description=incuctor
T 46900 45400 5 10 0 0 0 0 1
numslots=0
T 46900 45200 5 10 0 0 0 0 1
symversion=0.1
]
{
T 46900 45000 5 10 0 0 0 0 1
device=COIL
T 46900 45200 5 10 0 0 0 0 1
symversion=0.1
T 46700 44600 5 10 0 1 0 0 1
footprint=COILTRONICS_DR74_BS_1
T 46900 44400 5 10 1 1 0 0 1
refdes=L2
T 47400 44400 5 10 1 1 0 0 1
value=120u
T 46700 44800 5 10 1 1 0 0 1
model=DR74-121-R
}
C 46700 43500 1 90 0 EMBEDDEDschottky-1.sym
[
L 46300 43800 46700 43800 3 0 0 0 -1 -1
L 46300 43800 46500 44100 3 0 0 0 -1 -1
L 46500 44100 46700 43800 3 0 0 0 -1 -1
L 46300 44100 46700 44100 3 0 0 0 -1 -1
P 46500 43500 46500 43700 1 0 0
{
T 46412 43575 5 10 0 1 180 0 1
pinlabel=anode
T 46619 43490 5 10 0 1 90 0 1
pintype=pas
T 46414 43670 5 8 0 0 180 0 1
pinseq=2
T 46444 43705 5 8 0 1 90 0 1
pinnumber=2
}
P 46500 44400 46500 44200 1 0 0
{
T 46562 44431 5 10 0 1 90 0 1
pinlabel=cathode
T 46435 44298 5 10 0 1 90 0 1
pintype=pas
T 46650 44230 5 8 0 0 90 0 1
pinseq=1
T 46450 44200 5 8 0 1 90 0 1
pinnumber=1
}
L 46500 44200 46500 44100 3 0 0 0 -1 -1
L 46500 43800 46500 43700 3 0 0 0 -1 -1
A 46300 44150 50 90 180 3 0 0 0 -1 -1
A 46700 44050 50 270 180 3 0 0 0 -1 -1
T 46028 43822 8 10 0 0 90 0 1
device=DIODE
T 46200 43800 8 10 0 1 90 0 1
refdes=D?
T 45868 43841 8 10 0 1 90 0 1
footprint=SOD80
T 46185 44067 8 10 0 0 90 0 1
numslots=0
]
{
T 46028 43822 5 10 0 0 90 0 1
device=DIODE
T 45868 43841 5 10 0 1 90 0 1
footprint=SMA_BS_1
T 46400 43400 5 10 1 1 90 0 1
refdes=D14
T 46700 43000 5 10 1 1 90 0 1
value=SS14
}
C 45200 43700 1 0 0 EMBEDDEDgnd-1.sym
[
P 45300 43800 45300 44000 1 0 1
{
T 45358 43861 5 4 0 1 0 0 1
pinnumber=1
T 45358 43861 5 4 0 0 0 0 1
pinseq=1
T 45358 43861 5 4 0 1 0 0 1
pinlabel=1
T 45358 43861 5 4 0 1 0 0 1
pintype=pwr
}
L 45200 43800 45400 43800 3 0 0 0 -1 -1
L 45255 43750 45345 43750 3 0 0 0 -1 -1
L 45280 43710 45320 43710 3 0 0 0 -1 -1
T 45500 43750 8 10 0 0 0 0 1
net=GND:1
]
C 46100 43000 1 90 0 EMBEDDEDcapacitor-1.sym
[
L 45900 43400 45900 43200 3 0 0 0 -1 -1
L 45900 43700 45900 43500 3 0 0 0 -1 -1
L 45700 43500 46100 43500 3 0 0 0 -1 -1
L 45700 43400 46100 43400 3 0 0 0 -1 -1
P 45900 43900 45900 43700 1 0 0
{
T 45900 43700 5 8 0 1 90 8 1
pintype=pas
T 45900 43700 9 8 0 1 90 6 1
pinlabel=2
T 45950 43750 5 8 0 1 90 2 1
pinseq=2
T 45850 43750 5 8 0 1 90 0 1
pinnumber=2
}
P 45900 43000 45900 43200 1 0 0
{
T 45900 43200 5 8 0 1 90 2 1
pintype=pas
T 45900 43200 9 8 0 1 90 0 1
pinlabel=1
T 45950 43150 5 8 0 1 90 8 1
pinseq=1
T 45850 43150 5 8 0 1 90 6 1
pinnumber=1
}
T 45200 43200 5 10 0 0 90 0 1
symversion=0.1
T 45000 43200 5 10 0 0 90 0 1
numslots=0
T 44800 43200 5 10 0 0 90 0 1
description=capacitor
T 45600 43200 8 10 0 1 90 0 1
refdes=C?
T 45400 43200 5 10 0 0 90 0 1
device=CAPACITOR
]
{
T 45400 43200 5 10 0 0 90 0 1
device=CAPACITOR
T 45200 43200 5 10 0 0 90 0 1
symversion=0.1
T 46000 43100 5 10 0 1 0 0 1
footprint=0603_BS_1
T 45850 43550 5 10 1 1 90 0 1
refdes=C30
T 45850 43350 5 10 1 1 90 6 1
value=330p
}
N 45300 44300 45900 44300 4
N 45900 44300 45900 43900 4
N 45300 44600 46700 44600 4
N 46500 44400 46500 44600 4
C 45800 42600 1 0 0 EMBEDDEDgnd-1.sym
[
P 45900 42700 45900 42900 1 0 1
{
T 45958 42761 5 4 0 1 0 0 1
pintype=pwr
T 45958 42761 5 4 0 1 0 0 1
pinlabel=1
T 45958 42761 5 4 0 0 0 0 1
pinseq=1
T 45958 42761 5 4 0 1 0 0 1
pinnumber=1
}
L 45800 42700 46000 42700 3 0 0 0 -1 -1
L 45855 42650 45945 42650 3 0 0 0 -1 -1
L 45880 42610 45920 42610 3 0 0 0 -1 -1
T 46100 42650 8 10 0 0 0 0 1
net=GND:1
]
N 45900 42900 45900 43000 4
C 46400 42600 1 0 0 EMBEDDEDgnd-1.sym
[
P 46500 42700 46500 42900 1 0 1
{
T 46558 42761 5 4 0 1 0 0 1
pintype=pwr
T 46558 42761 5 4 0 1 0 0 1
pinlabel=1
T 46558 42761 5 4 0 0 0 0 1
pinseq=1
T 46558 42761 5 4 0 1 0 0 1
pinnumber=1
}
L 46400 42700 46600 42700 3 0 0 0 -1 -1
L 46455 42650 46545 42650 3 0 0 0 -1 -1
L 46480 42610 46520 42610 3 0 0 0 -1 -1
T 46700 42650 8 10 0 0 0 0 1
net=GND:1
]
N 46500 42900 46500 43500 4
C 48000 44400 1 270 0 EMBEDDEDcapacitor-4.sym
[
B 48000 43950 400 100 3 0 0 0 -1 -1 0 -1 -1 -1 -1 -1
L 48349 44110 48349 44210 3 0 0 0 -1 -1
L 48400 44161 48300 44161 3 0 0 0 -1 -1
L 48200 44050 48200 44200 3 0 0 0 -1 -1
L 48200 43700 48200 43850 3 0 0 0 -1 -1
L 48400 43850 48000 43850 3 0 0 0 -1 -1
P 48200 43500 48200 43700 1 0 0
{
T 48200 43700 5 8 0 1 270 8 1
pintype=pas
T 48200 43700 9 8 0 1 270 6 1
pinlabel=-
T 48150 43650 5 8 0 1 270 2 1
pinseq=2
T 48250 43650 5 8 1 1 270 0 1
pinnumber=2
}
P 48200 44400 48200 44200 1 0 0
{
T 48200 44200 5 8 0 1 270 2 1
pintype=pas
T 48200 44200 9 8 0 1 270 0 1
pinlabel=+
T 48150 44250 5 8 0 1 270 8 1
pinseq=1
T 48250 44250 5 8 1 1 270 6 1
pinnumber=1
}
T 48700 44200 5 10 0 0 270 0 1
symversion=0.1
T 48900 44200 5 10 0 0 270 0 1
numslots=0
T 49300 44200 5 10 0 0 270 0 1
description=polarized capacitor
T 48500 44200 8 10 0 1 270 0 1
refdes=C?
T 49100 44200 5 10 0 0 270 0 1
device=POLARIZED_CAPACITOR
]
{
T 49100 44200 5 10 0 0 270 0 1
device=POLARIZED_CAPACITOR
T 48700 44200 5 10 0 0 270 0 1
symversion=0.1
T 48000 44400 5 10 0 1 0 0 1
footprint=NICHICON_WT_CAP_6p3_5p8
T 48000 44400 5 10 0 1 0 0 1
model=APXK160ARA101MF61G
T 48000 44100 5 10 1 1 90 2 1
refdes=C31
T 48000 43800 5 10 1 1 90 8 1
value=100u
}
N 48200 44400 48200 44600 4
N 47700 44600 52600 44600 4
C 48100 42900 1 0 0 EMBEDDEDgnd-1.sym
[
L 48180 42910 48220 42910 3 0 0 0 -1 -1
L 48155 42950 48245 42950 3 0 0 0 -1 -1
L 48100 43000 48300 43000 3 0 0 0 -1 -1
P 48200 43000 48200 43200 1 0 1
{
T 48258 43061 5 4 0 1 0 0 1
pinnumber=1
T 48258 43061 5 4 0 0 0 0 1
pinseq=1
T 48258 43061 5 4 0 1 0 0 1
pinlabel=1
T 48258 43061 5 4 0 1 0 0 1
pintype=pwr
}
T 48400 42950 8 10 0 0 0 0 1
net=GND:1
]
N 48200 43200 48200 43500 4
C 41900 44500 1 0 0 EMBEDDEDresistor-2.sym
[
P 42800 44600 42650 44600 1 0 0
{
T 42700 44650 5 8 0 1 0 0 1
pinnumber=2
T 42700 44650 5 8 0 0 0 0 1
pinseq=2
T 42700 44650 5 8 0 1 0 0 1
pinlabel=2
T 42700 44650 5 8 0 1 0 0 1
pintype=pas
}
P 41900 44600 42052 44600 1 0 0
{
T 42000 44650 5 8 0 1 0 0 1
pinnumber=1
T 42000 44650 5 8 0 0 0 0 1
pinseq=1
T 42000 44650 5 8 0 1 0 0 1
pinlabel=1
T 42000 44650 5 8 0 1 0 0 1
pintype=pas
}
B 42050 44500 600 200 3 0 0 0 -1 -1 0 -1 -1 -1 -1 -1
T 42300 44850 5 10 0 0 0 0 1
device=RESISTOR
T 42100 44800 8 10 0 1 0 0 1
refdes=R?
]
{
T 42300 44850 5 10 0 0 0 0 1
device=RESISTOR
T 41900 44500 5 10 0 0 0 0 1
footprint=0603_BS_1
T 42300 44750 5 10 1 1 0 6 1
refdes=R28
T 42400 44750 5 10 1 1 0 0 1
value=0R56
}
N 42800 44600 43200 44600 4
N 43000 44600 43000 45500 4
N 43000 45500 45500 45500 4
N 45500 45500 45500 44900 4
N 45500 44900 45300 44900 4
N 43200 44900 43000 44900 4
N 41400 44300 43200 44300 4
N 41800 44300 41800 44600 4
N 41800 44600 41900 44600 4
C 49500 44500 1 270 0 EMBEDDEDresistor-2.sym
[
B 49500 43750 200 600 3 0 0 0 -1 -1 0 -1 -1 -1 -1 -1
P 49600 44500 49600 44348 1 0 0
{
T 49650 44400 5 8 0 1 270 0 1
pintype=pas
T 49650 44400 5 8 0 1 270 0 1
pinlabel=1
T 49650 44400 5 8 0 0 270 0 1
pinseq=1
T 49650 44400 5 8 0 1 270 0 1
pinnumber=1
}
P 49600 43600 49600 43750 1 0 0
{
T 49650 43700 5 8 0 1 270 0 1
pintype=pas
T 49650 43700 5 8 0 1 270 0 1
pinlabel=2
T 49650 43700 5 8 0 0 270 0 1
pinseq=2
T 49650 43700 5 8 0 1 270 0 1
pinnumber=2
}
T 49800 44300 8 10 0 1 270 0 1
refdes=R?
T 49850 44100 5 10 0 0 270 0 1
device=RESISTOR
]
{
T 49850 44100 5 10 0 0 270 0 1
device=RESISTOR
T 49500 44500 5 10 0 0 270 0 1
footprint=0603_BS_1
T 49750 44100 5 10 1 1 270 6 1
refdes=R35
T 49750 44000 5 10 1 1 270 0 1
value=3k3
}
C 49500 43400 1 270 0 EMBEDDEDresistor-2.sym
[
B 49500 42650 200 600 3 0 0 0 -1 -1 0 -1 -1 -1 -1 -1
P 49600 43400 49600 43248 1 0 0
{
T 49650 43300 5 8 0 1 270 0 1
pintype=pas
T 49650 43300 5 8 0 1 270 0 1
pinlabel=1
T 49650 43300 5 8 0 0 270 0 1
pinseq=1
T 49650 43300 5 8 0 1 270 0 1
pinnumber=1
}
P 49600 42500 49600 42650 1 0 0
{
T 49650 42600 5 8 0 1 270 0 1
pintype=pas
T 49650 42600 5 8 0 1 270 0 1
pinlabel=2
T 49650 42600 5 8 0 0 270 0 1
pinseq=2
T 49650 42600 5 8 0 1 270 0 1
pinnumber=2
}
T 49800 43200 8 10 0 1 270 0 1
refdes=R?
T 49850 43000 5 10 0 0 270 0 1
device=RESISTOR
]
{
T 49850 43000 5 10 0 0 270 0 1
device=RESISTOR
T 49500 43400 5 10 0 0 270 0 1
footprint=0603_BS_1
T 49750 43000 5 10 1 1 270 6 1
refdes=R36
T 49750 42900 5 10 1 1 270 0 1
value=1k1
}
C 49500 42200 1 0 0 EMBEDDEDgnd-1.sym
[
P 49600 42300 49600 42500 1 0 1
{
T 49658 42361 5 4 0 1 0 0 1
pinnumber=1
T 49658 42361 5 4 0 0 0 0 1
pinseq=1
T 49658 42361 5 4 0 1 0 0 1
pinlabel=1
T 49658 42361 5 4 0 1 0 0 1
pintype=pwr
}
L 49500 42300 49700 42300 3 0 0 0 -1 -1
L 49555 42250 49645 42250 3 0 0 0 -1 -1
L 49580 42210 49620 42210 3 0 0 0 -1 -1
T 49800 42250 8 10 0 0 0 0 1
net=GND:1
]
N 49600 44600 49600 44500 4
N 49600 43600 49600 43400 4
N 49600 43500 49200 43500 4
N 49200 43500 49200 42400 4
N 49200 42400 43000 42400 4
N 43000 42400 43000 44000 4
N 43000 44000 43200 44000 4
C 42100 43100 1 90 0 EMBEDDEDcapacitor-1.sym
[
P 41900 43100 41900 43300 1 0 0
{
T 41850 43250 5 8 0 1 90 6 1
pinnumber=1
T 41950 43250 5 8 0 1 90 8 1
pinseq=1
T 41900 43300 9 8 0 1 90 0 1
pinlabel=1
T 41900 43300 5 8 0 1 90 2 1
pintype=pas
}
P 41900 44000 41900 43800 1 0 0
{
T 41850 43850 5 8 0 1 90 0 1
pinnumber=2
T 41950 43850 5 8 0 1 90 2 1
pinseq=2
T 41900 43800 9 8 0 1 90 6 1
pinlabel=2
T 41900 43800 5 8 0 1 90 8 1
pintype=pas
}
L 41700 43500 42100 43500 3 0 0 0 -1 -1
L 41700 43600 42100 43600 3 0 0 0 -1 -1
L 41900 43800 41900 43600 3 0 0 0 -1 -1
L 41900 43500 41900 43300 3 0 0 0 -1 -1
T 41400 43300 5 10 0 0 90 0 1
device=CAPACITOR
T 41600 43300 8 10 0 1 90 0 1
refdes=C?
T 40800 43300 5 10 0 0 90 0 1
description=capacitor
T 41000 43300 5 10 0 0 90 0 1
numslots=0
T 41200 43300 5 10 0 0 90 0 1
symversion=0.1
]
{
T 41400 43300 5 10 0 0 90 0 1
device=CAPACITOR
T 41200 43300 5 10 0 0 90 0 1
symversion=0.1
T 42000 43200 5 10 0 1 0 0 1
footprint=0603_BS_1
T 41850 43650 5 10 1 1 90 0 1
refdes=C27
T 41850 43450 5 10 1 1 90 6 1
value=1u
}
C 42500 42500 1 0 0 EMBEDDEDgnd-1.sym
[
P 42600 42600 42600 42800 1 0 1
{
T 42658 42661 5 4 0 1 0 0 1
pintype=pwr
T 42658 42661 5 4 0 1 0 0 1
pinlabel=1
T 42658 42661 5 4 0 0 0 0 1
pinseq=1
T 42658 42661 5 4 0 1 0 0 1
pinnumber=1
}
L 42500 42600 42700 42600 3 0 0 0 -1 -1
L 42555 42550 42645 42550 3 0 0 0 -1 -1
L 42580 42510 42620 42510 3 0 0 0 -1 -1
T 42800 42550 8 10 0 0 0 0 1
net=GND:1
]
C 41800 42500 1 0 0 EMBEDDEDgnd-1.sym
[
P 41900 42600 41900 42800 1 0 1
{
T 41958 42661 5 4 0 1 0 0 1
pintype=pwr
T 41958 42661 5 4 0 1 0 0 1
pinlabel=1
T 41958 42661 5 4 0 0 0 0 1
pinseq=1
T 41958 42661 5 4 0 1 0 0 1
pinnumber=1
}
L 41800 42600 42000 42600 3 0 0 0 -1 -1
L 41855 42550 41945 42550 3 0 0 0 -1 -1
L 41880 42510 41920 42510 3 0 0 0 -1 -1
T 42100 42550 8 10 0 0 0 0 1
net=GND:1
]
N 42600 44300 42600 44000 4
N 41900 44300 41900 44000 4
C 49000 43500 1 90 0 EMBEDDEDcapacitor-1.sym
[
L 48800 43900 48800 43700 3 0 0 0 -1 -1
L 48800 44200 48800 44000 3 0 0 0 -1 -1
L 48600 44000 49000 44000 3 0 0 0 -1 -1
L 48600 43900 49000 43900 3 0 0 0 -1 -1
P 48800 44400 48800 44200 1 0 0
{
T 48750 44250 5 8 0 1 90 0 1
pinnumber=2
T 48850 44250 5 8 0 1 90 2 1
pinseq=2
T 48800 44200 9 8 0 1 90 6 1
pinlabel=2
T 48800 44200 5 8 0 1 90 8 1
pintype=pas
}
P 48800 43500 48800 43700 1 0 0
{
T 48750 43650 5 8 0 1 90 6 1
pinnumber=1
T 48850 43650 5 8 0 1 90 8 1
pinseq=1
T 48800 43700 9 8 0 1 90 0 1
pinlabel=1
T 48800 43700 5 8 0 1 90 2 1
pintype=pas
}
T 48100 43700 5 10 0 0 90 0 1
symversion=0.1
T 47900 43700 5 10 0 0 90 0 1
numslots=0
T 47700 43700 5 10 0 0 90 0 1
description=capacitor
T 48500 43700 8 10 0 1 90 0 1
refdes=C?
T 48300 43700 5 10 0 0 90 0 1
device=CAPACITOR
]
{
T 48300 43700 5 10 0 0 90 0 1
device=CAPACITOR
T 48100 43700 5 10 0 0 90 0 1
symversion=0.1
T 48900 43600 5 10 0 1 0 0 1
footprint=0603_BS_1
T 48750 44050 5 10 1 1 90 0 1
refdes=C32
T 48750 43850 5 10 1 1 90 6 1
value=1u
}
C 48700 42900 1 0 0 EMBEDDEDgnd-1.sym
[
P 48800 43000 48800 43200 1 0 1
{
T 48858 43061 5 4 0 1 0 0 1
pinnumber=1
T 48858 43061 5 4 0 0 0 0 1
pinseq=1
T 48858 43061 5 4 0 1 0 0 1
pinlabel=1
T 48858 43061 5 4 0 1 0 0 1
pintype=pwr
}
L 48700 43000 48900 43000 3 0 0 0 -1 -1
L 48755 42950 48845 42950 3 0 0 0 -1 -1
L 48780 42910 48820 42910 3 0 0 0 -1 -1
T 49000 42950 8 10 0 0 0 0 1
net=GND:1
]
N 48800 43200 48800 43500 4
N 48800 44400 48800 44600 4
N 42600 42800 42600 43100 4
N 41900 42800 41900 43100 4
C 41200 44300 1 0 0 EMBEDDEDgeneric-power.sym
[
P 41400 44300 41400 44500 1 0 0
{
T 41450 44350 5 6 0 1 0 0 1
pinnumber=1
T 41450 44350 5 6 0 0 0 0 1
pinseq=1
T 41450 44350 5 6 0 1 0 0 1
pinlabel=1
T 41450 44350 5 6 0 1 0 0 1
pintype=pwr
}
L 41250 44500 41550 44500 3 0 0 0 -1 -1
T 41400 44550 8 10 0 1 0 3 1
net=Vcc:1
]
{
T 41400 44550 5 10 1 1 0 3 1
net=VAUX:1
}
T 48900 44700 9 10 1 0 0 0 1
5V/260mA
C 50800 43500 1 90 0 EMBEDDEDcapacitor-1.sym
[
P 50600 43500 50600 43700 1 0 0
{
T 50550 43650 5 8 0 1 90 6 1
pinnumber=1
T 50650 43650 5 8 0 1 90 8 1
pinseq=1
T 50600 43700 9 8 0 1 90 0 1
pinlabel=1
T 50600 43700 5 8 0 1 90 2 1
pintype=pas
}
P 50600 44400 50600 44200 1 0 0
{
T 50550 44250 5 8 0 1 90 0 1
pinnumber=2
T 50650 44250 5 8 0 1 90 2 1
pinseq=2
T 50600 44200 9 8 0 1 90 6 1
pinlabel=2
T 50600 44200 5 8 0 1 90 8 1
pintype=pas
}
L 50400 43900 50800 43900 3 0 0 0 -1 -1
L 50400 44000 50800 44000 3 0 0 0 -1 -1
L 50600 44200 50600 44000 3 0 0 0 -1 -1
L 50600 43900 50600 43700 3 0 0 0 -1 -1
T 50100 43700 5 10 0 0 90 0 1
device=CAPACITOR
T 50300 43700 8 10 0 1 90 0 1
refdes=C?
T 49500 43700 5 10 0 0 90 0 1
description=capacitor
T 49700 43700 5 10 0 0 90 0 1
numslots=0
T 49900 43700 5 10 0 0 90 0 1
symversion=0.1
]
{
T 50100 43700 5 10 0 0 90 0 1
device=CAPACITOR
T 50500 43800 5 10 1 1 90 6 1
refdes=C33
T 49900 43700 5 10 0 0 90 0 1
symversion=0.1
T 50500 44100 5 10 1 1 90 0 1
value=100n
T 50800 43500 5 10 0 0 0 0 1
footprint=0603_BS_1
}
C 51300 43500 1 90 0 EMBEDDEDcapacitor-1.sym
[
P 51100 43500 51100 43700 1 0 0
{
T 51050 43650 5 8 0 1 90 6 1
pinnumber=1
T 51150 43650 5 8 0 1 90 8 1
pinseq=1
T 51100 43700 9 8 0 1 90 0 1
pinlabel=1
T 51100 43700 5 8 0 1 90 2 1
pintype=pas
}
P 51100 44400 51100 44200 1 0 0
{
T 51050 44250 5 8 0 1 90 0 1
pinnumber=2
T 51150 44250 5 8 0 1 90 2 1
pinseq=2
T 51100 44200 9 8 0 1 90 6 1
pinlabel=2
T 51100 44200 5 8 0 1 90 8 1
pintype=pas
}
L 50900 43900 51300 43900 3 0 0 0 -1 -1
L 50900 44000 51300 44000 3 0 0 0 -1 -1
L 51100 44200 51100 44000 3 0 0 0 -1 -1
L 51100 43900 51100 43700 3 0 0 0 -1 -1
T 50600 43700 5 10 0 0 90 0 1
device=CAPACITOR
T 50800 43700 8 10 0 1 90 0 1
refdes=C?
T 50000 43700 5 10 0 0 90 0 1
description=capacitor
T 50200 43700 5 10 0 0 90 0 1
numslots=0
T 50400 43700 5 10 0 0 90 0 1
symversion=0.1
]
{
T 50600 43700 5 10 0 0 90 0 1
device=CAPACITOR
T 51000 43800 5 10 1 1 90 6 1
refdes=C34
T 50400 43700 5 10 0 0 90 0 1
symversion=0.1
T 51000 44100 5 10 1 1 90 0 1
value=100n
T 51300 43500 5 10 0 0 0 0 1
footprint=0603_BS_1
}
C 51800 43500 1 90 0 EMBEDDEDcapacitor-1.sym
[
P 51600 43500 51600 43700 1 0 0
{
T 51550 43650 5 8 0 1 90 6 1
pinnumber=1
T 51650 43650 5 8 0 1 90 8 1
pinseq=1
T 51600 43700 9 8 0 1 90 0 1
pinlabel=1
T 51600 43700 5 8 0 1 90 2 1
pintype=pas
}
P 51600 44400 51600 44200 1 0 0
{
T 51550 44250 5 8 0 1 90 0 1
pinnumber=2
T 51650 44250 5 8 0 1 90 2 1
pinseq=2
T 51600 44200 9 8 0 1 90 6 1
pinlabel=2
T 51600 44200 5 8 0 1 90 8 1
pintype=pas
}
L 51400 43900 51800 43900 3 0 0 0 -1 -1
L 51400 44000 51800 44000 3 0 0 0 -1 -1
L 51600 44200 51600 44000 3 0 0 0 -1 -1
L 51600 43900 51600 43700 3 0 0 0 -1 -1
T 51100 43700 5 10 0 0 90 0 1
device=CAPACITOR
T 51300 43700 8 10 0 1 90 0 1
refdes=C?
T 50500 43700 5 10 0 0 90 0 1
description=capacitor
T 50700 43700 5 10 0 0 90 0 1
numslots=0
T 50900 43700 5 10 0 0 90 0 1
symversion=0.1
]
{
T 51100 43700 5 10 0 0 90 0 1
device=CAPACITOR
T 51500 43800 5 10 1 1 90 6 1
refdes=C35
T 50900 43700 5 10 0 0 90 0 1
symversion=0.1
T 51500 44100 5 10 1 1 90 0 1
value=100n
T 51800 43500 5 10 0 0 0 0 1
footprint=0603_BS_1
}
C 50500 43200 1 0 0 EMBEDDEDgnd-1.sym
[
P 50600 43300 50600 43500 1 0 1
{
T 50658 43361 5 4 0 1 0 0 1
pinnumber=1
T 50658 43361 5 4 0 0 0 0 1
pinseq=1
T 50658 43361 5 4 0 1 0 0 1
pinlabel=1
T 50658 43361 5 4 0 1 0 0 1
pintype=pwr
}
L 50500 43300 50700 43300 3 0 0 0 -1 -1
L 50555 43250 50645 43250 3 0 0 0 -1 -1
L 50580 43210 50620 43210 3 0 0 0 -1 -1
T 50800 43250 8 10 0 0 0 0 1
net=GND:1
]
C 51000 43200 1 0 0 EMBEDDEDgnd-1.sym
[
P 51100 43300 51100 43500 1 0 1
{
T 51158 43361 5 4 0 1 0 0 1
pinnumber=1
T 51158 43361 5 4 0 0 0 0 1
pinseq=1
T 51158 43361 5 4 0 1 0 0 1
pinlabel=1
T 51158 43361 5 4 0 1 0 0 1
pintype=pwr
}
L 51000 43300 51200 43300 3 0 0 0 -1 -1
L 51055 43250 51145 43250 3 0 0 0 -1 -1
L 51080 43210 51120 43210 3 0 0 0 -1 -1
T 51300 43250 8 10 0 0 0 0 1
net=GND:1
]
C 51500 43200 1 0 0 EMBEDDEDgnd-1.sym
[
P 51600 43300 51600 43500 1 0 1
{
T 51658 43361 5 4 0 1 0 0 1
pinnumber=1
T 51658 43361 5 4 0 0 0 0 1
pinseq=1
T 51658 43361 5 4 0 1 0 0 1
pinlabel=1
T 51658 43361 5 4 0 1 0 0 1
pintype=pwr
}
L 51500 43300 51700 43300 3 0 0 0 -1 -1
L 51555 43250 51645 43250 3 0 0 0 -1 -1
L 51580 43210 51620 43210 3 0 0 0 -1 -1
T 51800 43250 8 10 0 0 0 0 1
net=GND:1
]
N 51600 44600 51600 44400 4
N 51100 44400 51100 44600 4
N 50600 44400 50600 44600 4
C 49900 44700 1 0 0 EMBEDDEDvcc-1.sym
[
L 49950 44900 50250 44900 3 0 0 0 -1 -1
P 50100 44700 50100 44900 1 0 0
{
T 50150 44750 5 6 0 1 0 0 1
pintype=pwr
T 50150 44750 5 6 0 1 0 0 1
pinlabel=1
T 50150 44750 5 6 0 0 0 0 1
pinseq=1
T 50150 44750 5 6 0 1 0 0 1
pinnumber=1
}
T 50350 44900 8 10 0 0 0 0 1
net=Vcc:1
T 49975 44950 9 8 1 0 0 0 1
Vcc
]
N 50100 44600 50100 44700 4
T 45900 50600 9 10 1 0 0 0 1
Auxiliary PSU
T 46400 45300 9 10 1 0 0 0 1
Logic PSU
N 44800 49200 44800 48600 4
N 45500 49200 45500 48600 4
N 45500 48800 44000 48800 4
N 44800 48900 44000 48900 4
N 45500 50100 45500 50300 4
N 44800 47700 44800 47300 4
N 45500 47300 45500 47700 4
T 50800 40900 9 20 1 0 0 0 1
Digitally Controlled PSU
T 53400 40100 9 10 1 0 0 0 1
Vagrearg
T 53400 40400 9 10 1 0 0 0 1
20140804
T 49700 40400 9 10 1 0 0 0 1
CC-BY-SA-3.0/CERN OHL-1.2
T 49700 40100 9 10 1 0 0 0 1
2
T 51200 40100 9 10 1 0 0 0 1
3
N 46700 48800 46700 48400 4
C 42400 44000 1 270 0 EMBEDDEDcapacitor-5.sym
[
P 42600 44000 42600 43800 1 0 0
{
T 42650 43850 5 8 0 1 270 6 1
pinnumber=1
T 42550 43850 5 8 0 1 270 8 1
pinseq=1
T 42600 43800 9 8 0 1 270 0 1
pinlabel=+
T 42600 43800 5 8 0 1 270 2 1
pintype=pas
}
P 42600 43100 42600 43300 1 0 0
{
T 42650 43250 5 8 0 1 270 0 1
pinnumber=2
T 42550 43250 5 8 0 1 270 2 1
pinseq=2
T 42600 43300 9 8 0 1 270 6 1
pinlabel=-
T 42600 43300 5 8 0 1 270 8 1
pintype=pas
}
L 42800 43450 42400 43450 3 0 0 0 -1 -1
L 42600 43300 42600 43450 3 0 0 0 -1 -1
L 42600 43650 42600 43800 3 0 0 0 -1 -1
L 42800 43761 42700 43761 3 0 0 0 -1 -1
L 42749 43710 42749 43810 3 0 0 0 -1 -1
B 42400 43550 400 100 3 0 0 0 -1 -1 0 -1 -1 -1 -1 -1
T 43500 43800 5 10 0 0 270 0 1
device=POLARIZED_CAPACITOR
T 42900 43800 8 10 0 1 270 0 1
refdes=C?
T 43700 43800 5 10 0 0 270 0 1
description=polarized capacitor
T 43300 43800 5 10 0 0 270 0 1
numslots=0
T 43100 43800 5 10 0 0 270 0 1
symversion=0.1
T 42900 43400 8 10 0 1 270 0 1
value=1u
]
{
T 43500 43800 5 10 0 0 270 0 1
device=POLARIZED_CAPACITOR
T 43100 43800 5 10 0 0 270 0 1
symversion=0.1
T 42500 43400 5 10 1 1 180 0 1
refdes=C28
T 42500 43700 5 10 1 1 0 6 1
value=10u
T 42400 44000 5 10 0 0 0 0 1
footprint=NICHICON_WT_CAP_6p3_7p7
}
C 53400 43200 1 0 0 EMBEDDEDhole.sym
[
V 53900 43700 300 3 0 0 0 -1 -1 0 -1 -1 -1 -1 -1
V 53900 43700 200 3 0 0 0 -1 -1 0 -1 -1 -1 -1 -1
L 53900 44100 53900 43300 3 0 0 0 -1 -1
L 53500 43700 54300 43700 3 0 0 0 -1 -1
T 54200 44100 8 10 0 1 0 0 1
footprint=HOLE-3mm3
T 53500 44000 8 10 0 1 0 0 1
refdes=H?
T 54100 44000 8 10 0 1 0 0 1
value=3.3mm
]
{
T 54200 44100 5 10 0 1 0 0 1
footprint=HOLE-3mm2
T 53500 44000 5 10 1 1 0 0 1
refdes=H1
T 54100 44000 5 10 1 1 0 0 1
value=3.2mm
}
C 54700 43200 1 0 0 EMBEDDEDhole.sym
[
V 55200 43700 300 3 0 0 0 -1 -1 0 -1 -1 -1 -1 -1
V 55200 43700 200 3 0 0 0 -1 -1 0 -1 -1 -1 -1 -1
L 55200 44100 55200 43300 3 0 0 0 -1 -1
L 54800 43700 55600 43700 3 0 0 0 -1 -1
T 55500 44100 8 10 0 1 0 0 1
footprint=HOLE-3mm3
T 54800 44000 8 10 0 1 0 0 1
refdes=H?
T 55400 44000 8 10 0 1 0 0 1
value=3.3mm
]
{
T 55500 44100 5 10 0 1 0 0 1
footprint=HOLE-3mm2
T 54800 44000 5 10 1 1 0 0 1
refdes=H3
T 55400 44000 5 10 1 1 0 0 1
value=3.2mm
}
C 53400 42300 1 0 0 EMBEDDEDhole.sym
[
V 53900 42800 300 3 0 0 0 -1 -1 0 -1 -1 -1 -1 -1
V 53900 42800 200 3 0 0 0 -1 -1 0 -1 -1 -1 -1 -1
L 53900 43200 53900 42400 3 0 0 0 -1 -1
L 53500 42800 54300 42800 3 0 0 0 -1 -1
T 54200 43200 8 10 0 1 0 0 1
footprint=HOLE-3mm3
T 53500 43100 8 10 0 1 0 0 1
refdes=H?
T 54100 43100 8 10 0 1 0 0 1
value=3.3mm
]
{
T 54200 43200 5 10 0 1 0 0 1
footprint=HOLE-3mm2
T 53500 43100 5 10 1 1 0 0 1
refdes=H2
T 54100 43100 5 10 1 1 0 0 1
value=3.2mm
}
C 54700 42300 1 0 0 EMBEDDEDhole.sym
[
V 55200 42800 300 3 0 0 0 -1 -1 0 -1 -1 -1 -1 -1
V 55200 42800 200 3 0 0 0 -1 -1 0 -1 -1 -1 -1 -1
L 55200 43200 55200 42400 3 0 0 0 -1 -1
L 54800 42800 55600 42800 3 0 0 0 -1 -1
T 55500 43200 8 10 0 1 0 0 1
footprint=HOLE-3mm3
T 54800 43100 8 10 0 1 0 0 1
refdes=H?
T 55400 43100 8 10 0 1 0 0 1
value=3.3mm
]
{
T 55500 43200 5 10 0 1 0 0 1
footprint=HOLE-3mm2
T 54800 43100 5 10 1 1 0 0 1
refdes=H4
T 55400 43100 5 10 1 1 0 0 1
value=3.2mm
}
C 43500 48400 1 0 1 EMBEDDEDtransformer-BS-4.sym
[
A 43000 49800 98 90 180 3 0 0 0 -1 -1
A 43000 49600 98 90 180 3 0 0 0 -1 -1
A 43000 49400 98 90 180 3 0 0 0 -1 -1
A 43000 49000 100 90 180 3 0 0 0 -1 -1
A 42500 49800 98 270 180 3 0 0 0 -1 -1
A 43000 48800 98 90 180 3 0 0 0 -1 -1
A 43000 48600 98 90 180 3 0 0 0 -1 -1
A 42500 49600 98 270 180 3 0 0 0 -1 -1
A 42500 49400 98 270 180 3 0 0 0 -1 -1
A 42500 49000 98 270 180 3 0 0 0 -1 -1
A 42500 48800 98 270 180 3 0 0 0 -1 -1
A 42500 48600 98 270 180 3 0 0 0 -1 -1
L 43000 49900 43300 49900 3 0 0 0 -1 -1
L 43000 48500 43300 48500 3 0 0 0 -1 -1
L 42500 49900 42200 49900 3 0 0 0 -1 -1
L 42500 49300 42200 49300 3 0 0 0 -1 -1
L 42800 49900 42800 48500 3 0 0 0 -1 -1
L 42700 49900 42700 48500 3 0 0 0 -1 -1
P 43300 49100 43500 49100 1 0 1
{
T 43300 48900 5 10 0 1 0 6 1
pinnumber=7
T 43200 49200 5 10 0 0 0 6 1
pinseq=7
T 43300 48900 5 10 0 1 0 6 1
pinlabel=7
T 43300 48900 5 10 0 1 0 6 1
pintype=pas
}
P 43300 49300 43500 49300 1 0 1
{
T 43300 49400 5 10 0 1 0 6 1
pinnumber=6
T 43300 49200 5 10 0 0 0 6 1
pinseq=6
T 43300 49400 5 10 0 1 0 6 1
pinlabel=6
T 43300 49400 5 10 0 1 0 6 1
pintype=pas
}
P 42200 49900 42000 49900 1 0 1
{
T 42200 49700 5 10 0 1 0 6 1
pinnumber=1
T 42200 50000 5 10 0 0 0 6 1
pinseq=1
T 42200 49700 5 10 0 1 0 6 1
pinlabel=1
T 42200 49700 5 10 0 1 0 6 1
pintype=pas
}
P 42200 49300 42000 49300 1 0 1
{
T 42200 49400 5 10 0 1 0 6 1
pinnumber=2
T 42200 49200 5 10 0 0 0 6 1
pinseq=2
T 42200 49400 5 10 0 1 0 6 1
pinlabel=2
T 42200 49400 5 10 0 1 0 6 1
pintype=pas
}
L 43000 49300 43300 49300 3 0 0 0 -1 -1
P 43300 48500 43500 48500 1 0 1
{
T 43300 48600 5 10 0 1 0 6 1
pinnumber=8
T 43300 48400 5 10 0 0 0 6 1
pinseq=8
T 43300 48600 5 10 0 1 0 6 1
pinlabel=8
T 43300 48600 5 10 0 1 0 6 1
pintype=pas
}
P 43300 49900 43500 49900 1 0 1
{
T 43300 50000 5 10 0 1 0 6 1
pinnumber=5
T 43300 49800 5 10 0 0 0 6 1
pinseq=5
T 43300 50000 5 10 0 1 0 6 1
pinlabel=5
T 43300 50000 5 10 0 1 0 6 1
pintype=pas
}
L 43000 49100 43300 49100 3 0 0 0 -1 -1
P 42200 49100 42000 49100 1 0 1
{
T 42200 48900 5 10 0 1 0 6 1
pinnumber=3
T 42200 49200 5 10 0 0 0 6 1
pinseq=3
T 42200 48900 5 10 0 1 0 6 1
pinlabel=3
T 42200 48900 5 10 0 1 0 6 1
pintype=pas
}
P 42200 48500 42000 48500 1 0 1
{
T 42200 48600 5 10 0 1 0 6 1
pinnumber=4
T 42200 48400 5 10 0 0 0 6 1
pinseq=4
T 42200 48600 5 10 0 1 0 6 1
pinlabel=4
T 42200 48600 5 10 0 1 0 6 1
pintype=pas
}
L 42500 48500 42200 48500 3 0 0 0 -1 -1
L 42500 49100 42200 49100 3 0 0 0 -1 -1
T 43500 50000 8 10 0 1 0 6 1
refdes=T?
T 43500 50200 8 10 0 0 0 6 1
device=TRANSFORMER
]
{
T 43300 50000 5 10 1 1 0 6 1
refdes=T1
T 43500 50200 5 10 0 0 0 6 1
device=TRANSFORMER
T 43500 48300 5 10 1 1 0 6 1
value=2x115V - 2x12V/0.1A
T 42800 50000 5 10 1 1 0 6 1
model=FS24-250
T 43500 48400 5 10 0 0 0 0 1
footprint=FS24_250_BS_1
}
C 47600 49700 1 0 0 EMBEDDEDlm7812-2.sym
[
B 47900 50000 1000 600 3 0 0 0 -1 -1 0 -1 -1 -1 -1 -1
P 47900 50300 47600 50300 1 0 1
{
T 47700 50350 5 8 1 1 0 0 1
pinnumber=3
T 47700 50350 5 8 0 0 0 0 1
pinseq=3
}
P 48400 49700 48400 50000 1 0 0
{
T 48300 49800 5 8 1 1 0 0 1
pinnumber=2
T 48300 49800 5 8 0 0 0 0 1
pinseq=2
}
P 48900 50300 49200 50300 1 0 1
{
T 49030 50350 5 8 1 1 0 0 1
pinnumber=1
T 49030 50350 5 8 0 0 0 0 1
pinseq=1
}
T 48000 50300 9 8 1 0 0 0 1
IN
T 48548 50300 9 8 1 0 0 0 1
OUT
T 48500 49800 9 8 1 0 0 0 1
7812
T 49200 51000 5 10 0 0 0 0 1
device=7812
T 48256 50101 9 8 1 0 0 0 1
GND
T 49000 50700 8 10 0 1 0 6 1
refdes=U?
T 49200 50800 5 10 0 0 0 0 1
pins=3
T 49200 50600 5 10 0 0 0 0 1
net=GND:2
]
{
T 49200 51000 5 10 0 0 0 0 1
device=7812
T 49000 50700 5 10 1 1 0 6 1
refdes=U7
T 47600 49700 5 10 0 0 0 0 1
footprint=SOT89
}
C 45700 49200 1 90 0 EMBEDDEDschottky-1.sym
[
L 45300 49500 45700 49500 3 0 0 0 -1 -1
L 45300 49500 45500 49800 3 0 0 0 -1 -1
L 45500 49800 45700 49500 3 0 0 0 -1 -1
L 45300 49800 45700 49800 3 0 0 0 -1 -1
P 45500 49200 45500 49400 1 0 0
{
T 45412 49275 5 10 0 1 180 0 1
pinlabel=anode
T 45619 49190 5 10 0 1 90 0 1
pintype=pas
T 45414 49370 5 8 0 0 180 0 1
pinseq=2
T 45444 49405 5 8 0 1 90 0 1
pinnumber=2
}
P 45500 50100 45500 49900 1 0 0
{
T 45562 50131 5 10 0 1 90 0 1
pinlabel=cathode
T 45435 49998 5 10 0 1 90 0 1
pintype=pas
T 45650 49930 5 8 0 0 90 0 1
pinseq=1
T 45450 49900 5 8 0 1 90 0 1
pinnumber=1
}
L 45500 49900 45500 49800 3 0 0 0 -1 -1
L 45500 49500 45500 49400 3 0 0 0 -1 -1
A 45300 49850 50 90 180 3 0 0 0 -1 -1
A 45700 49750 50 270 180 3 0 0 0 -1 -1
T 45028 49522 8 10 0 0 90 0 1
device=DIODE
T 45200 49500 8 10 0 1 90 0 1
refdes=D?
T 44868 49541 8 10 0 1 90 0 1
footprint=SOD80
T 45185 49767 8 10 0 0 90 0 1
numslots=0
]
{
T 45028 49522 5 10 0 0 90 0 1
device=DIODE
T 44868 49541 5 10 0 1 90 0 1
footprint=SMA_BS_1
T 45400 49100 5 10 1 1 90 0 1
refdes=D7
T 45600 49400 5 10 1 1 90 8 1
value=SS14
}
C 45700 47700 1 90 0 EMBEDDEDschottky-1.sym
[
L 45300 48000 45700 48000 3 0 0 0 -1 -1
L 45300 48000 45500 48300 3 0 0 0 -1 -1
L 45500 48300 45700 48000 3 0 0 0 -1 -1
L 45300 48300 45700 48300 3 0 0 0 -1 -1
P 45500 47700 45500 47900 1 0 0
{
T 45412 47775 5 10 0 1 180 0 1
pinlabel=anode
T 45619 47690 5 10 0 1 90 0 1
pintype=pas
T 45414 47870 5 8 0 0 180 0 1
pinseq=2
T 45444 47905 5 8 0 1 90 0 1
pinnumber=2
}
P 45500 48600 45500 48400 1 0 0
{
T 45562 48631 5 10 0 1 90 0 1
pinlabel=cathode
T 45435 48498 5 10 0 1 90 0 1
pintype=pas
T 45650 48430 5 8 0 0 90 0 1
pinseq=1
T 45450 48400 5 8 0 1 90 0 1
pinnumber=1
}
L 45500 48400 45500 48300 3 0 0 0 -1 -1
L 45500 48000 45500 47900 3 0 0 0 -1 -1
A 45300 48350 50 90 180 3 0 0 0 -1 -1
A 45700 48250 50 270 180 3 0 0 0 -1 -1
T 45028 48022 8 10 0 0 90 0 1
device=DIODE
T 45200 48000 8 10 0 1 90 0 1
refdes=D?
T 44868 48041 8 10 0 1 90 0 1
footprint=SOD80
T 45185 48267 8 10 0 0 90 0 1
numslots=0
]
{
T 45028 48022 5 10 0 0 90 0 1
device=DIODE
T 44868 48041 5 10 0 1 90 0 1
footprint=SMA_BS_1
T 45400 47600 5 10 1 1 90 0 1
refdes=D9
T 45600 47900 5 10 1 1 90 8 1
value=SS14
}
C 45000 47700 1 90 0 EMBEDDEDschottky-1.sym
[
L 44600 48000 45000 48000 3 0 0 0 -1 -1
L 44600 48000 44800 48300 3 0 0 0 -1 -1
L 44800 48300 45000 48000 3 0 0 0 -1 -1
L 44600 48300 45000 48300 3 0 0 0 -1 -1
P 44800 47700 44800 47900 1 0 0
{
T 44712 47775 5 10 0 1 180 0 1
pinlabel=anode
T 44919 47690 5 10 0 1 90 0 1
pintype=pas
T 44714 47870 5 8 0 0 180 0 1
pinseq=2
T 44744 47905 5 8 0 1 90 0 1
pinnumber=2
}
P 44800 48600 44800 48400 1 0 0
{
T 44862 48631 5 10 0 1 90 0 1
pinlabel=cathode
T 44735 48498 5 10 0 1 90 0 1
pintype=pas
T 44950 48430 5 8 0 0 90 0 1
pinseq=1
T 44750 48400 5 8 0 1 90 0 1
pinnumber=1
}
L 44800 48400 44800 48300 3 0 0 0 -1 -1
L 44800 48000 44800 47900 3 0 0 0 -1 -1
A 44600 48350 50 90 180 3 0 0 0 -1 -1
A 45000 48250 50 270 180 3 0 0 0 -1 -1
T 44328 48022 8 10 0 0 90 0 1
device=DIODE
T 44500 48000 8 10 0 1 90 0 1
refdes=D?
T 44168 48041 8 10 0 1 90 0 1
footprint=SOD80
T 44485 48267 8 10 0 0 90 0 1
numslots=0
]
{
T 44328 48022 5 10 0 0 90 0 1
device=DIODE
T 44168 48041 5 10 0 1 90 0 1
footprint=SMA_BS_1
T 44700 47600 5 10 1 1 90 0 1
refdes=D8
T 44900 47900 5 10 1 1 90 8 1
value=SS14
}
C 45000 49200 1 90 0 EMBEDDEDschottky-1.sym
[
L 44600 49500 45000 49500 3 0 0 0 -1 -1
L 44600 49500 44800 49800 3 0 0 0 -1 -1
L 44800 49800 45000 49500 3 0 0 0 -1 -1
L 44600 49800 45000 49800 3 0 0 0 -1 -1
P 44800 49200 44800 49400 1 0 0
{
T 44712 49275 5 10 0 1 180 0 1
pinlabel=anode
T 44919 49190 5 10 0 1 90 0 1
pintype=pas
T 44714 49370 5 8 0 0 180 0 1
pinseq=2
T 44744 49405 5 8 0 1 90 0 1
pinnumber=2
}
P 44800 50100 44800 49900 1 0 0
{
T 44862 50131 5 10 0 1 90 0 1
pinlabel=cathode
T 44735 49998 5 10 0 1 90 0 1
pintype=pas
T 44950 49930 5 8 0 0 90 0 1
pinseq=1
T 44750 49900 5 8 0 1 90 0 1
pinnumber=1
}
L 44800 49900 44800 49800 3 0 0 0 -1 -1
L 44800 49500 44800 49400 3 0 0 0 -1 -1
A 44600 49850 50 90 180 3 0 0 0 -1 -1
A 45000 49750 50 270 180 3 0 0 0 -1 -1
T 44328 49522 8 10 0 0 90 0 1
device=DIODE
T 44500 49500 8 10 0 1 90 0 1
refdes=D?
T 44168 49541 8 10 0 1 90 0 1
footprint=SOD80
T 44485 49767 8 10 0 0 90 0 1
numslots=0
]
{
T 44328 49522 5 10 0 0 90 0 1
device=DIODE
T 44168 49541 5 10 0 1 90 0 1
footprint=SMA_BS_1
T 44700 49100 5 10 1 1 90 0 1
refdes=D6
T 44900 49400 5 10 1 1 90 8 1
value=SS14
}
C 52300 43500 1 90 0 EMBEDDEDcapacitor-1.sym
[
P 52100 43500 52100 43700 1 0 0
{
T 52050 43650 5 8 0 1 90 6 1
pinnumber=1
T 52150 43650 5 8 0 1 90 8 1
pinseq=1
T 52100 43700 9 8 0 1 90 0 1
pinlabel=1
T 52100 43700 5 8 0 1 90 2 1
pintype=pas
}
P 52100 44400 52100 44200 1 0 0
{
T 52050 44250 5 8 0 1 90 0 1
pinnumber=2
T 52150 44250 5 8 0 1 90 2 1
pinseq=2
T 52100 44200 9 8 0 1 90 6 1
pinlabel=2
T 52100 44200 5 8 0 1 90 8 1
pintype=pas
}
L 51900 43900 52300 43900 3 0 0 0 -1 -1
L 51900 44000 52300 44000 3 0 0 0 -1 -1
L 52100 44200 52100 44000 3 0 0 0 -1 -1
L 52100 43900 52100 43700 3 0 0 0 -1 -1
T 51600 43700 5 10 0 0 90 0 1
device=CAPACITOR
T 51800 43700 8 10 0 1 90 0 1
refdes=C?
T 51000 43700 5 10 0 0 90 0 1
description=capacitor
T 51200 43700 5 10 0 0 90 0 1
numslots=0
T 51400 43700 5 10 0 0 90 0 1
symversion=0.1
]
{
T 51600 43700 5 10 0 0 90 0 1
device=CAPACITOR
T 52000 43800 5 10 1 1 90 6 1
refdes=C36
T 51400 43700 5 10 0 0 90 0 1
symversion=0.1
T 52000 44100 5 10 1 1 90 0 1
value=100n
T 52300 43500 5 10 0 0 0 0 1
footprint=0603_BS_1
}
C 52000 43200 1 0 0 EMBEDDEDgnd-1.sym
[
P 52100 43300 52100 43500 1 0 1
{
T 52158 43361 5 4 0 1 0 0 1
pinnumber=1
T 52158 43361 5 4 0 0 0 0 1
pinseq=1
T 52158 43361 5 4 0 1 0 0 1
pinlabel=1
T 52158 43361 5 4 0 1 0 0 1
pintype=pwr
}
L 52000 43300 52200 43300 3 0 0 0 -1 -1
L 52055 43250 52145 43250 3 0 0 0 -1 -1
L 52080 43210 52120 43210 3 0 0 0 -1 -1
T 52300 43250 8 10 0 0 0 0 1
net=GND:1
]
N 52100 44600 52100 44400 4
C 40000 40000 0 0 0 title-A3.sym
C 52000 49200 1 90 0 EMBEDDEDcapacitor-1.sym
[
P 51800 49200 51800 49400 1 0 0
{
T 51750 49350 5 8 0 1 90 6 1
pinnumber=1
T 51850 49350 5 8 0 1 90 8 1
pinseq=1
T 51800 49400 9 8 0 1 90 0 1
pinlabel=1
T 51800 49400 5 8 0 1 90 2 1
pintype=pas
}
P 51800 50100 51800 49900 1 0 0
{
T 51750 49950 5 8 0 1 90 0 1
pinnumber=2
T 51850 49950 5 8 0 1 90 2 1
pinseq=2
T 51800 49900 9 8 0 1 90 6 1
pinlabel=2
T 51800 49900 5 8 0 1 90 8 1
pintype=pas
}
L 51600 49600 52000 49600 3 0 0 0 -1 -1
L 51600 49700 52000 49700 3 0 0 0 -1 -1
L 51800 49900 51800 49700 3 0 0 0 -1 -1
L 51800 49600 51800 49400 3 0 0 0 -1 -1
T 51300 49400 5 10 0 0 90 0 1
device=CAPACITOR
T 51500 49400 8 10 0 1 90 0 1
refdes=C?
T 50700 49400 5 10 0 0 90 0 1
description=capacitor
T 50900 49400 5 10 0 0 90 0 1
numslots=0
T 51100 49400 5 10 0 0 90 0 1
symversion=0.1
]
{
T 51300 49400 5 10 0 0 90 0 1
device=CAPACITOR
T 51700 49500 5 10 1 1 90 6 1
refdes=C50
T 51100 49400 5 10 0 0 90 0 1
symversion=0.1
T 51700 49800 5 10 1 1 90 0 1
value=100n
T 52000 49200 5 10 0 0 0 0 1
footprint=0603_BS_1
}
N 51800 50100 51800 50300 4
N 51800 49200 51800 48800 4
C 52800 43500 1 90 0 EMBEDDEDcapacitor-1.sym
[
P 52600 43500 52600 43700 1 0 0
{
T 52550 43650 5 8 0 1 90 6 1
pinnumber=1
T 52650 43650 5 8 0 1 90 8 1
pinseq=1
T 52600 43700 9 8 0 1 90 0 1
pinlabel=1
T 52600 43700 5 8 0 1 90 2 1
pintype=pas
}
P 52600 44400 52600 44200 1 0 0
{
T 52550 44250 5 8 0 1 90 0 1
pinnumber=2
T 52650 44250 5 8 0 1 90 2 1
pinseq=2
T 52600 44200 9 8 0 1 90 6 1
pinlabel=2
T 52600 44200 5 8 0 1 90 8 1
pintype=pas
}
L 52400 43900 52800 43900 3 0 0 0 -1 -1
L 52400 44000 52800 44000 3 0 0 0 -1 -1
L 52600 44200 52600 44000 3 0 0 0 -1 -1
L 52600 43900 52600 43700 3 0 0 0 -1 -1
T 52100 43700 5 10 0 0 90 0 1
device=CAPACITOR
T 52300 43700 8 10 0 1 90 0 1
refdes=C?
T 51500 43700 5 10 0 0 90 0 1
description=capacitor
T 51700 43700 5 10 0 0 90 0 1
numslots=0
T 51900 43700 5 10 0 0 90 0 1
symversion=0.1
]
{
T 52100 43700 5 10 0 0 90 0 1
device=CAPACITOR
T 51900 43700 5 10 0 0 90 0 1
symversion=0.1
T 52800 43500 5 10 0 0 0 0 1
footprint=0603_BS_1
T 52500 43800 5 10 1 1 90 6 1
refdes=C51
T 52500 44100 5 10 1 1 90 0 1
value=100n
}
C 52500 43200 1 0 0 EMBEDDEDgnd-1.sym
[
P 52600 43300 52600 43500 1 0 1
{
T 52658 43361 5 4 0 1 0 0 1
pinnumber=1
T 52658 43361 5 4 0 0 0 0 1
pinseq=1
T 52658 43361 5 4 0 1 0 0 1
pinlabel=1
T 52658 43361 5 4 0 1 0 0 1
pintype=pwr
}
L 52500 43300 52700 43300 3 0 0 0 -1 -1
L 52555 43250 52645 43250 3 0 0 0 -1 -1
L 52580 43210 52620 43210 3 0 0 0 -1 -1
T 52800 43250 8 10 0 0 0 0 1
net=GND:1
]
N 52600 44600 52600 44400 4
