v 20130925 2
C 52700 49800 1 0 0 EMBEDDEDmax5215-1.sym
[
B 53000 49900 1200 1200 3 0 0 0 -1 -1 0 -1 -1 -1 -1 -1
P 52700 50900 53000 50900 1 0 0
{
T 52900 50950 5 8 1 1 0 6 1
pinnumber=5
T 53050 50900 9 8 1 1 0 0 1
pinlabel=\_AUX\_
T 53050 50900 5 8 0 1 0 2 1
pintype=in
T 52900 50850 5 8 0 1 0 8 1
pinseq=5
}
P 52700 50600 53000 50600 1 0 0
{
T 52900 50650 5 8 1 1 0 6 1
pinnumber=2
T 53050 50600 9 8 1 1 0 0 1
pinlabel=ADDR
T 53050 50600 5 8 0 1 0 2 1
pintype=in
T 52900 50550 5 8 0 1 0 8 1
pinseq=2
}
P 52700 50200 53000 50200 1 0 0
{
T 52900 50250 5 8 1 1 0 6 1
pinnumber=4
T 53050 50200 9 8 1 1 0 0 1
pinlabel=SDA
T 53050 50200 5 8 0 1 0 2 1
pintype=io
T 52900 50150 5 8 0 1 0 8 1
pinseq=4
}
P 52700 50000 53000 50000 1 0 0
{
T 52900 50050 5 8 1 1 0 6 1
pinnumber=3
T 53050 50000 9 8 1 1 0 0 1
pinlabel=SCL
T 53050 50000 5 8 0 1 0 2 1
pintype=in
T 52900 49950 5 8 0 1 0 8 1
pinseq=4
}
P 54500 50600 54200 50600 1 0 0
{
T 54300 50650 5 8 1 1 0 0 1
pinnumber=1
T 54150 50600 9 8 1 1 0 6 1
pinlabel=VREF
T 54150 50600 5 8 0 1 0 8 1
pintype=in
T 54300 50550 5 8 0 1 0 2 1
pinseq=1
}
P 54500 50300 54200 50300 1 0 0
{
T 54300 50350 5 8 1 1 0 0 1
pinnumber=6
T 54150 50300 9 8 1 1 0 6 1
pinlabel=OUT
T 54150 50300 5 8 0 1 0 8 1
pintype=out
T 54300 50250 5 8 0 1 0 2 1
pinseq=6
}
P 54500 50900 54200 50900 1 0 0
{
T 54300 50950 5 8 1 1 0 0 1
pinnumber=7
T 54150 50900 9 8 1 1 0 6 1
pinlabel=VCC
T 54150 50900 5 8 0 1 0 8 1
pintype=pwr
T 54300 50850 5 8 0 1 0 2 1
pinseq=7
}
P 54500 50000 54200 50000 1 0 0
{
T 54300 50050 5 8 1 1 0 0 1
pinnumber=8
T 54150 50000 9 8 1 1 0 6 1
pinlabel=GND
T 54150 50000 5 8 0 1 0 8 1
pintype=pwr
T 54300 49950 5 8 0 1 0 2 1
pinseq=8
}
T 54200 51150 8 10 0 1 0 6 1
refdes=U?
T 53000 51600 8 10 0 0 0 0 1
description=14/16 bit DAC with I2C
T 53000 51800 8 10 0 0 0 0 1
footprint=SO8
T 53000 51150 8 10 0 1 0 0 1
device=MAX5215
T 53000 52000 8 10 0 0 0 0 1
numslots=0
]
{
T 54200 51150 5 10 1 1 0 6 1
refdes=U4
T 53000 51800 5 10 0 0 0 0 1
footprint=MSOP8_BS_1
T 53000 51150 5 10 1 1 0 0 1
device=MAX5217
}
C 52800 47800 1 0 0 EMBEDDEDmax5215-1.sym
[
B 53100 47900 1200 1200 3 0 0 0 -1 -1 0 -1 -1 -1 -1 -1
P 52800 48900 53100 48900 1 0 0
{
T 53000 48950 5 8 1 1 0 6 1
pinnumber=5
T 53150 48900 9 8 1 1 0 0 1
pinlabel=\_AUX\_
T 53150 48900 5 8 0 1 0 2 1
pintype=in
T 53000 48850 5 8 0 1 0 8 1
pinseq=5
}
P 52800 48600 53100 48600 1 0 0
{
T 53000 48650 5 8 1 1 0 6 1
pinnumber=2
T 53150 48600 9 8 1 1 0 0 1
pinlabel=ADDR
T 53150 48600 5 8 0 1 0 2 1
pintype=in
T 53000 48550 5 8 0 1 0 8 1
pinseq=2
}
P 52800 48200 53100 48200 1 0 0
{
T 53000 48250 5 8 1 1 0 6 1
pinnumber=4
T 53150 48200 9 8 1 1 0 0 1
pinlabel=SDA
T 53150 48200 5 8 0 1 0 2 1
pintype=io
T 53000 48150 5 8 0 1 0 8 1
pinseq=4
}
P 52800 48000 53100 48000 1 0 0
{
T 53000 48050 5 8 1 1 0 6 1
pinnumber=3
T 53150 48000 9 8 1 1 0 0 1
pinlabel=SCL
T 53150 48000 5 8 0 1 0 2 1
pintype=in
T 53000 47950 5 8 0 1 0 8 1
pinseq=4
}
P 54600 48600 54300 48600 1 0 0
{
T 54400 48650 5 8 1 1 0 0 1
pinnumber=1
T 54250 48600 9 8 1 1 0 6 1
pinlabel=VREF
T 54250 48600 5 8 0 1 0 8 1
pintype=in
T 54400 48550 5 8 0 1 0 2 1
pinseq=1
}
P 54600 48300 54300 48300 1 0 0
{
T 54400 48350 5 8 1 1 0 0 1
pinnumber=6
T 54250 48300 9 8 1 1 0 6 1
pinlabel=OUT
T 54250 48300 5 8 0 1 0 8 1
pintype=out
T 54400 48250 5 8 0 1 0 2 1
pinseq=6
}
P 54600 48900 54300 48900 1 0 0
{
T 54400 48950 5 8 1 1 0 0 1
pinnumber=7
T 54250 48900 9 8 1 1 0 6 1
pinlabel=VCC
T 54250 48900 5 8 0 1 0 8 1
pintype=pwr
T 54400 48850 5 8 0 1 0 2 1
pinseq=7
}
P 54600 48000 54300 48000 1 0 0
{
T 54400 48050 5 8 1 1 0 0 1
pinnumber=8
T 54250 48000 9 8 1 1 0 6 1
pinlabel=GND
T 54250 48000 5 8 0 1 0 8 1
pintype=pwr
T 54400 47950 5 8 0 1 0 2 1
pinseq=8
}
T 54300 49150 8 10 0 1 0 6 1
refdes=U?
T 53100 49600 8 10 0 0 0 0 1
description=14/16 bit DAC with I2C
T 53100 49800 8 10 0 0 0 0 1
footprint=SO8
T 53100 49150 8 10 0 1 0 0 1
device=MAX5215
T 53100 50000 8 10 0 0 0 0 1
numslots=0
]
{
T 54300 49150 5 10 1 1 0 6 1
refdes=U5
T 53100 49800 5 10 0 0 0 0 1
footprint=MSOP8_BS_1
T 53100 49150 5 10 1 1 0 0 1
device=MAX5217
}
C 54500 49700 1 0 0 EMBEDDEDgnd-1.sym
[
P 54600 49800 54600 50000 1 0 1
{
T 54658 49861 5 4 0 1 0 0 1
pinnumber=1
T 54658 49861 5 4 0 0 0 0 1
pinseq=1
T 54658 49861 5 4 0 1 0 0 1
pinlabel=1
T 54658 49861 5 4 0 1 0 0 1
pintype=pwr
}
L 54500 49800 54700 49800 3 0 0 0 -1 -1
L 54555 49750 54645 49750 3 0 0 0 -1 -1
L 54580 49710 54620 49710 3 0 0 0 -1 -1
T 54800 49750 8 10 0 0 0 0 1
net=GND:1
]
C 54600 47700 1 0 0 EMBEDDEDgnd-1.sym
[
P 54700 47800 54700 48000 1 0 1
{
T 54758 47861 5 4 0 1 0 0 1
pinnumber=1
T 54758 47861 5 4 0 0 0 0 1
pinseq=1
T 54758 47861 5 4 0 1 0 0 1
pinlabel=1
T 54758 47861 5 4 0 1 0 0 1
pintype=pwr
}
L 54600 47800 54800 47800 3 0 0 0 -1 -1
L 54655 47750 54745 47750 3 0 0 0 -1 -1
L 54680 47710 54720 47710 3 0 0 0 -1 -1
T 54900 47750 8 10 0 0 0 0 1
net=GND:1
]
C 54400 50900 1 0 0 EMBEDDEDvcc-1.sym
[
P 54600 50900 54600 51100 1 0 0
{
T 54650 50950 5 6 0 1 0 0 1
pinnumber=1
T 54650 50950 5 6 0 0 0 0 1
pinseq=1
T 54650 50950 5 6 0 1 0 0 1
pinlabel=1
T 54650 50950 5 6 0 1 0 0 1
pintype=pwr
}
L 54450 51100 54750 51100 3 0 0 0 -1 -1
T 54475 51150 9 8 1 0 0 0 1
Vcc
T 54850 51100 8 10 0 0 0 0 1
net=Vcc:1
]
N 54600 50900 54500 50900 4
C 54500 48900 1 0 0 EMBEDDEDvcc-1.sym
[
P 54700 48900 54700 49100 1 0 0
{
T 54750 48950 5 6 0 1 0 0 1
pinnumber=1
T 54750 48950 5 6 0 0 0 0 1
pinseq=1
T 54750 48950 5 6 0 1 0 0 1
pinlabel=1
T 54750 48950 5 6 0 1 0 0 1
pintype=pwr
}
L 54550 49100 54850 49100 3 0 0 0 -1 -1
T 54575 49150 9 8 1 0 0 0 1
Vcc
T 54950 49100 8 10 0 0 0 0 1
net=Vcc:1
]
N 54700 48900 54600 48900 4
C 52100 50100 1 0 0 EMBEDDEDin-1.sym
[
P 52500 50200 52700 50200 1 0 1
{
T 52550 50250 5 6 0 1 0 0 1
pinnumber=1
T 52550 50250 5 6 0 0 0 0 1
pinseq=1
}
L 52200 50200 52100 50300 6 0 0 0 -1 -1
L 52200 50200 52100 50100 6 0 0 0 -1 -1
L 52500 50200 52200 50200 6 0 0 0 -1 -1
T 52100 50400 5 10 0 0 0 0 1
device=INPUT
T 52100 50400 8 10 0 1 0 0 1
refdes=pinlabel
]
{
T 52100 50400 5 10 0 0 0 0 1
device=INPUT
T 52050 50200 5 10 1 1 0 7 1
value=SDA
T 52100 50100 5 10 0 0 0 0 1
net=SDA:1
}
C 52100 49900 1 0 0 EMBEDDEDin-1.sym
[
P 52500 50000 52700 50000 1 0 1
{
T 52550 50050 5 6 0 1 0 0 1
pinnumber=1
T 52550 50050 5 6 0 0 0 0 1
pinseq=1
}
L 52200 50000 52100 50100 6 0 0 0 -1 -1
L 52200 50000 52100 49900 6 0 0 0 -1 -1
L 52500 50000 52200 50000 6 0 0 0 -1 -1
T 52100 50200 5 10 0 0 0 0 1
device=INPUT
T 52100 50200 8 10 0 1 0 0 1
refdes=pinlabel
]
{
T 52100 50200 5 10 0 0 0 0 1
device=INPUT
T 52050 50000 5 10 1 1 0 7 1
value=SCL
T 52100 49900 5 10 0 0 0 0 1
net=SCL:1
}
C 52200 47900 1 0 0 EMBEDDEDin-1.sym
[
P 52600 48000 52800 48000 1 0 1
{
T 52650 48050 5 6 0 1 0 0 1
pinnumber=1
T 52650 48050 5 6 0 0 0 0 1
pinseq=1
}
L 52300 48000 52200 48100 6 0 0 0 -1 -1
L 52300 48000 52200 47900 6 0 0 0 -1 -1
L 52600 48000 52300 48000 6 0 0 0 -1 -1
T 52200 48200 5 10 0 0 0 0 1
device=INPUT
T 52200 48200 8 10 0 1 0 0 1
refdes=pinlabel
]
{
T 52200 48200 5 10 0 0 0 0 1
device=INPUT
T 52150 48000 5 10 1 1 0 7 1
value=SCL
T 52200 47900 5 10 0 0 0 0 1
net=SCL:1
}
C 52200 48100 1 0 0 EMBEDDEDin-1.sym
[
P 52600 48200 52800 48200 1 0 1
{
T 52650 48250 5 6 0 1 0 0 1
pinnumber=1
T 52650 48250 5 6 0 0 0 0 1
pinseq=1
}
L 52300 48200 52200 48300 6 0 0 0 -1 -1
L 52300 48200 52200 48100 6 0 0 0 -1 -1
L 52600 48200 52300 48200 6 0 0 0 -1 -1
T 52200 48400 5 10 0 0 0 0 1
device=INPUT
T 52200 48400 8 10 0 1 0 0 1
refdes=pinlabel
]
{
T 52200 48400 5 10 0 0 0 0 1
device=INPUT
T 52150 48200 5 10 1 1 0 7 1
value=SDA
T 52200 48100 5 10 0 0 0 0 1
net=SDA:1
}
C 52500 50300 1 0 0 EMBEDDEDgnd-1.sym
[
P 52600 50400 52600 50600 1 0 1
{
T 52658 50461 5 4 0 1 0 0 1
pinnumber=1
T 52658 50461 5 4 0 0 0 0 1
pinseq=1
T 52658 50461 5 4 0 1 0 0 1
pinlabel=1
T 52658 50461 5 4 0 1 0 0 1
pintype=pwr
}
L 52500 50400 52700 50400 3 0 0 0 -1 -1
L 52555 50350 52645 50350 3 0 0 0 -1 -1
L 52580 50310 52620 50310 3 0 0 0 -1 -1
T 52800 50350 8 10 0 0 0 0 1
net=GND:1
]
C 52500 48900 1 0 0 EMBEDDEDvcc-1.sym
[
P 52700 48900 52700 49100 1 0 0
{
T 52750 48950 5 6 0 1 0 0 1
pinnumber=1
T 52750 48950 5 6 0 0 0 0 1
pinseq=1
T 52750 48950 5 6 0 1 0 0 1
pinlabel=1
T 52750 48950 5 6 0 1 0 0 1
pintype=pwr
}
L 52550 49100 52850 49100 3 0 0 0 -1 -1
T 52575 49150 9 8 1 0 0 0 1
Vcc
T 52950 49100 8 10 0 0 0 0 1
net=Vcc:1
]
C 52400 50900 1 0 0 EMBEDDEDvcc-1.sym
[
P 52600 50900 52600 51100 1 0 0
{
T 52650 50950 5 6 0 1 0 0 1
pinnumber=1
T 52650 50950 5 6 0 0 0 0 1
pinseq=1
T 52650 50950 5 6 0 1 0 0 1
pinlabel=1
T 52650 50950 5 6 0 1 0 0 1
pintype=pwr
}
L 52450 51100 52750 51100 3 0 0 0 -1 -1
T 52475 51150 9 8 1 0 0 0 1
Vcc
T 52850 51100 8 10 0 0 0 0 1
net=Vcc:1
]
N 52600 50900 52700 50900 4
N 52800 48600 52700 48600 4
N 52700 48600 52700 48900 4
N 52700 48900 52800 48900 4
N 52600 50600 52700 50600 4
N 54600 50000 54500 50000 4
N 54700 48000 54600 48000 4
C 55100 50500 1 0 1 EMBEDDEDin-1.sym
[
P 54700 50600 54500 50600 1 0 1
{
T 54650 50650 5 6 0 1 0 6 1
pinnumber=1
T 54650 50650 5 6 0 0 0 6 1
pinseq=1
}
L 55000 50600 55100 50700 6 0 0 0 -1 -1
L 55000 50600 55100 50500 6 0 0 0 -1 -1
L 54700 50600 55000 50600 6 0 0 0 -1 -1
T 55100 50800 5 10 0 0 0 6 1
device=INPUT
T 55100 50800 8 10 0 1 0 6 1
refdes=pinlabel
]
{
T 55100 50800 5 10 0 0 0 6 1
device=INPUT
T 55150 50600 5 10 1 1 0 1 1
value=VREF
T 55100 50500 5 10 0 0 0 6 1
net=VREF:1
}
C 55200 48500 1 0 1 EMBEDDEDin-1.sym
[
P 54800 48600 54600 48600 1 0 1
{
T 54750 48650 5 6 0 1 0 6 1
pinnumber=1
T 54750 48650 5 6 0 0 0 6 1
pinseq=1
}
L 55100 48600 55200 48700 6 0 0 0 -1 -1
L 55100 48600 55200 48500 6 0 0 0 -1 -1
L 54800 48600 55100 48600 6 0 0 0 -1 -1
T 55200 48800 5 10 0 0 0 6 1
device=INPUT
T 55200 48800 8 10 0 1 0 6 1
refdes=pinlabel
]
{
T 55200 48800 5 10 0 0 0 6 1
device=INPUT
T 55250 48600 5 10 1 1 0 1 1
value=VREF
T 55200 48500 5 10 0 0 0 6 1
net=VREF:1
}
C 41900 49900 1 90 0 EMBEDDEDzener-4.sym
[
L 41500 50200 41900 50200 3 0 0 0 -1 -1
L 41500 50200 41700 50500 3 0 0 0 -1 -1
L 41700 50500 41900 50200 3 0 0 0 -1 -1
L 41500 50500 41900 50500 3 0 0 0 -1 -1
P 41700 49900 41700 50100 1 0 0
{
T 41650 50000 5 8 0 1 90 0 1
pinnumber=1
T 41650 50000 5 8 0 0 90 0 1
pinseq=1
T 41650 50000 5 8 0 1 90 0 1
pinlabel=1
T 41650 50000 5 8 0 1 90 0 1
pintype=pas
}
P 41700 50800 41700 50600 1 0 0
{
T 41650 50600 5 8 0 1 90 0 1
pinnumber=2
T 41650 50600 5 8 0 0 90 0 1
pinseq=2
T 41650 50600 5 8 0 1 90 0 1
pinlabel=2
T 41650 50600 5 8 0 1 90 0 1
pintype=pas
}
L 41700 50600 41700 50500 3 0 0 0 -1 -1
L 41700 50200 41700 50100 3 0 0 0 -1 -1
L 41500 50500 41500 50400 3 0 0 0 -1 -1
T 41300 50300 5 10 0 0 90 0 1
device=DIODE
T 41400 50200 8 10 0 1 90 0 1
refdes=D?
]
{
T 41300 50300 5 10 0 0 90 0 1
device=DIODE
T 41900 49800 5 10 1 1 90 0 1
refdes=D12
T 41400 49600 5 10 1 1 90 0 1
value=LM4040-3V3
T 41900 49900 5 10 0 0 0 0 1
footprint=SOT23_BS_2
}
C 41600 49600 1 0 0 EMBEDDEDgnd-1.sym
[
P 41700 49700 41700 49900 1 0 1
{
T 41758 49761 5 4 0 1 0 0 1
pinnumber=1
T 41758 49761 5 4 0 0 0 0 1
pinseq=1
T 41758 49761 5 4 0 1 0 0 1
pinlabel=1
T 41758 49761 5 4 0 1 0 0 1
pintype=pwr
}
L 41600 49700 41800 49700 3 0 0 0 -1 -1
L 41655 49650 41745 49650 3 0 0 0 -1 -1
L 41680 49610 41720 49610 3 0 0 0 -1 -1
T 41900 49650 8 10 0 0 0 0 1
net=GND:1
]
C 42600 49900 1 90 0 EMBEDDEDcapacitor-1.sym
[
P 42400 49900 42400 50100 1 0 0
{
T 42350 50050 5 8 0 1 90 6 1
pinnumber=1
T 42450 50050 5 8 0 1 90 8 1
pinseq=1
T 42400 50100 9 8 0 1 90 0 1
pinlabel=1
T 42400 50100 5 8 0 1 90 2 1
pintype=pas
}
P 42400 50800 42400 50600 1 0 0
{
T 42350 50650 5 8 0 1 90 0 1
pinnumber=2
T 42450 50650 5 8 0 1 90 2 1
pinseq=2
T 42400 50600 9 8 0 1 90 6 1
pinlabel=2
T 42400 50600 5 8 0 1 90 8 1
pintype=pas
}
L 42200 50300 42600 50300 3 0 0 0 -1 -1
L 42200 50400 42600 50400 3 0 0 0 -1 -1
L 42400 50600 42400 50400 3 0 0 0 -1 -1
L 42400 50300 42400 50100 3 0 0 0 -1 -1
T 41900 50100 5 10 0 0 90 0 1
device=CAPACITOR
T 42100 50100 8 10 0 1 90 0 1
refdes=C?
T 41300 50100 5 10 0 0 90 0 1
description=capacitor
T 41500 50100 5 10 0 0 90 0 1
numslots=0
T 41700 50100 5 10 0 0 90 0 1
symversion=0.1
]
{
T 41900 50100 5 10 0 0 90 0 1
device=CAPACITOR
T 41700 50100 5 10 0 0 90 0 1
symversion=0.1
T 42500 50000 5 10 0 1 0 0 1
footprint=0603_BS_1
T 42350 50450 5 10 1 1 90 0 1
refdes=C12
T 42350 50250 5 10 1 1 90 6 1
value=1u
T 42600 49900 5 10 0 0 0 0 1
footprint=0603_BS_1
}
C 42300 49600 1 0 0 EMBEDDEDgnd-1.sym
[
P 42400 49700 42400 49900 1 0 1
{
T 42458 49761 5 4 0 1 0 0 1
pinnumber=1
T 42458 49761 5 4 0 0 0 0 1
pinseq=1
T 42458 49761 5 4 0 1 0 0 1
pinlabel=1
T 42458 49761 5 4 0 1 0 0 1
pintype=pwr
}
L 42300 49700 42500 49700 3 0 0 0 -1 -1
L 42355 49650 42445 49650 3 0 0 0 -1 -1
L 42380 49610 42420 49610 3 0 0 0 -1 -1
T 42600 49650 8 10 0 0 0 0 1
net=GND:1
]
C 41600 50800 1 0 1 EMBEDDEDresistor-2.sym
[
P 40700 50900 40850 50900 1 0 0
{
T 40800 50950 5 8 0 1 0 6 1
pinnumber=2
T 40800 50950 5 8 0 0 0 6 1
pinseq=2
T 40800 50950 5 8 0 1 0 6 1
pinlabel=2
T 40800 50950 5 8 0 1 0 6 1
pintype=pas
}
P 41600 50900 41450 50900 1 0 0
{
T 41500 50950 5 8 0 1 0 6 1
pinnumber=1
T 41500 50950 5 8 0 0 0 6 1
pinseq=1
T 41500 50950 5 8 0 1 0 6 1
pinlabel=1
T 41500 50950 5 8 0 1 0 6 1
pintype=pas
}
B 40850 50800 600 200 3 0 0 0 -1 -1 0 -1 -1 -1 -1 -1
T 41200 51150 5 10 0 0 0 6 1
device=RESISTOR
T 41400 51100 8 10 0 1 0 6 1
refdes=R?
]
{
T 41200 51150 5 10 0 0 0 6 1
device=RESISTOR
T 41500 51100 5 10 1 1 0 6 1
refdes=R12
T 41100 51100 5 10 1 1 0 6 1
value=330
T 41600 50800 5 10 0 0 0 0 1
footprint=0603_BS_1
}
C 42500 50800 1 0 0 EMBEDDEDout-1.sym
[
P 42500 50900 42700 50900 1 0 0
{
T 42650 50950 5 6 0 1 0 0 1
pinnumber=1
T 42650 50950 5 6 0 0 0 0 1
pinseq=1
}
L 42700 50900 43100 50900 6 0 0 0 -1 -1
L 43100 50900 43000 51000 6 0 0 0 -1 -1
L 43100 50900 43000 50800 6 0 0 0 -1 -1
T 42500 51100 5 10 0 0 0 0 1
device=OUTPUT
T 42500 51100 8 10 0 1 0 0 1
refdes=pinlabel
]
{
T 42500 51100 5 10 0 0 0 0 1
device=OUTPUT
T 43150 50900 5 10 1 1 0 1 1
value=VREF
T 42500 50800 5 10 0 0 0 0 1
net=VREF:1
}
N 41600 50900 42500 50900 4
N 42400 50800 42400 50900 4
N 41700 50900 41700 50800 4
C 40300 50900 1 0 0 EMBEDDEDvcc-1.sym
[
P 40500 50900 40500 51100 1 0 0
{
T 40550 50950 5 6 0 1 0 0 1
pinnumber=1
T 40550 50950 5 6 0 0 0 0 1
pinseq=1
T 40550 50950 5 6 0 1 0 0 1
pinlabel=1
T 40550 50950 5 6 0 1 0 0 1
pintype=pwr
}
L 40350 51100 40650 51100 3 0 0 0 -1 -1
T 40375 51150 9 8 1 0 0 0 1
Vcc
T 40750 51100 8 10 0 0 0 0 1
net=Vcc:1
]
N 40700 50900 40500 50900 4
C 48600 49800 1 0 0 EMBEDDEDmcp3426-1.sym
[
B 48900 49900 1200 1200 3 0 0 0 -1 -1 0 -1 -1 -1 -1 -1
P 48600 50900 48900 50900 1 0 0
{
T 48800 50950 5 8 1 1 0 6 1
pinnumber=3
T 48950 50900 9 8 1 1 0 0 1
pinlabel=Vcc
T 48950 50900 5 8 0 1 0 2 1
pintype=pwr
T 48800 50850 5 8 0 1 0 8 1
pinseq=3
}
P 48600 50600 48900 50600 1 0 0
{
T 48800 50650 5 8 1 1 0 6 1
pinnumber=6
T 48950 50600 9 8 1 1 0 0 1
pinlabel=GND
T 48950 50600 5 8 0 1 0 2 1
pintype=pwr
T 48800 50550 5 8 0 1 0 8 1
pinseq=6
}
P 48600 50200 48900 50200 1 0 0
{
T 48800 50250 5 8 1 1 0 6 1
pinnumber=4
T 48950 50200 9 8 1 1 0 0 1
pinlabel=SDA
T 48950 50200 5 8 0 1 0 2 1
pintype=io
T 48800 50150 5 8 0 1 0 8 1
pinseq=4
}
P 48600 50000 48900 50000 1 0 0
{
T 48800 50050 5 8 1 1 0 6 1
pinnumber=5
T 48950 50000 9 8 1 1 0 0 1
pinlabel=SCL
T 48950 50000 5 8 0 1 0 2 1
pintype=in
T 48800 49950 5 8 0 1 0 8 1
pinseq=5
}
P 50400 50700 50100 50700 1 0 0
{
T 50200 50750 5 8 1 1 0 0 1
pinnumber=2
T 50050 50700 9 8 1 1 0 6 1
pinlabel=CH1-
T 50050 50700 5 8 0 1 0 8 1
pintype=in
T 50200 50650 5 8 0 1 0 2 1
pinseq=2
}
P 50400 50200 50100 50200 1 0 0
{
T 50200 50250 5 8 1 1 0 0 1
pinnumber=7
T 50050 50200 9 8 1 1 0 6 1
pinlabel=CH2+
T 50050 50200 5 8 0 1 0 8 1
pintype=in
T 50200 50150 5 8 0 1 0 2 1
pinseq=7
}
P 50400 50900 50100 50900 1 0 0
{
T 50200 50950 5 8 1 1 0 0 1
pinnumber=1
T 50050 50900 9 8 1 1 0 6 1
pinlabel=CH1+
T 50050 50900 5 8 0 1 0 8 1
pintype=in
T 50200 50850 5 8 0 1 0 2 1
pinseq=1
}
P 50400 50000 50100 50000 1 0 0
{
T 50200 50050 5 8 1 1 0 0 1
pinnumber=8
T 50050 50000 9 8 1 1 0 6 1
pinlabel=CH2-
T 50050 50000 5 8 0 1 0 8 1
pintype=in
T 50200 49950 5 8 0 1 0 2 1
pinseq=8
}
T 50100 51150 8 10 0 1 0 6 1
refdes=U?
T 48900 51600 8 10 0 0 0 0 1
description=14/16 bit ADC with I2C
T 48900 51800 8 10 0 0 0 0 1
footprint=SO8
T 48900 51150 8 10 0 1 0 0 1
device=MCP3426
T 48900 52000 8 10 0 0 0 0 1
numslots=0
]
{
T 50100 51150 5 10 1 1 0 6 1
refdes=U6
T 48900 51800 5 10 0 0 0 0 1
footprint=MSOP8_BS_1
T 48900 51150 5 10 1 1 0 0 1
device=MCP3426
}
C 48000 50100 1 0 0 EMBEDDEDin-1.sym
[
P 48400 50200 48600 50200 1 0 1
{
T 48450 50250 5 6 0 1 0 0 1
pinnumber=1
T 48450 50250 5 6 0 0 0 0 1
pinseq=1
}
L 48100 50200 48000 50300 6 0 0 0 -1 -1
L 48100 50200 48000 50100 6 0 0 0 -1 -1
L 48400 50200 48100 50200 6 0 0 0 -1 -1
T 48000 50400 5 10 0 0 0 0 1
device=INPUT
T 48000 50400 8 10 0 1 0 0 1
refdes=pinlabel
]
{
T 48000 50400 5 10 0 0 0 0 1
device=INPUT
T 47950 50200 5 10 1 1 0 7 1
value=SDA
T 48000 50100 5 10 0 0 0 0 1
net=SDA:1
}
C 48000 49900 1 0 0 EMBEDDEDin-1.sym
[
P 48400 50000 48600 50000 1 0 1
{
T 48450 50050 5 6 0 1 0 0 1
pinnumber=1
T 48450 50050 5 6 0 0 0 0 1
pinseq=1
}
L 48100 50000 48000 50100 6 0 0 0 -1 -1
L 48100 50000 48000 49900 6 0 0 0 -1 -1
L 48400 50000 48100 50000 6 0 0 0 -1 -1
T 48000 50200 5 10 0 0 0 0 1
device=INPUT
T 48000 50200 8 10 0 1 0 0 1
refdes=pinlabel
]
{
T 48000 50200 5 10 0 0 0 0 1
device=INPUT
T 47950 50000 5 10 1 1 0 7 1
value=SCL
T 48000 49900 5 10 0 0 0 0 1
net=SCL:1
}
C 48400 50300 1 0 0 EMBEDDEDgnd-1.sym
[
P 48500 50400 48500 50600 1 0 1
{
T 48558 50461 5 4 0 1 0 0 1
pinnumber=1
T 48558 50461 5 4 0 0 0 0 1
pinseq=1
T 48558 50461 5 4 0 1 0 0 1
pinlabel=1
T 48558 50461 5 4 0 1 0 0 1
pintype=pwr
}
L 48400 50400 48600 50400 3 0 0 0 -1 -1
L 48455 50350 48545 50350 3 0 0 0 -1 -1
L 48480 50310 48520 50310 3 0 0 0 -1 -1
T 48700 50350 8 10 0 0 0 0 1
net=GND:1
]
C 48300 50900 1 0 0 EMBEDDEDvcc-1.sym
[
P 48500 50900 48500 51100 1 0 0
{
T 48550 50950 5 6 0 1 0 0 1
pinnumber=1
T 48550 50950 5 6 0 0 0 0 1
pinseq=1
T 48550 50950 5 6 0 1 0 0 1
pinlabel=1
T 48550 50950 5 6 0 1 0 0 1
pintype=pwr
}
L 48350 51100 48650 51100 3 0 0 0 -1 -1
T 48375 51150 9 8 1 0 0 0 1
Vcc
T 48750 51100 8 10 0 0 0 0 1
net=Vcc:1
]
N 48500 50600 48600 50600 4
N 48500 50900 48600 50900 4
C 50300 50400 1 0 0 EMBEDDEDgnd-1.sym
[
P 50400 50500 50400 50700 1 0 1
{
T 50458 50561 5 4 0 1 0 0 1
pinnumber=1
T 50458 50561 5 4 0 0 0 0 1
pinseq=1
T 50458 50561 5 4 0 1 0 0 1
pinlabel=1
T 50458 50561 5 4 0 1 0 0 1
pintype=pwr
}
L 50300 50500 50500 50500 3 0 0 0 -1 -1
L 50355 50450 50445 50450 3 0 0 0 -1 -1
L 50380 50410 50420 50410 3 0 0 0 -1 -1
T 50600 50450 8 10 0 0 0 0 1
net=GND:1
]
C 50300 49700 1 0 0 EMBEDDEDgnd-1.sym
[
P 50400 49800 50400 50000 1 0 1
{
T 50458 49861 5 4 0 1 0 0 1
pinnumber=1
T 50458 49861 5 4 0 0 0 0 1
pinseq=1
T 50458 49861 5 4 0 1 0 0 1
pinlabel=1
T 50458 49861 5 4 0 1 0 0 1
pintype=pwr
}
L 50300 49800 50500 49800 3 0 0 0 -1 -1
L 50355 49750 50445 49750 3 0 0 0 -1 -1
L 50380 49710 50420 49710 3 0 0 0 -1 -1
T 50600 49750 8 10 0 0 0 0 1
net=GND:1
]
C 51000 50800 1 0 1 EMBEDDEDin-1.sym
[
P 50600 50900 50400 50900 1 0 1
{
T 50550 50950 5 6 0 1 0 6 1
pinnumber=1
T 50550 50950 5 6 0 0 0 6 1
pinseq=1
}
L 50900 50900 51000 51000 6 0 0 0 -1 -1
L 50900 50900 51000 50800 6 0 0 0 -1 -1
L 50600 50900 50900 50900 6 0 0 0 -1 -1
T 51000 51100 5 10 0 0 0 6 1
device=INPUT
T 51000 51100 8 10 0 1 0 6 1
refdes=pinlabel
]
{
T 51000 51100 5 10 0 0 0 6 1
device=INPUT
T 51050 50900 5 10 1 1 0 1 1
value=V_U
T 51000 50800 5 10 0 0 0 6 1
net=V_U:1
}
C 51000 50100 1 0 1 EMBEDDEDin-1.sym
[
P 50600 50200 50400 50200 1 0 1
{
T 50550 50250 5 6 0 1 0 6 1
pinnumber=1
T 50550 50250 5 6 0 0 0 6 1
pinseq=1
}
L 50900 50200 51000 50300 6 0 0 0 -1 -1
L 50900 50200 51000 50100 6 0 0 0 -1 -1
L 50600 50200 50900 50200 6 0 0 0 -1 -1
T 51000 50400 5 10 0 0 0 6 1
device=INPUT
T 51000 50400 8 10 0 1 0 6 1
refdes=pinlabel
]
{
T 51000 50400 5 10 0 0 0 6 1
device=INPUT
T 51050 50200 5 10 1 1 0 1 1
value=V_I
T 51000 50100 5 10 0 0 0 6 1
net=V_I:1
}
C 46500 42900 1 0 0 EMBEDDEDvcc-1.sym
[
L 46550 43100 46850 43100 3 0 0 0 -1 -1
P 46700 42900 46700 43100 1 0 0
{
T 46750 42950 5 6 0 1 0 0 1
pintype=pwr
T 46750 42950 5 6 0 1 0 0 1
pinlabel=1
T 46750 42950 5 6 0 0 0 0 1
pinseq=1
T 46750 42950 5 6 0 1 0 0 1
pinnumber=1
}
T 46950 43100 8 10 0 0 0 0 1
net=Vcc:1
T 46575 43150 9 8 1 0 0 0 1
Vcc
]
C 46600 42100 1 0 0 EMBEDDEDgnd-1.sym
[
P 46700 42200 46700 42400 1 0 1
{
T 46758 42261 5 4 0 1 0 0 1
pinnumber=1
T 46758 42261 5 4 0 0 0 0 1
pinseq=1
T 46758 42261 5 4 0 1 0 0 1
pinlabel=1
T 46758 42261 5 4 0 1 0 0 1
pintype=pwr
}
L 46600 42200 46800 42200 3 0 0 0 -1 -1
L 46655 42150 46745 42150 3 0 0 0 -1 -1
L 46680 42110 46720 42110 3 0 0 0 -1 -1
T 46900 42150 8 10 0 0 0 0 1
net=GND:1
]
N 46700 42400 46900 42400 4
N 46900 42800 46700 42800 4
N 46700 42800 46700 42900 4
T 53100 49600 9 10 1 0 0 0 1
Current set
T 53300 47600 9 10 1 0 0 0 1
Voltage set
T 49000 49600 9 10 1 0 0 0 1
Measure U/I
T 51000 40900 9 20 1 0 0 0 1
Digitally Controlled PSU
T 53600 40100 9 10 1 0 0 0 1
Vagrearg
T 53600 40400 9 10 1 0 0 0 1
20140804
T 49700 40400 9 10 1 0 0 0 1
CC-BY-SA-3.0/CERN OHL-1.2
T 49700 40100 9 10 1 0 0 0 1
3
T 51200 40100 9 10 1 0 0 0 1
3
C 41100 42700 1 270 0 EMBEDDEDresistor-2.sym
[
B 41100 41950 200 600 3 0 0 0 -1 -1 0 -1 -1 -1 -1 -1
P 41200 42700 41200 42548 1 0 0
{
T 41250 42600 5 8 0 1 270 0 1
pintype=pas
T 41250 42600 5 8 0 1 270 0 1
pinlabel=1
T 41250 42600 5 8 0 0 270 0 1
pinseq=1
T 41250 42600 5 8 0 1 270 0 1
pinnumber=1
}
P 41200 41800 41200 41950 1 0 0
{
T 41250 41900 5 8 0 1 270 0 1
pintype=pas
T 41250 41900 5 8 0 1 270 0 1
pinlabel=2
T 41250 41900 5 8 0 0 270 0 1
pinseq=2
T 41250 41900 5 8 0 1 270 0 1
pinnumber=2
}
T 41400 42500 8 10 0 1 270 0 1
refdes=R?
T 41450 42300 5 10 0 0 270 0 1
device=RESISTOR
]
{
T 41450 42300 5 10 0 0 270 0 1
device=RESISTOR
T 41100 42700 5 10 0 0 270 0 1
footprint=0603_BS_1
T 41350 42300 5 10 1 1 270 6 1
refdes=R40
T 41350 42200 5 10 1 1 270 0 1
value=22k
}
C 41100 41500 1 270 0 EMBEDDEDresistor-2.sym
[
B 41100 40750 200 600 3 0 0 0 -1 -1 0 -1 -1 -1 -1 -1
P 41200 41500 41200 41348 1 0 0
{
T 41250 41400 5 8 0 1 270 0 1
pintype=pas
T 41250 41400 5 8 0 1 270 0 1
pinlabel=1
T 41250 41400 5 8 0 0 270 0 1
pinseq=1
T 41250 41400 5 8 0 1 270 0 1
pinnumber=1
}
P 41200 40600 41200 40750 1 0 0
{
T 41250 40700 5 8 0 1 270 0 1
pintype=pas
T 41250 40700 5 8 0 1 270 0 1
pinlabel=2
T 41250 40700 5 8 0 0 270 0 1
pinseq=2
T 41250 40700 5 8 0 1 270 0 1
pinnumber=2
}
T 41400 41300 8 10 0 1 270 0 1
refdes=R?
T 41450 41100 5 10 0 0 270 0 1
device=RESISTOR
]
{
T 41450 41100 5 10 0 0 270 0 1
device=RESISTOR
T 41100 41500 5 10 0 0 270 0 1
footprint=0603_BS_1
T 41350 41100 5 10 1 1 270 6 1
refdes=R42
T 41350 41000 5 10 1 1 270 0 1
value=10k
}
C 41000 40600 1 90 0 EMBEDDEDcapacitor-1.sym
[
P 40800 40600 40800 40800 1 0 0
{
T 40750 40750 5 8 0 1 90 6 1
pinnumber=1
T 40850 40750 5 8 0 1 90 8 1
pinseq=1
T 40800 40800 9 8 0 1 90 0 1
pinlabel=1
T 40800 40800 5 8 0 1 90 2 1
pintype=pas
}
P 40800 41500 40800 41300 1 0 0
{
T 40750 41350 5 8 0 1 90 0 1
pinnumber=2
T 40850 41350 5 8 0 1 90 2 1
pinseq=2
T 40800 41300 9 8 0 1 90 6 1
pinlabel=2
T 40800 41300 5 8 0 1 90 8 1
pintype=pas
}
L 40600 41000 41000 41000 3 0 0 0 -1 -1
L 40600 41100 41000 41100 3 0 0 0 -1 -1
L 40800 41300 40800 41100 3 0 0 0 -1 -1
L 40800 41000 40800 40800 3 0 0 0 -1 -1
T 40300 40800 5 10 0 0 90 0 1
device=CAPACITOR
T 40500 40800 8 10 0 1 90 0 1
refdes=C?
T 39700 40800 5 10 0 0 90 0 1
description=capacitor
T 39900 40800 5 10 0 0 90 0 1
numslots=0
T 40100 40800 5 10 0 0 90 0 1
symversion=0.1
]
{
T 40300 40800 5 10 0 0 90 0 1
device=CAPACITOR
T 40700 40900 5 10 1 1 90 6 1
refdes=C39
T 40100 40800 5 10 0 0 90 0 1
symversion=0.1
T 40700 41200 5 10 1 1 90 0 1
value=100n
T 41000 40600 5 10 0 0 0 0 1
footprint=0603_BS_1
}
C 41100 40300 1 0 0 EMBEDDEDgnd-1.sym
[
P 41200 40400 41200 40600 1 0 1
{
T 41258 40461 5 4 0 1 0 0 1
pinnumber=1
T 41258 40461 5 4 0 0 0 0 1
pinseq=1
T 41258 40461 5 4 0 1 0 0 1
pinlabel=1
T 41258 40461 5 4 0 1 0 0 1
pintype=pwr
}
L 41100 40400 41300 40400 3 0 0 0 -1 -1
L 41155 40350 41245 40350 3 0 0 0 -1 -1
L 41180 40310 41220 40310 3 0 0 0 -1 -1
T 41400 40350 8 10 0 0 0 0 1
net=GND:1
]
C 40700 40300 1 0 0 EMBEDDEDgnd-1.sym
[
P 40800 40400 40800 40600 1 0 1
{
T 40858 40461 5 4 0 1 0 0 1
pinnumber=1
T 40858 40461 5 4 0 0 0 0 1
pinseq=1
T 40858 40461 5 4 0 1 0 0 1
pinlabel=1
T 40858 40461 5 4 0 1 0 0 1
pintype=pwr
}
L 40700 40400 40900 40400 3 0 0 0 -1 -1
L 40755 40350 40845 40350 3 0 0 0 -1 -1
L 40780 40310 40820 40310 3 0 0 0 -1 -1
T 41000 40350 8 10 0 0 0 0 1
net=GND:1
]
N 40800 41500 40800 41700 4
N 40800 41700 41200 41700 4
N 41200 41500 41200 41800 4
C 43500 42700 1 270 0 EMBEDDEDresistor-2.sym
[
B 43500 41950 200 600 3 0 0 0 -1 -1 0 -1 -1 -1 -1 -1
P 43600 42700 43600 42548 1 0 0
{
T 43650 42600 5 8 0 1 270 0 1
pintype=pas
T 43650 42600 5 8 0 1 270 0 1
pinlabel=1
T 43650 42600 5 8 0 0 270 0 1
pinseq=1
T 43650 42600 5 8 0 1 270 0 1
pinnumber=1
}
P 43600 41800 43600 41950 1 0 0
{
T 43650 41900 5 8 0 1 270 0 1
pintype=pas
T 43650 41900 5 8 0 1 270 0 1
pinlabel=2
T 43650 41900 5 8 0 0 270 0 1
pinseq=2
T 43650 41900 5 8 0 1 270 0 1
pinnumber=2
}
T 43800 42500 8 10 0 1 270 0 1
refdes=R?
T 43850 42300 5 10 0 0 270 0 1
device=RESISTOR
]
{
T 43850 42300 5 10 0 0 270 0 1
device=RESISTOR
T 43500 42700 5 10 0 0 270 0 1
footprint=0603_BS_1
T 43750 42300 5 10 1 1 270 6 1
refdes=R43
T 43750 42200 5 10 1 1 270 0 1
value=22k
}
C 43500 41500 1 270 0 EMBEDDEDresistor-2.sym
[
B 43500 40750 200 600 3 0 0 0 -1 -1 0 -1 -1 -1 -1 -1
P 43600 41500 43600 41348 1 0 0
{
T 43650 41400 5 8 0 1 270 0 1
pintype=pas
T 43650 41400 5 8 0 1 270 0 1
pinlabel=1
T 43650 41400 5 8 0 0 270 0 1
pinseq=1
T 43650 41400 5 8 0 1 270 0 1
pinnumber=1
}
P 43600 40600 43600 40750 1 0 0
{
T 43650 40700 5 8 0 1 270 0 1
pintype=pas
T 43650 40700 5 8 0 1 270 0 1
pinlabel=2
T 43650 40700 5 8 0 0 270 0 1
pinseq=2
T 43650 40700 5 8 0 1 270 0 1
pinnumber=2
}
T 43800 41300 8 10 0 1 270 0 1
refdes=R?
T 43850 41100 5 10 0 0 270 0 1
device=RESISTOR
]
{
T 43850 41100 5 10 0 0 270 0 1
device=RESISTOR
T 43500 41500 5 10 0 0 270 0 1
footprint=0603_BS_1
T 43750 41200 5 10 1 1 270 6 1
refdes=R45
T 43750 41100 5 10 1 1 270 0 1
value=10k
}
C 43400 40600 1 90 0 EMBEDDEDcapacitor-1.sym
[
P 43200 40600 43200 40800 1 0 0
{
T 43150 40750 5 8 0 1 90 6 1
pinnumber=1
T 43250 40750 5 8 0 1 90 8 1
pinseq=1
T 43200 40800 9 8 0 1 90 0 1
pinlabel=1
T 43200 40800 5 8 0 1 90 2 1
pintype=pas
}
P 43200 41500 43200 41300 1 0 0
{
T 43150 41350 5 8 0 1 90 0 1
pinnumber=2
T 43250 41350 5 8 0 1 90 2 1
pinseq=2
T 43200 41300 9 8 0 1 90 6 1
pinlabel=2
T 43200 41300 5 8 0 1 90 8 1
pintype=pas
}
L 43000 41000 43400 41000 3 0 0 0 -1 -1
L 43000 41100 43400 41100 3 0 0 0 -1 -1
L 43200 41300 43200 41100 3 0 0 0 -1 -1
L 43200 41000 43200 40800 3 0 0 0 -1 -1
T 42700 40800 5 10 0 0 90 0 1
device=CAPACITOR
T 42900 40800 8 10 0 1 90 0 1
refdes=C?
T 42100 40800 5 10 0 0 90 0 1
description=capacitor
T 42300 40800 5 10 0 0 90 0 1
numslots=0
T 42500 40800 5 10 0 0 90 0 1
symversion=0.1
]
{
T 42700 40800 5 10 0 0 90 0 1
device=CAPACITOR
T 42500 40800 5 10 0 0 90 0 1
symversion=0.1
T 43400 40600 5 10 0 0 0 0 1
footprint=0603_BS_1
T 43100 40900 5 10 1 1 90 6 1
refdes=C40
T 43100 41200 5 10 1 1 90 0 1
value=100n
}
C 43500 40300 1 0 0 EMBEDDEDgnd-1.sym
[
P 43600 40400 43600 40600 1 0 1
{
T 43658 40461 5 4 0 1 0 0 1
pinnumber=1
T 43658 40461 5 4 0 0 0 0 1
pinseq=1
T 43658 40461 5 4 0 1 0 0 1
pinlabel=1
T 43658 40461 5 4 0 1 0 0 1
pintype=pwr
}
L 43500 40400 43700 40400 3 0 0 0 -1 -1
L 43555 40350 43645 40350 3 0 0 0 -1 -1
L 43580 40310 43620 40310 3 0 0 0 -1 -1
T 43800 40350 8 10 0 0 0 0 1
net=GND:1
]
C 43100 40300 1 0 0 EMBEDDEDgnd-1.sym
[
P 43200 40400 43200 40600 1 0 1
{
T 43258 40461 5 4 0 1 0 0 1
pinnumber=1
T 43258 40461 5 4 0 0 0 0 1
pinseq=1
T 43258 40461 5 4 0 1 0 0 1
pinlabel=1
T 43258 40461 5 4 0 1 0 0 1
pintype=pwr
}
L 43100 40400 43300 40400 3 0 0 0 -1 -1
L 43155 40350 43245 40350 3 0 0 0 -1 -1
L 43180 40310 43220 40310 3 0 0 0 -1 -1
T 43400 40350 8 10 0 0 0 0 1
net=GND:1
]
N 43200 41500 43200 41700 4
N 42400 41700 43600 41700 4
N 43600 41500 43600 41800 4
C 41800 41800 1 0 0 EMBEDDEDout-1.sym
[
P 41800 41900 42000 41900 1 0 0
{
T 41950 41950 5 6 0 1 0 0 1
pinnumber=1
T 41950 41950 5 6 0 0 0 0 1
pinseq=1
}
L 42000 41900 42400 41900 6 0 0 0 -1 -1
L 42400 41900 42300 42000 6 0 0 0 -1 -1
L 42400 41900 42300 41800 6 0 0 0 -1 -1
T 41800 42100 5 10 0 0 0 0 1
device=OUTPUT
T 41800 42100 8 10 0 1 0 0 1
refdes=pinlabel
]
{
T 41800 42100 5 10 0 0 0 0 1
device=OUTPUT
T 42450 41900 5 10 1 1 0 1 1
value=LIMI
T 41800 41800 5 10 0 0 0 0 1
net=LIMI:1
}
C 41000 48600 1 270 0 EMBEDDEDresistor-2.sym
[
B 41000 47850 200 600 3 0 0 0 -1 -1 0 -1 -1 -1 -1 -1
P 41100 48600 41100 48448 1 0 0
{
T 41150 48500 5 8 0 1 270 0 1
pintype=pas
T 41150 48500 5 8 0 1 270 0 1
pinlabel=1
T 41150 48500 5 8 0 0 270 0 1
pinseq=1
T 41150 48500 5 8 0 1 270 0 1
pinnumber=1
}
P 41100 47700 41100 47850 1 0 0
{
T 41150 47800 5 8 0 1 270 0 1
pintype=pas
T 41150 47800 5 8 0 1 270 0 1
pinlabel=2
T 41150 47800 5 8 0 0 270 0 1
pinseq=2
T 41150 47800 5 8 0 1 270 0 1
pinnumber=2
}
T 41300 48400 8 10 0 1 270 0 1
refdes=R?
T 41350 48200 5 10 0 0 270 0 1
device=RESISTOR
]
{
T 41350 48200 5 10 0 0 270 0 1
device=RESISTOR
T 41000 48600 5 10 0 0 270 0 1
footprint=0603_BS_1
T 41250 48200 5 10 1 1 270 6 1
refdes=R37
T 41250 48100 5 10 1 1 270 0 1
value=120k
}
C 41000 47400 1 270 0 EMBEDDEDresistor-2.sym
[
B 41000 46650 200 600 3 0 0 0 -1 -1 0 -1 -1 -1 -1 -1
P 41100 47400 41100 47248 1 0 0
{
T 41150 47300 5 8 0 1 270 0 1
pintype=pas
T 41150 47300 5 8 0 1 270 0 1
pinlabel=1
T 41150 47300 5 8 0 0 270 0 1
pinseq=1
T 41150 47300 5 8 0 1 270 0 1
pinnumber=1
}
P 41100 46500 41100 46650 1 0 0
{
T 41150 46600 5 8 0 1 270 0 1
pintype=pas
T 41150 46600 5 8 0 1 270 0 1
pinlabel=2
T 41150 46600 5 8 0 0 270 0 1
pinseq=2
T 41150 46600 5 8 0 1 270 0 1
pinnumber=2
}
T 41300 47200 8 10 0 1 270 0 1
refdes=R?
T 41350 47000 5 10 0 0 270 0 1
device=RESISTOR
]
{
T 41350 47000 5 10 0 0 270 0 1
device=RESISTOR
T 41000 47400 5 10 0 0 270 0 1
footprint=0603_BS_1
T 41250 47000 5 10 1 1 270 6 1
refdes=R38
T 41250 46900 5 10 1 1 270 0 1
value=10k
}
C 40900 46500 1 90 0 EMBEDDEDcapacitor-1.sym
[
P 40700 46500 40700 46700 1 0 0
{
T 40650 46650 5 8 0 1 90 6 1
pinnumber=1
T 40750 46650 5 8 0 1 90 8 1
pinseq=1
T 40700 46700 9 8 0 1 90 0 1
pinlabel=1
T 40700 46700 5 8 0 1 90 2 1
pintype=pas
}
P 40700 47400 40700 47200 1 0 0
{
T 40650 47250 5 8 0 1 90 0 1
pinnumber=2
T 40750 47250 5 8 0 1 90 2 1
pinseq=2
T 40700 47200 9 8 0 1 90 6 1
pinlabel=2
T 40700 47200 5 8 0 1 90 8 1
pintype=pas
}
L 40500 46900 40900 46900 3 0 0 0 -1 -1
L 40500 47000 40900 47000 3 0 0 0 -1 -1
L 40700 47200 40700 47000 3 0 0 0 -1 -1
L 40700 46900 40700 46700 3 0 0 0 -1 -1
T 40200 46700 5 10 0 0 90 0 1
device=CAPACITOR
T 40400 46700 8 10 0 1 90 0 1
refdes=C?
T 39600 46700 5 10 0 0 90 0 1
description=capacitor
T 39800 46700 5 10 0 0 90 0 1
numslots=0
T 40000 46700 5 10 0 0 90 0 1
symversion=0.1
]
{
T 40200 46700 5 10 0 0 90 0 1
device=CAPACITOR
T 40000 46700 5 10 0 0 90 0 1
symversion=0.1
T 40900 46500 5 10 0 0 0 0 1
footprint=0603_BS_1
T 40600 46800 5 10 1 1 90 6 1
refdes=C37
T 40600 47100 5 10 1 1 90 0 1
value=100n
}
C 41000 46200 1 0 0 EMBEDDEDgnd-1.sym
[
P 41100 46300 41100 46500 1 0 1
{
T 41158 46361 5 4 0 1 0 0 1
pinnumber=1
T 41158 46361 5 4 0 0 0 0 1
pinseq=1
T 41158 46361 5 4 0 1 0 0 1
pinlabel=1
T 41158 46361 5 4 0 1 0 0 1
pintype=pwr
}
L 41000 46300 41200 46300 3 0 0 0 -1 -1
L 41055 46250 41145 46250 3 0 0 0 -1 -1
L 41080 46210 41120 46210 3 0 0 0 -1 -1
T 41300 46250 8 10 0 0 0 0 1
net=GND:1
]
C 40600 46200 1 0 0 EMBEDDEDgnd-1.sym
[
P 40700 46300 40700 46500 1 0 1
{
T 40758 46361 5 4 0 1 0 0 1
pinnumber=1
T 40758 46361 5 4 0 0 0 0 1
pinseq=1
T 40758 46361 5 4 0 1 0 0 1
pinlabel=1
T 40758 46361 5 4 0 1 0 0 1
pintype=pwr
}
L 40600 46300 40800 46300 3 0 0 0 -1 -1
L 40655 46250 40745 46250 3 0 0 0 -1 -1
L 40680 46210 40720 46210 3 0 0 0 -1 -1
T 40900 46250 8 10 0 0 0 0 1
net=GND:1
]
N 40700 47400 40700 47500 4
N 40700 47500 41100 47500 4
N 41100 47400 41100 47700 4
C 41100 47500 1 0 0 EMBEDDEDout-1.sym
[
P 41100 47600 41300 47600 1 0 0
{
T 41250 47650 5 6 0 1 0 0 1
pinnumber=1
T 41250 47650 5 6 0 0 0 0 1
pinseq=1
}
L 41300 47600 41700 47600 6 0 0 0 -1 -1
L 41700 47600 41600 47700 6 0 0 0 -1 -1
L 41700 47600 41600 47500 6 0 0 0 -1 -1
T 41100 47800 5 10 0 0 0 0 1
device=OUTPUT
T 41100 47800 8 10 0 1 0 0 1
refdes=pinlabel
]
{
T 41100 47800 5 10 0 0 0 0 1
device=OUTPUT
T 41750 47600 5 10 1 1 0 1 1
value=VPP
T 41100 47500 5 10 0 0 0 0 1
net=VPP:1
}
C 43700 48600 1 270 0 EMBEDDEDresistor-2.sym
[
B 43700 47850 200 600 3 0 0 0 -1 -1 0 -1 -1 -1 -1 -1
P 43800 48600 43800 48448 1 0 0
{
T 43850 48500 5 8 0 1 270 0 1
pintype=pas
T 43850 48500 5 8 0 1 270 0 1
pinlabel=1
T 43850 48500 5 8 0 0 270 0 1
pinseq=1
T 43850 48500 5 8 0 1 270 0 1
pinnumber=1
}
P 43800 47700 43800 47850 1 0 0
{
T 43850 47800 5 8 0 1 270 0 1
pintype=pas
T 43850 47800 5 8 0 1 270 0 1
pinlabel=2
T 43850 47800 5 8 0 0 270 0 1
pinseq=2
T 43850 47800 5 8 0 1 270 0 1
pinnumber=2
}
T 44000 48400 8 10 0 1 270 0 1
refdes=R?
T 44050 48200 5 10 0 0 270 0 1
device=RESISTOR
]
{
T 44050 48200 5 10 0 0 270 0 1
device=RESISTOR
T 43700 48600 5 10 0 0 270 0 1
footprint=0603_BS_1
T 43950 48200 5 10 1 1 270 6 1
refdes=R39
T 43950 48100 5 10 1 1 270 0 1
value=82k
}
C 43700 47400 1 270 0 EMBEDDEDresistor-2.sym
[
B 43700 46650 200 600 3 0 0 0 -1 -1 0 -1 -1 -1 -1 -1
P 43800 47400 43800 47248 1 0 0
{
T 43850 47300 5 8 0 1 270 0 1
pintype=pas
T 43850 47300 5 8 0 1 270 0 1
pinlabel=1
T 43850 47300 5 8 0 0 270 0 1
pinseq=1
T 43850 47300 5 8 0 1 270 0 1
pinnumber=1
}
P 43800 46500 43800 46650 1 0 0
{
T 43850 46600 5 8 0 1 270 0 1
pintype=pas
T 43850 46600 5 8 0 1 270 0 1
pinlabel=2
T 43850 46600 5 8 0 0 270 0 1
pinseq=2
T 43850 46600 5 8 0 1 270 0 1
pinnumber=2
}
T 44000 47200 8 10 0 1 270 0 1
refdes=R?
T 44050 47000 5 10 0 0 270 0 1
device=RESISTOR
]
{
T 44050 47000 5 10 0 0 270 0 1
device=RESISTOR
T 43700 47400 5 10 0 0 270 0 1
footprint=0603_BS_1
T 43950 47000 5 10 1 1 270 6 1
refdes=R41
T 43950 46900 5 10 1 1 270 0 1
value=10k
}
C 43600 46500 1 90 0 EMBEDDEDcapacitor-1.sym
[
P 43400 46500 43400 46700 1 0 0
{
T 43350 46650 5 8 0 1 90 6 1
pinnumber=1
T 43450 46650 5 8 0 1 90 8 1
pinseq=1
T 43400 46700 9 8 0 1 90 0 1
pinlabel=1
T 43400 46700 5 8 0 1 90 2 1
pintype=pas
}
P 43400 47400 43400 47200 1 0 0
{
T 43350 47250 5 8 0 1 90 0 1
pinnumber=2
T 43450 47250 5 8 0 1 90 2 1
pinseq=2
T 43400 47200 9 8 0 1 90 6 1
pinlabel=2
T 43400 47200 5 8 0 1 90 8 1
pintype=pas
}
L 43200 46900 43600 46900 3 0 0 0 -1 -1
L 43200 47000 43600 47000 3 0 0 0 -1 -1
L 43400 47200 43400 47000 3 0 0 0 -1 -1
L 43400 46900 43400 46700 3 0 0 0 -1 -1
T 42900 46700 5 10 0 0 90 0 1
device=CAPACITOR
T 43100 46700 8 10 0 1 90 0 1
refdes=C?
T 42300 46700 5 10 0 0 90 0 1
description=capacitor
T 42500 46700 5 10 0 0 90 0 1
numslots=0
T 42700 46700 5 10 0 0 90 0 1
symversion=0.1
]
{
T 42900 46700 5 10 0 0 90 0 1
device=CAPACITOR
T 42700 46700 5 10 0 0 90 0 1
symversion=0.1
T 43600 46500 5 10 0 0 0 0 1
footprint=0603_BS_1
T 43300 46800 5 10 1 1 90 6 1
refdes=C38
T 43300 47100 5 10 1 1 90 0 1
value=100n
}
C 43700 46200 1 0 0 EMBEDDEDgnd-1.sym
[
P 43800 46300 43800 46500 1 0 1
{
T 43858 46361 5 4 0 1 0 0 1
pinnumber=1
T 43858 46361 5 4 0 0 0 0 1
pinseq=1
T 43858 46361 5 4 0 1 0 0 1
pinlabel=1
T 43858 46361 5 4 0 1 0 0 1
pintype=pwr
}
L 43700 46300 43900 46300 3 0 0 0 -1 -1
L 43755 46250 43845 46250 3 0 0 0 -1 -1
L 43780 46210 43820 46210 3 0 0 0 -1 -1
T 44000 46250 8 10 0 0 0 0 1
net=GND:1
]
C 43300 46200 1 0 0 EMBEDDEDgnd-1.sym
[
P 43400 46300 43400 46500 1 0 1
{
T 43458 46361 5 4 0 1 0 0 1
pinnumber=1
T 43458 46361 5 4 0 0 0 0 1
pinseq=1
T 43458 46361 5 4 0 1 0 0 1
pinlabel=1
T 43458 46361 5 4 0 1 0 0 1
pintype=pwr
}
L 43300 46300 43500 46300 3 0 0 0 -1 -1
L 43355 46250 43445 46250 3 0 0 0 -1 -1
L 43380 46210 43420 46210 3 0 0 0 -1 -1
T 43600 46250 8 10 0 0 0 0 1
net=GND:1
]
N 43400 47400 43400 47500 4
N 43400 47500 43800 47500 4
N 43800 47400 43800 47700 4
C 43800 47500 1 0 0 EMBEDDEDout-1.sym
[
P 43800 47600 44000 47600 1 0 0
{
T 43950 47650 5 6 0 1 0 0 1
pinnumber=1
T 43950 47650 5 6 0 0 0 0 1
pinseq=1
}
L 44000 47600 44400 47600 6 0 0 0 -1 -1
L 44400 47600 44300 47700 6 0 0 0 -1 -1
L 44400 47600 44300 47500 6 0 0 0 -1 -1
T 43800 47800 5 10 0 0 0 0 1
device=OUTPUT
T 43800 47800 8 10 0 1 0 0 1
refdes=pinlabel
]
{
T 43800 47800 5 10 0 0 0 0 1
device=OUTPUT
T 44450 47600 5 10 1 1 0 1 1
value=VAA
T 43800 47500 5 10 0 0 0 0 1
net=VAA:1
}
C 43600 48600 1 0 0 EMBEDDEDgeneric-power.sym
[
P 43800 48600 43800 48800 1 0 0
{
T 43850 48650 5 6 0 1 0 0 1
pinnumber=1
T 43850 48650 5 6 0 0 0 0 1
pinseq=1
T 43850 48650 5 6 0 1 0 0 1
pinlabel=1
T 43850 48650 5 6 0 1 0 0 1
pintype=pwr
}
L 43650 48800 43950 48800 3 0 0 0 -1 -1
T 43800 48850 8 10 0 1 0 3 1
net=Vcc:1
]
{
T 43800 48850 5 10 1 1 0 3 1
net=VSW:1
}
C 40900 48600 1 0 0 EMBEDDEDgeneric-power.sym
[
P 41100 48600 41100 48800 1 0 0
{
T 41150 48650 5 6 0 1 0 0 1
pinnumber=1
T 41150 48650 5 6 0 0 0 0 1
pinseq=1
T 41150 48650 5 6 0 1 0 0 1
pinlabel=1
T 41150 48650 5 6 0 1 0 0 1
pintype=pwr
}
L 40950 48800 41250 48800 3 0 0 0 -1 -1
T 41100 48850 8 10 0 1 0 3 1
net=Vcc:1
]
{
T 41100 48850 5 10 1 1 0 3 1
net=VPWR:1
}
C 46900 41900 1 0 1 EMBEDDEDout-1.sym
[
P 46900 42000 46700 42000 1 0 0
{
T 46750 42050 5 6 0 1 0 6 1
pinnumber=1
T 46750 42050 5 6 0 0 0 6 1
pinseq=1
}
L 46700 42000 46300 42000 6 0 0 0 -1 -1
L 46300 42000 46400 42100 6 0 0 0 -1 -1
L 46300 42000 46400 41900 6 0 0 0 -1 -1
T 46900 42200 5 10 0 0 0 6 1
device=OUTPUT
T 46900 42200 8 10 0 1 0 6 1
refdes=pinlabel
]
{
T 46900 42200 5 10 0 0 0 6 1
device=OUTPUT
T 46250 42000 5 10 1 1 0 7 1
value=SHUTDOWN
T 46900 41900 5 10 0 0 0 6 1
net=SHUTDOWN:1
}
C 46900 41500 1 0 1 EMBEDDEDout-1.sym
[
P 46900 41600 46700 41600 1 0 0
{
T 46750 41650 5 6 0 1 0 6 1
pinnumber=1
T 46750 41650 5 6 0 0 0 6 1
pinseq=1
}
L 46700 41600 46300 41600 6 0 0 0 -1 -1
L 46300 41600 46400 41700 6 0 0 0 -1 -1
L 46300 41600 46400 41500 6 0 0 0 -1 -1
T 46900 41800 5 10 0 0 0 6 1
device=OUTPUT
T 46900 41800 8 10 0 1 0 6 1
refdes=pinlabel
]
{
T 46900 41800 5 10 0 0 0 6 1
device=OUTPUT
T 46250 41600 5 10 1 1 0 7 1
value=SDA
T 46900 41500 5 10 0 0 0 6 1
net=SDA:1
}
C 46900 41100 1 0 1 EMBEDDEDout-1.sym
[
P 46900 41200 46700 41200 1 0 0
{
T 46750 41250 5 6 0 1 0 6 1
pinnumber=1
T 46750 41250 5 6 0 0 0 6 1
pinseq=1
}
L 46700 41200 46300 41200 6 0 0 0 -1 -1
L 46300 41200 46400 41300 6 0 0 0 -1 -1
L 46300 41200 46400 41100 6 0 0 0 -1 -1
T 46900 41400 5 10 0 0 0 6 1
device=OUTPUT
T 46900 41400 8 10 0 1 0 6 1
refdes=pinlabel
]
{
T 46900 41400 5 10 0 0 0 6 1
device=OUTPUT
T 46250 41200 5 10 1 1 0 7 1
value=SCL
T 46900 41100 5 10 0 0 0 6 1
net=SCL:1
}
C 52200 45300 1 0 1 EMBEDDEDin-1.sym
[
P 51800 45400 51600 45400 1 0 1
{
T 51750 45450 5 6 0 1 0 6 1
pinnumber=1
T 51750 45450 5 6 0 0 0 6 1
pinseq=1
}
L 52100 45400 52200 45500 6 0 0 0 -1 -1
L 52100 45400 52200 45300 6 0 0 0 -1 -1
L 51800 45400 52100 45400 6 0 0 0 -1 -1
T 52200 45600 5 10 0 0 0 6 1
device=INPUT
T 52200 45600 8 10 0 1 0 6 1
refdes=pinlabel
]
{
T 52200 45600 5 10 0 0 0 6 1
device=INPUT
T 52250 45400 5 10 1 1 0 1 1
value=VPP
T 52200 45300 5 10 0 0 0 6 1
net=VPP:1
}
C 52200 45100 1 0 1 EMBEDDEDin-1.sym
[
P 51800 45200 51600 45200 1 0 1
{
T 51750 45250 5 6 0 1 0 6 1
pinnumber=1
T 51750 45250 5 6 0 0 0 6 1
pinseq=1
}
L 52100 45200 52200 45300 6 0 0 0 -1 -1
L 52100 45200 52200 45100 6 0 0 0 -1 -1
L 51800 45200 52100 45200 6 0 0 0 -1 -1
T 52200 45400 5 10 0 0 0 6 1
device=INPUT
T 52200 45400 8 10 0 1 0 6 1
refdes=pinlabel
]
{
T 52200 45400 5 10 0 0 0 6 1
device=INPUT
T 52250 45200 5 10 1 1 0 1 1
value=VAA
T 52200 45100 5 10 0 0 0 6 1
net=VAA:1
}
C 52200 44700 1 0 1 EMBEDDEDin-1.sym
[
P 51800 44800 51600 44800 1 0 1
{
T 51750 44850 5 6 0 1 0 6 1
pinnumber=1
T 51750 44850 5 6 0 0 0 6 1
pinseq=1
}
L 52100 44800 52200 44900 6 0 0 0 -1 -1
L 52100 44800 52200 44700 6 0 0 0 -1 -1
L 51800 44800 52100 44800 6 0 0 0 -1 -1
T 52200 45000 5 10 0 0 0 6 1
device=INPUT
T 52200 45000 8 10 0 1 0 6 1
refdes=pinlabel
]
{
T 52200 45000 5 10 0 0 0 6 1
device=INPUT
T 52250 44800 5 10 1 1 0 1 1
value=LIMU
T 52200 44700 5 10 0 0 0 6 1
net=LIMU:1
}
C 46900 40400 1 0 0 EMBEDDEDconnector6-2.sym
[
P 46900 42800 47100 42800 1 0 0
{
T 47100 42850 5 8 0 1 0 6 1
pinnumber=1
T 47100 42750 5 8 0 1 0 8 1
pinseq=1
T 47250 42800 9 8 1 1 0 0 1
pinlabel=1
T 47250 42800 5 8 0 1 0 2 1
pintype=pas
}
V 47150 42800 50 6 0 0 0 -1 -1 0 -1 -1 -1 -1 -1
P 46900 42400 47100 42400 1 0 0
{
T 47100 42450 5 8 0 1 0 6 1
pinnumber=2
T 47100 42350 5 8 0 1 0 8 1
pinseq=2
T 47250 42400 9 8 1 1 0 0 1
pinlabel=2
T 47250 42400 5 8 0 1 0 2 1
pintype=pas
}
V 47150 42400 50 6 0 0 0 -1 -1 0 -1 -1 -1 -1 -1
P 46900 42000 47100 42000 1 0 0
{
T 47100 42050 5 8 0 1 0 6 1
pinnumber=3
T 47100 41950 5 8 0 1 0 8 1
pinseq=3
T 47250 42000 9 8 1 1 0 0 1
pinlabel=3
T 47250 42000 5 8 0 1 0 2 1
pintype=pas
}
V 47150 42000 50 6 0 0 0 -1 -1 0 -1 -1 -1 -1 -1
P 46900 41600 47100 41600 1 0 0
{
T 47100 41650 5 8 0 1 0 6 1
pinnumber=4
T 47100 41550 5 8 0 1 0 8 1
pinseq=4
T 47250 41600 9 8 1 1 0 0 1
pinlabel=4
T 47250 41600 5 8 0 1 0 2 1
pintype=pas
}
V 47150 41600 50 6 0 0 0 -1 -1 0 -1 -1 -1 -1 -1
P 46900 41200 47100 41200 1 0 0
{
T 47100 41250 5 8 0 1 0 6 1
pinnumber=5
T 47100 41150 5 8 0 1 0 8 1
pinseq=5
T 47250 41200 9 8 1 1 0 0 1
pinlabel=5
T 47250 41200 5 8 0 1 0 2 1
pintype=pas
}
V 47150 41200 50 6 0 0 0 -1 -1 0 -1 -1 -1 -1 -1
P 46900 40800 47100 40800 1 0 0
{
T 47100 40850 5 8 0 1 0 6 1
pinnumber=6
T 47100 40750 5 8 0 1 0 8 1
pinseq=6
T 47250 40800 9 8 1 1 0 0 1
pinlabel=6
T 47250 40800 5 8 0 1 0 2 1
pintype=pas
}
V 47150 40800 50 6 0 0 0 -1 -1 0 -1 -1 -1 -1 -1
B 47200 40400 400 2800 3 0 0 0 -1 -1 0 -1 -1 -1 -1 -1
T 47600 43300 8 10 0 1 0 6 1
refdes=CONN?
T 47200 43250 5 10 0 0 0 0 1
device=CONNECTOR_6
T 47200 43450 5 10 0 0 0 0 1
footprint=SIP6N
T 47200 43650 5 10 0 0 0 0 1
author=Leon Kos
T 47200 43850 5 10 0 0 0 0 1
description=generic connector
T 47200 44050 5 10 0 0 0 0 1
numslots=0
]
{
T 47500 43300 5 10 1 1 0 6 1
refdes=J4
T 47200 43250 5 10 0 0 0 0 1
device=CONNECTOR_6
T 47200 43450 5 10 0 0 0 0 1
footprint=HEADER6_2
}
C 49200 43900 1 0 0 EMBEDDEDin-1.sym
[
P 49600 44000 49800 44000 1 0 1
{
T 49650 44050 5 6 0 1 0 0 1
pinnumber=1
T 49650 44050 5 6 0 0 0 0 1
pinseq=1
}
L 49300 44000 49200 44100 6 0 0 0 -1 -1
L 49300 44000 49200 43900 6 0 0 0 -1 -1
L 49600 44000 49300 44000 6 0 0 0 -1 -1
T 49200 44200 5 10 0 0 0 0 1
device=INPUT
T 49200 44200 8 10 0 1 0 0 1
refdes=pinlabel
]
{
T 49200 44200 5 10 0 0 0 0 1
device=INPUT
T 49200 43900 5 10 0 0 0 0 1
net=SDA:1
T 49150 44000 5 10 1 1 0 7 1
value=SDA
}
C 49200 43700 1 0 0 EMBEDDEDin-1.sym
[
P 49600 43800 49800 43800 1 0 1
{
T 49650 43850 5 6 0 1 0 0 1
pinnumber=1
T 49650 43850 5 6 0 0 0 0 1
pinseq=1
}
L 49300 43800 49200 43900 6 0 0 0 -1 -1
L 49300 43800 49200 43700 6 0 0 0 -1 -1
L 49600 43800 49300 43800 6 0 0 0 -1 -1
T 49200 44000 5 10 0 0 0 0 1
device=INPUT
T 49200 44000 8 10 0 1 0 0 1
refdes=pinlabel
]
{
T 49200 44000 5 10 0 0 0 0 1
device=INPUT
T 49200 43700 5 10 0 0 0 0 1
net=SCL:1
T 49150 43800 5 10 1 1 0 7 1
value=SCL
}
C 49600 44800 1 0 0 EMBEDDEDgnd-1.sym
[
P 49700 44900 49700 45100 1 0 1
{
T 49758 44961 5 4 0 1 0 0 1
pinnumber=1
T 49758 44961 5 4 0 0 0 0 1
pinseq=1
T 49758 44961 5 4 0 1 0 0 1
pinlabel=1
T 49758 44961 5 4 0 1 0 0 1
pintype=pwr
}
L 49600 44900 49800 44900 3 0 0 0 -1 -1
L 49655 44850 49745 44850 3 0 0 0 -1 -1
L 49680 44810 49720 44810 3 0 0 0 -1 -1
T 49900 44850 8 10 0 0 0 0 1
net=GND:1
]
C 49500 45400 1 0 0 EMBEDDEDvcc-1.sym
[
P 49700 45400 49700 45600 1 0 0
{
T 49750 45450 5 6 0 1 0 0 1
pinnumber=1
T 49750 45450 5 6 0 0 0 0 1
pinseq=1
T 49750 45450 5 6 0 1 0 0 1
pinlabel=1
T 49750 45450 5 6 0 1 0 0 1
pintype=pwr
}
L 49550 45600 49850 45600 3 0 0 0 -1 -1
T 49575 45650 9 8 1 0 0 0 1
Vcc
T 49950 45600 8 10 0 0 0 0 1
net=Vcc:1
]
N 49700 45100 49800 45100 4
N 49700 45400 49800 45400 4
C 44500 43200 1 0 0 EMBEDDEDheatsink.sym
[
L 44600 43500 45300 43500 3 0 0 0 -1 -1
L 44600 43700 45300 43700 3 0 0 0 -1 -1
L 44600 43500 44600 43700 3 0 0 0 -1 -1
L 45300 43500 45300 43700 3 0 0 0 -1 -1
L 44700 43700 44800 43800 3 0 0 0 -1 -1
L 44700 43900 44800 44000 3 0 0 0 -1 -1
L 44800 43800 44700 43900 3 0 0 0 -1 -1
L 44900 43900 45000 44000 3 0 0 0 -1 -1
L 45000 43800 44900 43900 3 0 0 0 -1 -1
L 44900 43700 45000 43800 3 0 0 0 -1 -1
L 45100 43900 45200 44000 3 0 0 0 -1 -1
L 45200 43800 45100 43900 3 0 0 0 -1 -1
L 45100 43700 45200 43800 3 0 0 0 -1 -1
T 45300 44100 8 10 0 1 0 0 1
footprint=HEATSINK_TO220_18KW
T 44600 44000 8 10 0 1 0 0 1
refdes=H?
T 45200 44000 8 10 0 1 0 0 1
value=18K/W
]
{
T 45300 44100 5 10 0 1 0 0 1
footprint=HEATSINK_TO220_18KW
T 44600 44000 5 10 1 1 0 0 1
refdes=HS1
T 45200 44000 5 10 1 1 0 0 1
value=18K/W
}
C 49800 43600 1 0 0 EMBEDDEDmax11614-1.sym
[
B 50100 43700 1200 1900 3 0 0 0 -1 -1 0 -1 -1 -1 -1 -1
P 49800 45400 50100 45400 1 0 0
{
T 50000 45450 5 8 1 1 0 6 1
pinnumber=16
T 50150 45400 9 8 1 1 0 0 1
pinlabel=Vcc
T 50150 45400 5 8 0 1 0 2 1
pintype=pwr
T 50000 45350 5 8 0 1 0 8 1
pinseq=16
}
P 49800 45100 50100 45100 1 0 0
{
T 50000 45150 5 8 1 1 0 6 1
pinnumber=15
T 50150 45100 9 8 1 1 0 0 1
pinlabel=GND
T 50150 45100 5 8 0 1 0 2 1
pintype=pwr
T 50000 45050 5 8 0 1 0 8 1
pinseq=15
}
P 49800 44000 50100 44000 1 0 0
{
T 50000 44050 5 8 1 1 0 6 1
pinnumber=14
T 50150 44000 9 8 1 1 0 0 1
pinlabel=SDA
T 50150 44000 5 8 0 1 0 2 1
pintype=io
T 50000 43950 5 8 0 1 0 8 1
pinseq=14
}
P 49800 43800 50100 43800 1 0 0
{
T 50000 43850 5 8 1 1 0 6 1
pinnumber=13
T 50150 43800 9 8 1 1 0 0 1
pinlabel=SCL
T 50150 43800 5 8 0 1 0 2 1
pintype=in
T 50000 43750 5 8 0 1 0 8 1
pinseq=13
}
P 51600 45200 51300 45200 1 0 0
{
T 51400 45250 5 8 1 1 0 0 1
pinnumber=6
T 51250 45200 9 8 1 1 0 6 1
pinlabel=AIN1
T 51250 45200 5 8 0 1 0 8 1
pintype=in
T 51400 45150 5 8 0 1 0 2 1
pinseq=6
}
P 51600 45000 51300 45000 1 0 0
{
T 51400 45050 5 8 1 1 0 0 1
pinnumber=7
T 51250 45000 9 8 1 1 0 6 1
pinlabel=AIN2
T 51250 45000 5 8 0 1 0 8 1
pintype=in
T 51400 44950 5 8 0 1 0 2 1
pinseq=7
}
P 51600 45400 51300 45400 1 0 0
{
T 51400 45450 5 8 1 1 0 0 1
pinnumber=5
T 51250 45400 9 8 1 1 0 6 1
pinlabel=AIN0
T 51250 45400 5 8 0 1 0 8 1
pintype=in
T 51400 45350 5 8 0 1 0 2 1
pinseq=5
}
P 51600 44800 51300 44800 1 0 0
{
T 51400 44850 5 8 1 1 0 0 1
pinnumber=8
T 51250 44800 9 8 1 1 0 6 1
pinlabel=AIN3
T 51250 44800 5 8 0 1 0 8 1
pintype=in
T 51400 44750 5 8 0 1 0 2 1
pinseq=8
}
P 51600 44400 51300 44400 1 0 0
{
T 51250 44400 5 8 0 1 0 8 1
pintype=in
T 51400 44350 5 8 0 1 0 2 1
pinseq=10
T 51400 44450 5 8 1 1 0 0 1
pinnumber=10
T 51250 44400 9 8 1 1 0 6 1
pinlabel=AIN5
}
P 51600 44200 51300 44200 1 0 0
{
T 51250 44200 5 8 0 1 0 8 1
pintype=in
T 51400 44150 5 8 0 1 0 2 1
pinseq=11
T 51400 44250 5 8 1 1 0 0 1
pinnumber=11
T 51250 44200 9 8 1 1 0 6 1
pinlabel=AIN6
}
P 51600 44600 51300 44600 1 0 0
{
T 51250 44600 5 8 0 1 0 8 1
pintype=in
T 51400 44550 5 8 0 1 0 2 1
pinseq=9
T 51400 44650 5 8 1 1 0 0 1
pinnumber=9
T 51250 44600 9 8 1 1 0 6 1
pinlabel=AIN4
}
P 51600 44000 51300 44000 1 0 0
{
T 51250 44000 5 8 0 1 0 8 1
pintype=in
T 51400 43950 5 8 0 1 0 2 1
pinseq=12
T 51400 44050 5 8 1 1 0 0 1
pinnumber=12
T 51250 44000 9 8 1 1 0 6 1
pinlabel=AIN7
}
P 51600 43800 51300 43800 1 0 0
{
T 51250 43800 5 8 0 1 0 8 1
pintype=in
T 51400 43750 5 8 0 1 0 2 1
pinseq=1
T 51400 43850 5 8 1 1 0 0 1
pinnumber=1
T 51250 43800 9 8 1 1 0 6 1
pinlabel=REF
}
T 51100 45650 8 10 0 1 0 0 1
refdes=U?
T 50100 46100 8 10 0 0 0 0 1
description=12 bit ADC with I2C
T 50100 46300 8 10 0 0 0 0 1
footprint=QSOP16
T 51000 45650 8 10 0 1 0 6 1
device=MAX11614
T 50100 46500 8 10 0 0 0 0 1
numslots=0
]
{
T 51100 45650 5 10 1 1 0 0 1
refdes=U10
T 50100 46300 5 10 0 0 0 0 1
footprint=QSOP16_BS_1
T 51000 45650 5 10 1 1 0 6 1
device=MAX11614
}
C 52200 44900 1 0 1 EMBEDDEDin-1.sym
[
P 51800 45000 51600 45000 1 0 1
{
T 51750 45050 5 6 0 1 0 6 1
pinnumber=1
T 51750 45050 5 6 0 0 0 6 1
pinseq=1
}
L 52100 45000 52200 45100 6 0 0 0 -1 -1
L 52100 45000 52200 44900 6 0 0 0 -1 -1
L 51800 45000 52100 45000 6 0 0 0 -1 -1
T 52200 45200 5 10 0 0 0 6 1
device=INPUT
T 52200 45200 8 10 0 1 0 6 1
refdes=pinlabel
]
{
T 52200 45200 5 10 0 0 0 6 1
device=INPUT
T 52250 45000 5 10 1 1 0 1 1
value=LIMI
T 52200 44900 5 10 0 0 0 6 1
net=LIMI:1
}
C 51700 42500 1 0 0 EMBEDDEDgnd-1.sym
[
P 51800 42600 51800 42800 1 0 1
{
T 51858 42661 5 4 0 1 0 0 1
pinnumber=1
T 51858 42661 5 4 0 0 0 0 1
pinseq=1
T 51858 42661 5 4 0 1 0 0 1
pinlabel=1
T 51858 42661 5 4 0 1 0 0 1
pintype=pwr
}
L 51700 42600 51900 42600 3 0 0 0 -1 -1
L 51755 42550 51845 42550 3 0 0 0 -1 -1
L 51780 42510 51820 42510 3 0 0 0 -1 -1
T 52000 42550 8 10 0 0 0 0 1
net=GND:1
]
C 52200 42500 1 0 0 EMBEDDEDgnd-1.sym
[
P 52300 42600 52300 42800 1 0 1
{
T 52358 42661 5 4 0 1 0 0 1
pinnumber=1
T 52358 42661 5 4 0 0 0 0 1
pinseq=1
T 52358 42661 5 4 0 1 0 0 1
pinlabel=1
T 52358 42661 5 4 0 1 0 0 1
pintype=pwr
}
L 52200 42600 52400 42600 3 0 0 0 -1 -1
L 52255 42550 52345 42550 3 0 0 0 -1 -1
L 52280 42510 52320 42510 3 0 0 0 -1 -1
T 52500 42550 8 10 0 0 0 0 1
net=GND:1
]
C 52700 42500 1 0 0 EMBEDDEDgnd-1.sym
[
P 52800 42600 52800 42800 1 0 1
{
T 52858 42661 5 4 0 1 0 0 1
pinnumber=1
T 52858 42661 5 4 0 0 0 0 1
pinseq=1
T 52858 42661 5 4 0 1 0 0 1
pinlabel=1
T 52858 42661 5 4 0 1 0 0 1
pintype=pwr
}
L 52700 42600 52900 42600 3 0 0 0 -1 -1
L 52755 42550 52845 42550 3 0 0 0 -1 -1
L 52780 42510 52820 42510 3 0 0 0 -1 -1
T 53000 42550 8 10 0 0 0 0 1
net=GND:1
]
C 53200 42500 1 0 0 EMBEDDEDgnd-1.sym
[
P 53300 42600 53300 42800 1 0 1
{
T 53358 42661 5 4 0 1 0 0 1
pinnumber=1
T 53358 42661 5 4 0 0 0 0 1
pinseq=1
T 53358 42661 5 4 0 1 0 0 1
pinlabel=1
T 53358 42661 5 4 0 1 0 0 1
pintype=pwr
}
L 53200 42600 53400 42600 3 0 0 0 -1 -1
L 53255 42550 53345 42550 3 0 0 0 -1 -1
L 53280 42510 53320 42510 3 0 0 0 -1 -1
T 53500 42550 8 10 0 0 0 0 1
net=GND:1
]
N 51600 44000 53900 44000 4
N 51800 44000 51800 43800 4
N 51600 44200 54400 44200 4
N 52300 44200 52300 43800 4
N 51600 44400 54900 44400 4
N 52800 44400 52800 43800 4
N 51600 44600 55400 44600 4
N 53300 44600 53300 43800 4
C 54100 42800 1 90 0 EMBEDDEDcapacitor-1.sym
[
P 53900 42800 53900 43000 1 0 0
{
T 53850 42950 5 8 0 1 90 6 1
pinnumber=1
T 53950 42950 5 8 0 1 90 8 1
pinseq=1
T 53900 43000 9 8 0 1 90 0 1
pinlabel=1
T 53900 43000 5 8 0 1 90 2 1
pintype=pas
}
P 53900 43700 53900 43500 1 0 0
{
T 53850 43550 5 8 0 1 90 0 1
pinnumber=2
T 53950 43550 5 8 0 1 90 2 1
pinseq=2
T 53900 43500 9 8 0 1 90 6 1
pinlabel=2
T 53900 43500 5 8 0 1 90 8 1
pintype=pas
}
L 53700 43200 54100 43200 3 0 0 0 -1 -1
L 53700 43300 54100 43300 3 0 0 0 -1 -1
L 53900 43500 53900 43300 3 0 0 0 -1 -1
L 53900 43200 53900 43000 3 0 0 0 -1 -1
T 53400 43000 5 10 0 0 90 0 1
device=CAPACITOR
T 53600 43000 8 10 0 1 90 0 1
refdes=C?
T 52800 43000 5 10 0 0 90 0 1
description=capacitor
T 53000 43000 5 10 0 0 90 0 1
numslots=0
T 53200 43000 5 10 0 0 90 0 1
symversion=0.1
]
{
T 53400 43000 5 10 0 0 90 0 1
device=CAPACITOR
T 53200 43000 5 10 0 0 90 0 1
symversion=0.1
T 54100 42800 5 10 0 0 0 0 1
footprint=0603_BS_1
T 53800 43100 5 10 1 1 90 6 1
refdes=C41
T 53800 43400 5 10 1 1 90 0 1
value=100n
}
C 54600 42800 1 90 0 EMBEDDEDcapacitor-1.sym
[
P 54400 42800 54400 43000 1 0 0
{
T 54350 42950 5 8 0 1 90 6 1
pinnumber=1
T 54450 42950 5 8 0 1 90 8 1
pinseq=1
T 54400 43000 9 8 0 1 90 0 1
pinlabel=1
T 54400 43000 5 8 0 1 90 2 1
pintype=pas
}
P 54400 43700 54400 43500 1 0 0
{
T 54350 43550 5 8 0 1 90 0 1
pinnumber=2
T 54450 43550 5 8 0 1 90 2 1
pinseq=2
T 54400 43500 9 8 0 1 90 6 1
pinlabel=2
T 54400 43500 5 8 0 1 90 8 1
pintype=pas
}
L 54200 43200 54600 43200 3 0 0 0 -1 -1
L 54200 43300 54600 43300 3 0 0 0 -1 -1
L 54400 43500 54400 43300 3 0 0 0 -1 -1
L 54400 43200 54400 43000 3 0 0 0 -1 -1
T 53900 43000 5 10 0 0 90 0 1
device=CAPACITOR
T 54100 43000 8 10 0 1 90 0 1
refdes=C?
T 53300 43000 5 10 0 0 90 0 1
description=capacitor
T 53500 43000 5 10 0 0 90 0 1
numslots=0
T 53700 43000 5 10 0 0 90 0 1
symversion=0.1
]
{
T 53900 43000 5 10 0 0 90 0 1
device=CAPACITOR
T 53700 43000 5 10 0 0 90 0 1
symversion=0.1
T 54600 42800 5 10 0 0 0 0 1
footprint=0603_BS_1
T 54300 43100 5 10 1 1 90 6 1
refdes=C42
T 54300 43400 5 10 1 1 90 0 1
value=100n
}
C 55100 42800 1 90 0 EMBEDDEDcapacitor-1.sym
[
P 54900 42800 54900 43000 1 0 0
{
T 54850 42950 5 8 0 1 90 6 1
pinnumber=1
T 54950 42950 5 8 0 1 90 8 1
pinseq=1
T 54900 43000 9 8 0 1 90 0 1
pinlabel=1
T 54900 43000 5 8 0 1 90 2 1
pintype=pas
}
P 54900 43700 54900 43500 1 0 0
{
T 54850 43550 5 8 0 1 90 0 1
pinnumber=2
T 54950 43550 5 8 0 1 90 2 1
pinseq=2
T 54900 43500 9 8 0 1 90 6 1
pinlabel=2
T 54900 43500 5 8 0 1 90 8 1
pintype=pas
}
L 54700 43200 55100 43200 3 0 0 0 -1 -1
L 54700 43300 55100 43300 3 0 0 0 -1 -1
L 54900 43500 54900 43300 3 0 0 0 -1 -1
L 54900 43200 54900 43000 3 0 0 0 -1 -1
T 54400 43000 5 10 0 0 90 0 1
device=CAPACITOR
T 54600 43000 8 10 0 1 90 0 1
refdes=C?
T 53800 43000 5 10 0 0 90 0 1
description=capacitor
T 54000 43000 5 10 0 0 90 0 1
numslots=0
T 54200 43000 5 10 0 0 90 0 1
symversion=0.1
]
{
T 54400 43000 5 10 0 0 90 0 1
device=CAPACITOR
T 54200 43000 5 10 0 0 90 0 1
symversion=0.1
T 55100 42800 5 10 0 0 0 0 1
footprint=0603_BS_1
T 54800 43100 5 10 1 1 90 6 1
refdes=C43
T 54800 43400 5 10 1 1 90 0 1
value=100n
}
C 55600 42800 1 90 0 EMBEDDEDcapacitor-1.sym
[
P 55400 42800 55400 43000 1 0 0
{
T 55350 42950 5 8 0 1 90 6 1
pinnumber=1
T 55450 42950 5 8 0 1 90 8 1
pinseq=1
T 55400 43000 9 8 0 1 90 0 1
pinlabel=1
T 55400 43000 5 8 0 1 90 2 1
pintype=pas
}
P 55400 43700 55400 43500 1 0 0
{
T 55350 43550 5 8 0 1 90 0 1
pinnumber=2
T 55450 43550 5 8 0 1 90 2 1
pinseq=2
T 55400 43500 9 8 0 1 90 6 1
pinlabel=2
T 55400 43500 5 8 0 1 90 8 1
pintype=pas
}
L 55200 43200 55600 43200 3 0 0 0 -1 -1
L 55200 43300 55600 43300 3 0 0 0 -1 -1
L 55400 43500 55400 43300 3 0 0 0 -1 -1
L 55400 43200 55400 43000 3 0 0 0 -1 -1
T 54900 43000 5 10 0 0 90 0 1
device=CAPACITOR
T 55100 43000 8 10 0 1 90 0 1
refdes=C?
T 54300 43000 5 10 0 0 90 0 1
description=capacitor
T 54500 43000 5 10 0 0 90 0 1
numslots=0
T 54700 43000 5 10 0 0 90 0 1
symversion=0.1
]
{
T 54900 43000 5 10 0 0 90 0 1
device=CAPACITOR
T 54700 43000 5 10 0 0 90 0 1
symversion=0.1
T 55600 42800 5 10 0 0 0 0 1
footprint=0603_BS_1
T 55300 43100 5 10 1 1 90 6 1
refdes=C44
T 55300 43400 5 10 1 1 90 0 1
value=100n
}
C 53800 42500 1 0 0 EMBEDDEDgnd-1.sym
[
P 53900 42600 53900 42800 1 0 1
{
T 53958 42661 5 4 0 1 0 0 1
pinnumber=1
T 53958 42661 5 4 0 0 0 0 1
pinseq=1
T 53958 42661 5 4 0 1 0 0 1
pinlabel=1
T 53958 42661 5 4 0 1 0 0 1
pintype=pwr
}
L 53800 42600 54000 42600 3 0 0 0 -1 -1
L 53855 42550 53945 42550 3 0 0 0 -1 -1
L 53880 42510 53920 42510 3 0 0 0 -1 -1
T 54100 42550 8 10 0 0 0 0 1
net=GND:1
]
C 54300 42500 1 0 0 EMBEDDEDgnd-1.sym
[
P 54400 42600 54400 42800 1 0 1
{
T 54458 42661 5 4 0 1 0 0 1
pinnumber=1
T 54458 42661 5 4 0 0 0 0 1
pinseq=1
T 54458 42661 5 4 0 1 0 0 1
pinlabel=1
T 54458 42661 5 4 0 1 0 0 1
pintype=pwr
}
L 54300 42600 54500 42600 3 0 0 0 -1 -1
L 54355 42550 54445 42550 3 0 0 0 -1 -1
L 54380 42510 54420 42510 3 0 0 0 -1 -1
T 54600 42550 8 10 0 0 0 0 1
net=GND:1
]
C 54800 42500 1 0 0 EMBEDDEDgnd-1.sym
[
P 54900 42600 54900 42800 1 0 1
{
T 54958 42661 5 4 0 1 0 0 1
pinnumber=1
T 54958 42661 5 4 0 0 0 0 1
pinseq=1
T 54958 42661 5 4 0 1 0 0 1
pinlabel=1
T 54958 42661 5 4 0 1 0 0 1
pintype=pwr
}
L 54800 42600 55000 42600 3 0 0 0 -1 -1
L 54855 42550 54945 42550 3 0 0 0 -1 -1
L 54880 42510 54920 42510 3 0 0 0 -1 -1
T 55100 42550 8 10 0 0 0 0 1
net=GND:1
]
C 55300 42500 1 0 0 EMBEDDEDgnd-1.sym
[
P 55400 42600 55400 42800 1 0 1
{
T 55458 42661 5 4 0 1 0 0 1
pinnumber=1
T 55458 42661 5 4 0 0 0 0 1
pinseq=1
T 55458 42661 5 4 0 1 0 0 1
pinlabel=1
T 55458 42661 5 4 0 1 0 0 1
pintype=pwr
}
L 55300 42600 55500 42600 3 0 0 0 -1 -1
L 55355 42550 55445 42550 3 0 0 0 -1 -1
L 55380 42510 55420 42510 3 0 0 0 -1 -1
T 55600 42550 8 10 0 0 0 0 1
net=GND:1
]
N 53900 43700 53900 44700 4
N 54400 43700 54400 44700 4
N 54900 43700 54900 44700 4
N 55400 43700 55400 44700 4
N 53900 45600 53900 45800 4
N 53900 45800 55400 45800 4
N 55400 45800 55400 45600 4
N 54900 45600 54900 45800 4
N 54400 45600 54400 45800 4
C 53700 45800 1 0 0 EMBEDDEDvcc-1.sym
[
P 53900 45800 53900 46000 1 0 0
{
T 53950 45850 5 6 0 1 0 0 1
pinnumber=1
T 53950 45850 5 6 0 0 0 0 1
pinseq=1
T 53950 45850 5 6 0 1 0 0 1
pinlabel=1
T 53950 45850 5 6 0 1 0 0 1
pintype=pwr
}
L 53750 46000 54050 46000 3 0 0 0 -1 -1
T 53775 46050 9 8 1 0 0 0 1
Vcc
T 54150 46000 8 10 0 0 0 0 1
net=Vcc:1
]
C 51700 42800 1 0 0 EMBEDDEDjumper-1.sym
[
P 51800 43800 51800 43600 1 0 0
{
T 51850 43650 5 8 1 1 0 0 1
pinnumber=2
T 51850 43650 5 8 0 0 0 0 1
pinseq=2
T 51850 43650 5 8 0 1 0 0 1
pinlabel=2
T 51850 43650 5 8 0 1 0 0 1
pintype=pas
}
P 51800 42800 51800 43000 1 0 0
{
T 51850 42850 5 8 1 1 0 0 1
pinnumber=1
T 51850 42850 5 8 0 0 0 0 1
pinseq=1
T 51850 42850 5 8 0 1 0 0 1
pinlabel=1
T 51850 42850 5 8 0 1 0 0 1
pintype=pas
}
V 51800 43500 50 3 0 0 0 -1 -1 0 -1 -1 -1 -1 -1
V 51800 43100 50 3 0 0 0 -1 -1 0 -1 -1 -1 -1 -1
B 51700 43000 200 600 3 0 0 0 -1 -1 0 -1 -1 -1 -1 -1
T 52000 43300 5 8 0 0 0 0 1
device=JUMPER
T 52000 43300 8 10 0 1 0 0 1
refdes=J?
]
{
T 52000 43300 5 8 0 0 0 0 1
device=JUMPER
T 51700 42900 5 10 1 1 90 6 1
refdes=TH1
T 51700 42800 5 10 0 0 0 0 1
footprint=JUMPER2
}
C 52200 42800 1 0 0 EMBEDDEDjumper-1.sym
[
P 52300 43800 52300 43600 1 0 0
{
T 52350 43650 5 8 1 1 0 0 1
pinnumber=2
T 52350 43650 5 8 0 0 0 0 1
pinseq=2
T 52350 43650 5 8 0 1 0 0 1
pinlabel=2
T 52350 43650 5 8 0 1 0 0 1
pintype=pas
}
P 52300 42800 52300 43000 1 0 0
{
T 52350 42850 5 8 1 1 0 0 1
pinnumber=1
T 52350 42850 5 8 0 0 0 0 1
pinseq=1
T 52350 42850 5 8 0 1 0 0 1
pinlabel=1
T 52350 42850 5 8 0 1 0 0 1
pintype=pas
}
V 52300 43500 50 3 0 0 0 -1 -1 0 -1 -1 -1 -1 -1
V 52300 43100 50 3 0 0 0 -1 -1 0 -1 -1 -1 -1 -1
B 52200 43000 200 600 3 0 0 0 -1 -1 0 -1 -1 -1 -1 -1
T 52500 43300 5 8 0 0 0 0 1
device=JUMPER
T 52500 43300 8 10 0 1 0 0 1
refdes=J?
]
{
T 52500 43300 5 8 0 0 0 0 1
device=JUMPER
T 52200 42900 5 10 1 1 90 6 1
refdes=TH2
T 52200 42800 5 10 0 0 0 0 1
footprint=JUMPER2
}
C 52700 42800 1 0 0 EMBEDDEDjumper-1.sym
[
P 52800 43800 52800 43600 1 0 0
{
T 52850 43650 5 8 1 1 0 0 1
pinnumber=2
T 52850 43650 5 8 0 0 0 0 1
pinseq=2
T 52850 43650 5 8 0 1 0 0 1
pinlabel=2
T 52850 43650 5 8 0 1 0 0 1
pintype=pas
}
P 52800 42800 52800 43000 1 0 0
{
T 52850 42850 5 8 1 1 0 0 1
pinnumber=1
T 52850 42850 5 8 0 0 0 0 1
pinseq=1
T 52850 42850 5 8 0 1 0 0 1
pinlabel=1
T 52850 42850 5 8 0 1 0 0 1
pintype=pas
}
V 52800 43500 50 3 0 0 0 -1 -1 0 -1 -1 -1 -1 -1
V 52800 43100 50 3 0 0 0 -1 -1 0 -1 -1 -1 -1 -1
B 52700 43000 200 600 3 0 0 0 -1 -1 0 -1 -1 -1 -1 -1
T 53000 43300 5 8 0 0 0 0 1
device=JUMPER
T 53000 43300 8 10 0 1 0 0 1
refdes=J?
]
{
T 53000 43300 5 8 0 0 0 0 1
device=JUMPER
T 52700 42900 5 10 1 1 90 6 1
refdes=TH3
T 52700 42800 5 10 0 0 0 0 1
footprint=JUMPER2
}
C 53200 42800 1 0 0 EMBEDDEDjumper-1.sym
[
P 53300 43800 53300 43600 1 0 0
{
T 53350 43650 5 8 1 1 0 0 1
pinnumber=2
T 53350 43650 5 8 0 0 0 0 1
pinseq=2
T 53350 43650 5 8 0 1 0 0 1
pinlabel=2
T 53350 43650 5 8 0 1 0 0 1
pintype=pas
}
P 53300 42800 53300 43000 1 0 0
{
T 53350 42850 5 8 1 1 0 0 1
pinnumber=1
T 53350 42850 5 8 0 0 0 0 1
pinseq=1
T 53350 42850 5 8 0 1 0 0 1
pinlabel=1
T 53350 42850 5 8 0 1 0 0 1
pintype=pas
}
V 53300 43500 50 3 0 0 0 -1 -1 0 -1 -1 -1 -1 -1
V 53300 43100 50 3 0 0 0 -1 -1 0 -1 -1 -1 -1 -1
B 53200 43000 200 600 3 0 0 0 -1 -1 0 -1 -1 -1 -1 -1
T 53500 43300 5 8 0 0 0 0 1
device=JUMPER
T 53500 43300 8 10 0 1 0 0 1
refdes=J?
]
{
T 53500 43300 5 8 0 0 0 0 1
device=JUMPER
T 53200 42900 5 10 1 1 90 6 1
refdes=TH4
T 53200 42800 5 10 0 0 0 0 1
footprint=JUMPER2
}
C 53800 45600 1 270 0 EMBEDDEDresistor-2.sym
[
B 53800 44850 200 600 3 0 0 0 -1 -1 0 -1 -1 -1 -1 -1
P 53900 45600 53900 45448 1 0 0
{
T 53950 45500 5 8 0 1 270 0 1
pintype=pas
T 53950 45500 5 8 0 1 270 0 1
pinlabel=1
T 53950 45500 5 8 0 0 270 0 1
pinseq=1
T 53950 45500 5 8 0 1 270 0 1
pinnumber=1
}
P 53900 44700 53900 44850 1 0 0
{
T 53950 44800 5 8 0 1 270 0 1
pintype=pas
T 53950 44800 5 8 0 1 270 0 1
pinlabel=2
T 53950 44800 5 8 0 0 270 0 1
pinseq=2
T 53950 44800 5 8 0 1 270 0 1
pinnumber=2
}
T 54100 45400 8 10 0 1 270 0 1
refdes=R?
T 54150 45200 5 10 0 0 270 0 1
device=RESISTOR
]
{
T 54150 45200 5 10 0 0 270 0 1
device=RESISTOR
T 53800 45600 5 10 0 0 270 0 1
footprint=0603_BS_1
T 54050 45200 5 10 1 1 270 6 1
refdes=R48
T 54050 45100 5 10 1 1 270 0 1
value=4k7
}
C 54300 45600 1 270 0 EMBEDDEDresistor-2.sym
[
B 54300 44850 200 600 3 0 0 0 -1 -1 0 -1 -1 -1 -1 -1
P 54400 45600 54400 45448 1 0 0
{
T 54450 45500 5 8 0 1 270 0 1
pintype=pas
T 54450 45500 5 8 0 1 270 0 1
pinlabel=1
T 54450 45500 5 8 0 0 270 0 1
pinseq=1
T 54450 45500 5 8 0 1 270 0 1
pinnumber=1
}
P 54400 44700 54400 44850 1 0 0
{
T 54450 44800 5 8 0 1 270 0 1
pintype=pas
T 54450 44800 5 8 0 1 270 0 1
pinlabel=2
T 54450 44800 5 8 0 0 270 0 1
pinseq=2
T 54450 44800 5 8 0 1 270 0 1
pinnumber=2
}
T 54600 45400 8 10 0 1 270 0 1
refdes=R?
T 54650 45200 5 10 0 0 270 0 1
device=RESISTOR
]
{
T 54650 45200 5 10 0 0 270 0 1
device=RESISTOR
T 54300 45600 5 10 0 0 270 0 1
footprint=0603_BS_1
T 54550 45200 5 10 1 1 270 6 1
refdes=R49
T 54550 45100 5 10 1 1 270 0 1
value=4k7
}
C 54800 45600 1 270 0 EMBEDDEDresistor-2.sym
[
B 54800 44850 200 600 3 0 0 0 -1 -1 0 -1 -1 -1 -1 -1
P 54900 45600 54900 45448 1 0 0
{
T 54950 45500 5 8 0 1 270 0 1
pintype=pas
T 54950 45500 5 8 0 1 270 0 1
pinlabel=1
T 54950 45500 5 8 0 0 270 0 1
pinseq=1
T 54950 45500 5 8 0 1 270 0 1
pinnumber=1
}
P 54900 44700 54900 44850 1 0 0
{
T 54950 44800 5 8 0 1 270 0 1
pintype=pas
T 54950 44800 5 8 0 1 270 0 1
pinlabel=2
T 54950 44800 5 8 0 0 270 0 1
pinseq=2
T 54950 44800 5 8 0 1 270 0 1
pinnumber=2
}
T 55100 45400 8 10 0 1 270 0 1
refdes=R?
T 55150 45200 5 10 0 0 270 0 1
device=RESISTOR
]
{
T 55150 45200 5 10 0 0 270 0 1
device=RESISTOR
T 54800 45600 5 10 0 0 270 0 1
footprint=0603_BS_1
T 55050 45200 5 10 1 1 270 6 1
refdes=R50
T 55050 45100 5 10 1 1 270 0 1
value=4k7
}
C 55300 45600 1 270 0 EMBEDDEDresistor-2.sym
[
B 55300 44850 200 600 3 0 0 0 -1 -1 0 -1 -1 -1 -1 -1
P 55400 45600 55400 45448 1 0 0
{
T 55450 45500 5 8 0 1 270 0 1
pintype=pas
T 55450 45500 5 8 0 1 270 0 1
pinlabel=1
T 55450 45500 5 8 0 0 270 0 1
pinseq=1
T 55450 45500 5 8 0 1 270 0 1
pinnumber=1
}
P 55400 44700 55400 44850 1 0 0
{
T 55450 44800 5 8 0 1 270 0 1
pintype=pas
T 55450 44800 5 8 0 1 270 0 1
pinlabel=2
T 55450 44800 5 8 0 0 270 0 1
pinseq=2
T 55450 44800 5 8 0 1 270 0 1
pinnumber=2
}
T 55600 45400 8 10 0 1 270 0 1
refdes=R?
T 55650 45200 5 10 0 0 270 0 1
device=RESISTOR
]
{
T 55650 45200 5 10 0 0 270 0 1
device=RESISTOR
T 55300 45600 5 10 0 0 270 0 1
footprint=0603_BS_1
T 55550 45200 5 10 1 1 270 6 1
refdes=R51
T 55550 45100 5 10 1 1 270 0 1
value=4k7
}
T 50100 43400 9 10 1 0 0 0 1
MCU Feedback
T 51600 42000 9 10 1 0 0 0 2
10k Thermistor (NTC)
range: 10...150 deg C
C 45200 49800 1 90 0 EMBEDDEDcapacitor-1.sym
[
P 45000 49800 45000 50000 1 0 0
{
T 44950 49950 5 8 0 1 90 6 1
pinnumber=1
T 45050 49950 5 8 0 1 90 8 1
pinseq=1
T 45000 50000 9 8 0 1 90 0 1
pinlabel=1
T 45000 50000 5 8 0 1 90 2 1
pintype=pas
}
P 45000 50700 45000 50500 1 0 0
{
T 44950 50550 5 8 0 1 90 0 1
pinnumber=2
T 45050 50550 5 8 0 1 90 2 1
pinseq=2
T 45000 50500 9 8 0 1 90 6 1
pinlabel=2
T 45000 50500 5 8 0 1 90 8 1
pintype=pas
}
L 44800 50200 45200 50200 3 0 0 0 -1 -1
L 44800 50300 45200 50300 3 0 0 0 -1 -1
L 45000 50500 45000 50300 3 0 0 0 -1 -1
L 45000 50200 45000 50000 3 0 0 0 -1 -1
T 44500 50000 5 10 0 0 90 0 1
device=CAPACITOR
T 44700 50000 8 10 0 1 90 0 1
refdes=C?
T 43900 50000 5 10 0 0 90 0 1
description=capacitor
T 44100 50000 5 10 0 0 90 0 1
numslots=0
T 44300 50000 5 10 0 0 90 0 1
symversion=0.1
]
{
T 44500 50000 5 10 0 0 90 0 1
device=CAPACITOR
T 44300 50000 5 10 0 0 90 0 1
symversion=0.1
T 45200 49800 5 10 0 0 0 0 1
footprint=0603_BS_1
T 44900 50100 5 10 1 1 90 6 1
refdes=C45
T 44900 50400 5 10 1 1 90 0 1
value=1u
}
C 45700 49800 1 90 0 EMBEDDEDcapacitor-1.sym
[
P 45500 49800 45500 50000 1 0 0
{
T 45450 49950 5 8 0 1 90 6 1
pinnumber=1
T 45550 49950 5 8 0 1 90 8 1
pinseq=1
T 45500 50000 9 8 0 1 90 0 1
pinlabel=1
T 45500 50000 5 8 0 1 90 2 1
pintype=pas
}
P 45500 50700 45500 50500 1 0 0
{
T 45450 50550 5 8 0 1 90 0 1
pinnumber=2
T 45550 50550 5 8 0 1 90 2 1
pinseq=2
T 45500 50500 9 8 0 1 90 6 1
pinlabel=2
T 45500 50500 5 8 0 1 90 8 1
pintype=pas
}
L 45300 50200 45700 50200 3 0 0 0 -1 -1
L 45300 50300 45700 50300 3 0 0 0 -1 -1
L 45500 50500 45500 50300 3 0 0 0 -1 -1
L 45500 50200 45500 50000 3 0 0 0 -1 -1
T 45000 50000 5 10 0 0 90 0 1
device=CAPACITOR
T 45200 50000 8 10 0 1 90 0 1
refdes=C?
T 44400 50000 5 10 0 0 90 0 1
description=capacitor
T 44600 50000 5 10 0 0 90 0 1
numslots=0
T 44800 50000 5 10 0 0 90 0 1
symversion=0.1
]
{
T 45000 50000 5 10 0 0 90 0 1
device=CAPACITOR
T 44800 50000 5 10 0 0 90 0 1
symversion=0.1
T 45700 49800 5 10 0 0 0 0 1
footprint=0603_BS_1
T 45400 50100 5 10 1 1 90 6 1
refdes=C46
T 45400 50400 5 10 1 1 90 0 1
value=1u
}
C 46200 49800 1 90 0 EMBEDDEDcapacitor-1.sym
[
P 46000 49800 46000 50000 1 0 0
{
T 45950 49950 5 8 0 1 90 6 1
pinnumber=1
T 46050 49950 5 8 0 1 90 8 1
pinseq=1
T 46000 50000 9 8 0 1 90 0 1
pinlabel=1
T 46000 50000 5 8 0 1 90 2 1
pintype=pas
}
P 46000 50700 46000 50500 1 0 0
{
T 45950 50550 5 8 0 1 90 0 1
pinnumber=2
T 46050 50550 5 8 0 1 90 2 1
pinseq=2
T 46000 50500 9 8 0 1 90 6 1
pinlabel=2
T 46000 50500 5 8 0 1 90 8 1
pintype=pas
}
L 45800 50200 46200 50200 3 0 0 0 -1 -1
L 45800 50300 46200 50300 3 0 0 0 -1 -1
L 46000 50500 46000 50300 3 0 0 0 -1 -1
L 46000 50200 46000 50000 3 0 0 0 -1 -1
T 45500 50000 5 10 0 0 90 0 1
device=CAPACITOR
T 45700 50000 8 10 0 1 90 0 1
refdes=C?
T 44900 50000 5 10 0 0 90 0 1
description=capacitor
T 45100 50000 5 10 0 0 90 0 1
numslots=0
T 45300 50000 5 10 0 0 90 0 1
symversion=0.1
]
{
T 45500 50000 5 10 0 0 90 0 1
device=CAPACITOR
T 45300 50000 5 10 0 0 90 0 1
symversion=0.1
T 46200 49800 5 10 0 0 0 0 1
footprint=0603_BS_1
T 45900 50100 5 10 1 1 90 6 1
refdes=C47
T 45900 50400 5 10 1 1 90 0 1
value=1u
}
C 46700 49800 1 90 0 EMBEDDEDcapacitor-1.sym
[
P 46500 49800 46500 50000 1 0 0
{
T 46450 49950 5 8 0 1 90 6 1
pinnumber=1
T 46550 49950 5 8 0 1 90 8 1
pinseq=1
T 46500 50000 9 8 0 1 90 0 1
pinlabel=1
T 46500 50000 5 8 0 1 90 2 1
pintype=pas
}
P 46500 50700 46500 50500 1 0 0
{
T 46450 50550 5 8 0 1 90 0 1
pinnumber=2
T 46550 50550 5 8 0 1 90 2 1
pinseq=2
T 46500 50500 9 8 0 1 90 6 1
pinlabel=2
T 46500 50500 5 8 0 1 90 8 1
pintype=pas
}
L 46300 50200 46700 50200 3 0 0 0 -1 -1
L 46300 50300 46700 50300 3 0 0 0 -1 -1
L 46500 50500 46500 50300 3 0 0 0 -1 -1
L 46500 50200 46500 50000 3 0 0 0 -1 -1
T 46000 50000 5 10 0 0 90 0 1
device=CAPACITOR
T 46200 50000 8 10 0 1 90 0 1
refdes=C?
T 45400 50000 5 10 0 0 90 0 1
description=capacitor
T 45600 50000 5 10 0 0 90 0 1
numslots=0
T 45800 50000 5 10 0 0 90 0 1
symversion=0.1
]
{
T 46000 50000 5 10 0 0 90 0 1
device=CAPACITOR
T 45800 50000 5 10 0 0 90 0 1
symversion=0.1
T 46700 49800 5 10 0 0 0 0 1
footprint=0603_BS_1
T 46400 50100 5 10 1 1 90 6 1
refdes=C48
T 46400 50400 5 10 1 1 90 0 1
value=1u
}
C 44900 49300 1 0 0 EMBEDDEDgnd-1.sym
[
P 45000 49400 45000 49600 1 0 1
{
T 45058 49461 5 4 0 1 0 0 1
pinnumber=1
T 45058 49461 5 4 0 0 0 0 1
pinseq=1
T 45058 49461 5 4 0 1 0 0 1
pinlabel=1
T 45058 49461 5 4 0 1 0 0 1
pintype=pwr
}
L 44900 49400 45100 49400 3 0 0 0 -1 -1
L 44955 49350 45045 49350 3 0 0 0 -1 -1
L 44980 49310 45020 49310 3 0 0 0 -1 -1
T 45200 49350 8 10 0 0 0 0 1
net=GND:1
]
C 44800 50900 1 0 0 EMBEDDEDvcc-1.sym
[
P 45000 50900 45000 51100 1 0 0
{
T 45050 50950 5 6 0 1 0 0 1
pinnumber=1
T 45050 50950 5 6 0 0 0 0 1
pinseq=1
T 45050 50950 5 6 0 1 0 0 1
pinlabel=1
T 45050 50950 5 6 0 1 0 0 1
pintype=pwr
}
L 44850 51100 45150 51100 3 0 0 0 -1 -1
T 44875 51150 9 8 1 0 0 0 1
Vcc
T 45250 51100 8 10 0 0 0 0 1
net=Vcc:1
]
N 45000 50700 45000 50900 4
N 45000 50800 46500 50800 4
N 46500 50800 46500 50700 4
N 46000 50700 46000 50800 4
N 45500 50700 45500 50800 4
N 45000 49600 45000 49800 4
N 45000 49700 46500 49700 4
N 46500 49700 46500 49800 4
N 46000 49700 46000 49800 4
N 45500 49700 45500 49800 4
C 41900 41300 1 270 0 EMBEDDEDdualD-com-A.sym
[
P 42400 41300 42400 41200 1 0 0
{
T 42420 41298 3 6 0 1 270 0 1
pinnumber=1
T 42420 41298 3 6 0 0 270 0 1
pinseq=1
T 42420 41298 3 6 0 0 270 0 1
pintype=pas
T 42400 41150 3 6 0 1 270 0 1
pinlabel=CATHODE1
}
P 42200 40700 42200 40600 1 0 1
{
T 42220 40650 3 6 0 1 270 0 1
pinnumber=3
T 42220 40650 3 6 0 0 270 0 1
pinseq=3
T 42220 40650 3 6 0 0 270 0 1
pintype=pas
T 42200 40750 3 6 0 1 270 0 1
pinlabel=ANODE
}
P 42000 41300 42000 41200 1 0 0
{
T 42020 41328 3 6 0 1 270 0 1
pinnumber=2
T 42020 41328 3 6 0 0 270 0 1
pinseq=2
T 42020 41328 3 6 0 0 270 0 1
pintype=pas
T 42000 41150 3 6 0 1 270 0 1
pinlabel=CATHODE2
}
L 42500 40900 42300 40900 3 0 0 0 -1 -1
L 42400 41200 42400 41050 3 0 0 0 -1 -1
L 42400 40900 42400 40700 3 0 0 0 -1 -1
L 42500 40900 42400 41050 3 0 0 0 -1 -1
L 42500 41050 42300 41050 3 0 0 0 -1 -1
L 42400 41050 42300 40900 3 0 0 0 -1 -1
L 42400 40700 42000 40700 3 0 0 0 -1 -1
L 42100 40900 42000 41050 3 0 0 0 -1 -1
L 42100 41050 41900 41050 3 0 0 0 -1 -1
L 42000 41050 41900 40900 3 0 0 0 -1 -1
L 42100 40900 41900 40900 3 0 0 0 -1 -1
L 42000 40900 42000 40700 3 0 0 0 -1 -1
L 42000 41200 42000 41050 3 0 0 0 -1 -1
T 42500 41200 5 6 0 1 270 0 1
device=BAT54A
T 42500 41200 5 6 0 1 270 0 1
refdes=D?
T 42600 41200 8 10 0 1 270 0 1
footprint=SOT23
]
{
T 42700 40800 5 6 1 1 90 0 1
device=BAT54A
T 41800 40900 5 6 1 1 90 0 1
refdes=D15
T 42600 41200 5 10 0 1 270 0 1
footprint=SOT23_BS_2
}
C 43000 42600 1 0 0 EMBEDDEDin-1.sym
[
P 43400 42700 43600 42700 1 0 1
{
T 43450 42750 5 6 0 1 0 0 1
pinnumber=1
T 43450 42750 5 6 0 0 0 0 1
pinseq=1
}
L 43100 42700 43000 42800 6 0 0 0 -1 -1
L 43100 42700 43000 42600 6 0 0 0 -1 -1
L 43400 42700 43100 42700 6 0 0 0 -1 -1
T 43000 42900 5 10 0 0 0 0 1
device=INPUT
T 43000 42900 8 10 0 1 0 0 1
refdes=pinlabel
]
{
T 43000 42900 5 10 0 0 0 0 1
device=INPUT
T 42950 42700 5 10 1 1 0 7 1
value=ULM
T 43000 42600 5 10 0 0 0 0 1
net=ULM:1
}
C 40600 42600 1 0 0 EMBEDDEDin-1.sym
[
P 41000 42700 41200 42700 1 0 1
{
T 41050 42750 5 6 0 1 0 0 1
pinnumber=1
T 41050 42750 5 6 0 0 0 0 1
pinseq=1
}
L 40700 42700 40600 42800 6 0 0 0 -1 -1
L 40700 42700 40600 42600 6 0 0 0 -1 -1
L 41000 42700 40700 42700 6 0 0 0 -1 -1
T 40600 42900 5 10 0 0 0 0 1
device=INPUT
T 40600 42900 8 10 0 1 0 0 1
refdes=pinlabel
]
{
T 40600 42900 5 10 0 0 0 0 1
device=INPUT
T 40550 42700 5 10 1 1 0 7 1
value=ILM
T 40600 42600 5 10 0 0 0 0 1
net=ILM:1
}
C 43600 41500 1 0 0 EMBEDDEDout-1.sym
[
P 43600 41600 43800 41600 1 0 0
{
T 43750 41650 5 6 0 1 0 0 1
pinnumber=1
T 43750 41650 5 6 0 0 0 0 1
pinseq=1
}
L 43800 41600 44200 41600 6 0 0 0 -1 -1
L 44200 41600 44100 41700 6 0 0 0 -1 -1
L 44200 41600 44100 41500 6 0 0 0 -1 -1
T 43600 41800 5 10 0 0 0 0 1
device=OUTPUT
T 43600 41800 8 10 0 1 0 0 1
refdes=pinlabel
]
{
T 43600 41800 5 10 0 0 0 0 1
device=OUTPUT
T 43600 41500 5 10 0 0 0 0 1
net=LIMU:1
T 44250 41600 5 10 1 1 0 1 1
value=LIMU
}
N 41200 41600 42000 41600 4
N 42000 41600 42000 41300 4
N 41800 41600 41800 41900 4
N 42400 41700 42400 41300 4
C 42100 40300 1 0 0 EMBEDDEDgnd-1.sym
[
P 42200 40400 42200 40600 1 0 1
{
T 42258 40461 5 4 0 1 0 0 1
pinnumber=1
T 42258 40461 5 4 0 0 0 0 1
pinseq=1
T 42258 40461 5 4 0 1 0 0 1
pinlabel=1
T 42258 40461 5 4 0 1 0 0 1
pintype=pwr
}
L 42100 40400 42300 40400 3 0 0 0 -1 -1
L 42155 40350 42245 40350 3 0 0 0 -1 -1
L 42180 40310 42220 40310 3 0 0 0 -1 -1
T 42400 40350 8 10 0 0 0 0 1
net=GND:1
]
C 41800 44500 1 0 1 EMBEDDEDnmos-123-1.sym
[
L 41550 45100 41300 45100 3 0 0 0 -1 -1
L 41550 44700 41300 44700 3 0 0 0 -1 -1
L 41550 44900 41450 44950 3 0 0 0 -1 -1
L 41550 44900 41450 44850 3 0 0 0 -1 -1
P 41800 44700 41600 44700 1 0 0
{
T 41800 44800 5 10 0 1 0 6 1
pinnumber=1
T 41800 44800 9 10 0 1 0 6 1
pinlabel=G
T 41800 44800 5 10 0 0 0 6 1
pinseq=2
T 41800 44800 5 10 0 0 0 6 1
pintype=pas
}
P 41300 45100 41300 45300 1 0 1
{
T 41500 45200 5 10 0 1 0 6 1
pinnumber=3
T 41500 45200 9 10 0 1 0 6 1
pinlabel=D
T 41500 45200 5 10 0 0 0 6 1
pinseq=1
T 41500 45200 5 10 0 0 0 6 1
pintype=pas
}
P 41300 44700 41300 44500 1 0 1
{
T 41500 44500 5 10 0 1 0 6 1
pinnumber=2
T 41500 44500 9 10 0 1 0 6 1
pinlabel=S
T 41500 44500 5 10 0 0 0 6 1
pinseq=3
T 41500 44500 5 10 0 0 0 6 1
pintype=pas
}
L 41550 45175 41550 45025 3 0 0 0 -1 -1
L 41550 44975 41550 44825 3 0 0 0 -1 -1
L 41550 44775 41550 44625 3 0 0 0 -1 -1
L 41600 45100 41600 44700 3 0 0 0 -1 -1
L 41550 44900 41400 44900 3 0 0 0 -1 -1
L 41400 44900 41400 44700 3 0 0 0 -1 -1
T 41200 45000 5 10 0 0 0 6 1
device=NMOS_TRANSISTOR
T 41200 45000 5 10 0 0 0 6 1
numslots=0
T 41200 45000 5 10 0 0 0 6 1
description=generic N channel MOS transistor (enhancement type)
T 41100 45100 8 10 0 1 0 6 1
refdes=Q?
]
{
T 41200 45000 5 10 0 0 0 6 1
device=NMOS_TRANSISTOR
T 41100 45000 5 10 1 1 0 6 1
refdes=Q8
T 41200 44700 5 10 1 1 0 6 1
value=BSS138
T 41800 44500 5 10 0 0 0 0 1
footprint=SOT23_BS_2
}
C 41100 45300 1 0 0 EMBEDDEDgeneric-power.sym
[
P 41300 45300 41300 45500 1 0 0
{
T 41350 45350 5 6 0 1 0 0 1
pinnumber=1
T 41350 45350 5 6 0 0 0 0 1
pinseq=1
T 41350 45350 5 6 0 1 0 0 1
pinlabel=1
T 41350 45350 5 6 0 1 0 0 1
pintype=pwr
}
L 41150 45500 41450 45500 3 0 0 0 -1 -1
T 41300 45550 8 10 0 1 0 3 1
net=Vcc:1
]
{
T 41300 45550 5 10 1 1 0 3 1
net=Vout:1
}
C 42000 43600 1 90 0 EMBEDDEDresistor-2.sym
[
B 41800 43750 200 600 3 0 0 0 -1 -1 0 -1 -1 -1 -1 -1
P 41900 43600 41900 43752 1 0 0
{
T 41850 43700 5 8 0 1 90 0 1
pintype=pas
T 41850 43700 5 8 0 1 90 0 1
pinlabel=1
T 41850 43700 5 8 0 0 90 0 1
pinseq=1
T 41850 43700 5 8 0 1 90 0 1
pinnumber=1
}
P 41900 44500 41900 44350 1 0 0
{
T 41850 44400 5 8 0 1 90 0 1
pintype=pas
T 41850 44400 5 8 0 1 90 0 1
pinlabel=2
T 41850 44400 5 8 0 0 90 0 1
pinseq=2
T 41850 44400 5 8 0 1 90 0 1
pinnumber=2
}
T 41700 43800 8 10 0 1 90 0 1
refdes=R?
T 41650 44000 5 10 0 0 90 0 1
device=RESISTOR
]
{
T 41650 44000 5 10 0 0 90 0 1
device=RESISTOR
T 42000 43600 5 10 0 0 90 0 1
footprint=0603_BS_1
T 41750 44000 5 10 1 1 90 6 1
refdes=R46
T 41750 44100 5 10 1 1 90 0 1
value=10k
}
C 41800 43300 1 0 0 EMBEDDEDgnd-1.sym
[
P 41900 43400 41900 43600 1 0 1
{
T 41958 43461 5 4 0 1 0 0 1
pinnumber=1
T 41958 43461 5 4 0 0 0 0 1
pinseq=1
T 41958 43461 5 4 0 1 0 0 1
pinlabel=1
T 41958 43461 5 4 0 1 0 0 1
pintype=pwr
}
L 41800 43400 42000 43400 3 0 0 0 -1 -1
L 41855 43350 41945 43350 3 0 0 0 -1 -1
L 41880 43310 41920 43310 3 0 0 0 -1 -1
T 42100 43350 8 10 0 0 0 0 1
net=GND:1
]
N 41800 44700 42000 44700 4
N 41900 44500 41900 44700 4
C 41200 43300 1 0 0 EMBEDDEDgnd-1.sym
[
P 41300 43400 41300 43600 1 0 1
{
T 41358 43461 5 4 0 1 0 0 1
pinnumber=1
T 41358 43461 5 4 0 0 0 0 1
pinseq=1
T 41358 43461 5 4 0 1 0 0 1
pinlabel=1
T 41358 43461 5 4 0 1 0 0 1
pintype=pwr
}
L 41200 43400 41400 43400 3 0 0 0 -1 -1
L 41255 43350 41345 43350 3 0 0 0 -1 -1
L 41280 43310 41320 43310 3 0 0 0 -1 -1
T 41500 43350 8 10 0 0 0 0 1
net=GND:1
]
C 41400 43600 1 90 0 EMBEDDEDresistor-2.sym
[
B 41200 43750 200 600 3 0 0 0 -1 -1 0 -1 -1 -1 -1 -1
P 41300 43600 41300 43752 1 0 0
{
T 41250 43700 5 8 0 1 90 0 1
pintype=pas
T 41250 43700 5 8 0 1 90 0 1
pinlabel=1
T 41250 43700 5 8 0 0 90 0 1
pinseq=1
T 41250 43700 5 8 0 1 90 0 1
pinnumber=1
}
P 41300 44500 41300 44350 1 0 0
{
T 41250 44400 5 8 0 1 90 0 1
pintype=pas
T 41250 44400 5 8 0 1 90 0 1
pinlabel=2
T 41250 44400 5 8 0 0 90 0 1
pinseq=2
T 41250 44400 5 8 0 1 90 0 1
pinnumber=2
}
T 41100 43800 8 10 0 1 90 0 1
refdes=R?
T 41050 44000 5 10 0 0 90 0 1
device=RESISTOR
]
{
T 41050 44000 5 10 0 0 90 0 1
device=RESISTOR
T 41400 43600 5 10 0 0 90 0 1
footprint=0603_BS_1
T 41150 44000 5 10 1 1 90 6 1
refdes=R47
T 41150 44100 5 10 1 1 90 0 1
value=22
}
C 42000 44600 1 0 0 EMBEDDEDresistor-2.sym
[
B 42150 44600 600 200 3 0 0 0 -1 -1 0 -1 -1 -1 -1 -1
P 42000 44700 42152 44700 1 0 0
{
T 42100 44750 5 8 0 1 0 0 1
pintype=pas
T 42100 44750 5 8 0 1 0 0 1
pinlabel=1
T 42100 44750 5 8 0 0 0 0 1
pinseq=1
T 42100 44750 5 8 0 1 0 0 1
pinnumber=1
}
P 42900 44700 42750 44700 1 0 0
{
T 42800 44750 5 8 0 1 0 0 1
pintype=pas
T 42800 44750 5 8 0 1 0 0 1
pinlabel=2
T 42800 44750 5 8 0 0 0 0 1
pinseq=2
T 42800 44750 5 8 0 1 0 0 1
pinnumber=2
}
T 42200 44900 8 10 0 1 0 0 1
refdes=R?
T 42400 44950 5 10 0 0 0 0 1
device=RESISTOR
]
{
T 42400 44950 5 10 0 0 0 0 1
device=RESISTOR
T 42000 44600 5 10 0 0 0 0 1
footprint=0603_BS_1
T 42400 44850 5 10 1 1 0 6 1
refdes=R44
T 42500 44850 5 10 1 1 0 0 1
value=10k
}
T 41800 45200 9 10 1 0 0 0 1
Drain: ~50mA
C 47100 46700 1 0 0 EMBEDDEDpca9536-1.sym
[
B 47400 46800 1200 1200 3 0 0 0 -1 -1 0 -1 -1 -1 -1 -1
P 47100 47800 47400 47800 1 0 0
{
T 47300 47850 5 8 1 1 0 6 1
pinnumber=8
T 47450 47800 9 8 1 1 0 0 1
pinlabel=Vcc
T 47450 47800 5 8 0 1 0 2 1
pintype=pwr
T 47300 47750 5 8 0 1 0 8 1
pinseq=8
}
P 47100 47500 47400 47500 1 0 0
{
T 47300 47550 5 8 1 1 0 6 1
pinnumber=4
T 47450 47500 9 8 1 1 0 0 1
pinlabel=GND
T 47450 47500 5 8 0 1 0 2 1
pintype=pwr
T 47300 47450 5 8 0 1 0 8 1
pinseq=4
}
P 47100 47100 47400 47100 1 0 0
{
T 47300 47150 5 8 1 1 0 6 1
pinnumber=7
T 47450 47100 9 8 1 1 0 0 1
pinlabel=SDA
T 47450 47100 5 8 0 1 0 2 1
pintype=io
T 47300 47050 5 8 0 1 0 8 1
pinseq=7
}
P 47100 46900 47400 46900 1 0 0
{
T 47300 46950 5 8 1 1 0 6 1
pinnumber=6
T 47450 46900 9 8 1 1 0 0 1
pinlabel=SCL
T 47450 46900 5 8 0 1 0 2 1
pintype=in
T 47300 46850 5 8 0 1 0 8 1
pinseq=6
}
P 48900 47500 48600 47500 1 0 0
{
T 48700 47550 5 8 1 1 0 0 1
pinnumber=2
T 48550 47500 9 8 1 1 0 6 1
pinlabel=IO1
T 48550 47500 5 8 0 1 0 8 1
pintype=io
T 48700 47450 5 8 0 1 0 2 1
pinseq=2
}
P 48900 47200 48600 47200 1 0 0
{
T 48700 47250 5 8 1 1 0 0 1
pinnumber=3
T 48550 47200 9 8 1 1 0 6 1
pinlabel=IO2
T 48550 47200 5 8 0 1 0 8 1
pintype=io
T 48700 47150 5 8 0 1 0 2 1
pinseq=3
}
P 48900 47800 48600 47800 1 0 0
{
T 48700 47850 5 8 1 1 0 0 1
pinnumber=1
T 48550 47800 9 8 1 1 0 6 1
pinlabel=IO0
T 48550 47800 5 8 0 1 0 8 1
pintype=io
T 48700 47750 5 8 0 1 0 2 1
pinseq=1
}
P 48900 46900 48600 46900 1 0 0
{
T 48700 46950 5 8 1 1 0 0 1
pinnumber=5
T 48550 46900 9 8 1 1 0 6 1
pinlabel=IO3
T 48550 46900 5 8 0 1 0 8 1
pintype=io
T 48700 46850 5 8 0 1 0 2 1
pinseq=5
}
T 48600 48050 8 10 0 1 0 6 1
refdes=U?
T 47400 48500 8 10 0 0 0 0 1
description=4bit IO with I2C
T 47400 48700 8 10 0 0 0 0 1
footprint=TSSOP8
T 47400 48050 8 10 0 1 0 0 1
device=PCA9536
T 47400 48900 8 10 0 0 0 0 1
numslots=0
]
{
T 48600 48050 5 10 1 1 0 6 1
refdes=U13
T 47400 48700 5 10 0 0 0 0 1
footprint=MSOP8_BS_1
T 47400 48050 5 10 1 1 0 0 1
device=PCA9536
}
C 46500 47000 1 0 0 EMBEDDEDin-1.sym
[
P 46900 47100 47100 47100 1 0 1
{
T 46950 47150 5 6 0 1 0 0 1
pinnumber=1
T 46950 47150 5 6 0 0 0 0 1
pinseq=1
}
L 46600 47100 46500 47200 6 0 0 0 -1 -1
L 46600 47100 46500 47000 6 0 0 0 -1 -1
L 46900 47100 46600 47100 6 0 0 0 -1 -1
T 46500 47300 5 10 0 0 0 0 1
device=INPUT
T 46500 47300 8 10 0 1 0 0 1
refdes=pinlabel
]
{
T 46500 47300 5 10 0 0 0 0 1
device=INPUT
T 46500 47000 5 10 0 0 0 0 1
net=SDA:1
T 46450 47100 5 10 1 1 0 7 1
value=SDA
}
C 46500 46800 1 0 0 EMBEDDEDin-1.sym
[
P 46900 46900 47100 46900 1 0 1
{
T 46950 46950 5 6 0 1 0 0 1
pinnumber=1
T 46950 46950 5 6 0 0 0 0 1
pinseq=1
}
L 46600 46900 46500 47000 6 0 0 0 -1 -1
L 46600 46900 46500 46800 6 0 0 0 -1 -1
L 46900 46900 46600 46900 6 0 0 0 -1 -1
T 46500 47100 5 10 0 0 0 0 1
device=INPUT
T 46500 47100 8 10 0 1 0 0 1
refdes=pinlabel
]
{
T 46500 47100 5 10 0 0 0 0 1
device=INPUT
T 46500 46800 5 10 0 0 0 0 1
net=SCL:1
T 46450 46900 5 10 1 1 0 7 1
value=SCL
}
C 46900 47200 1 0 0 EMBEDDEDgnd-1.sym
[
P 47000 47300 47000 47500 1 0 1
{
T 47058 47361 5 4 0 1 0 0 1
pinnumber=1
T 47058 47361 5 4 0 0 0 0 1
pinseq=1
T 47058 47361 5 4 0 1 0 0 1
pinlabel=1
T 47058 47361 5 4 0 1 0 0 1
pintype=pwr
}
L 46900 47300 47100 47300 3 0 0 0 -1 -1
L 46955 47250 47045 47250 3 0 0 0 -1 -1
L 46980 47210 47020 47210 3 0 0 0 -1 -1
T 47200 47250 8 10 0 0 0 0 1
net=GND:1
]
C 46800 47800 1 0 0 EMBEDDEDvcc-1.sym
[
P 47000 47800 47000 48000 1 0 0
{
T 47050 47850 5 6 0 1 0 0 1
pinnumber=1
T 47050 47850 5 6 0 0 0 0 1
pinseq=1
T 47050 47850 5 6 0 1 0 0 1
pinlabel=1
T 47050 47850 5 6 0 1 0 0 1
pintype=pwr
}
L 46850 48000 47150 48000 3 0 0 0 -1 -1
T 46875 48050 9 8 1 0 0 0 1
Vcc
T 47250 48000 8 10 0 0 0 0 1
net=Vcc:1
]
N 47000 47500 47100 47500 4
N 47000 47800 47100 47800 4
C 48900 47100 1 0 0 EMBEDDEDout-1.sym
[
P 48900 47200 49100 47200 1 0 0
{
T 49050 47250 5 6 0 1 0 0 1
pinnumber=1
T 49050 47250 5 6 0 0 0 0 1
pinseq=1
}
L 49100 47200 49500 47200 6 0 0 0 -1 -1
L 49500 47200 49400 47300 6 0 0 0 -1 -1
L 49500 47200 49400 47100 6 0 0 0 -1 -1
T 48900 47400 5 10 0 0 0 0 1
device=OUTPUT
T 48900 47400 8 10 0 1 0 0 1
refdes=pinlabel
]
{
T 48900 47400 5 10 0 0 0 0 1
device=OUTPUT
T 49550 47200 5 10 1 1 0 1 1
value=ESENSE
T 48900 47100 5 10 0 0 0 0 1
net=ESENSE:1
}
C 48900 47700 1 0 0 EMBEDDEDout-1.sym
[
P 48900 47800 49100 47800 1 0 0
{
T 49050 47850 5 6 0 1 0 0 1
pinnumber=1
T 49050 47850 5 6 0 0 0 0 1
pinseq=1
}
L 49100 47800 49500 47800 6 0 0 0 -1 -1
L 49500 47800 49400 47900 6 0 0 0 -1 -1
L 49500 47800 49400 47700 6 0 0 0 -1 -1
T 48900 48000 5 10 0 0 0 0 1
device=OUTPUT
T 48900 48000 8 10 0 1 0 0 1
refdes=pinlabel
]
{
T 48900 48000 5 10 0 0 0 0 1
device=OUTPUT
T 49550 47800 5 10 1 1 0 1 1
value=SHUTDOWN
T 48900 47700 5 10 0 0 0 0 1
net=SHUTDOWN:1
}
C 48900 46800 1 0 0 EMBEDDEDout-1.sym
[
P 48900 46900 49100 46900 1 0 0
{
T 49050 46950 5 6 0 1 0 0 1
pinnumber=1
T 49050 46950 5 6 0 0 0 0 1
pinseq=1
}
L 49100 46900 49500 46900 6 0 0 0 -1 -1
L 49500 46900 49400 47000 6 0 0 0 -1 -1
L 49500 46900 49400 46800 6 0 0 0 -1 -1
T 48900 47100 5 10 0 0 0 0 1
device=OUTPUT
T 48900 47100 8 10 0 1 0 0 1
refdes=pinlabel
]
{
T 48900 47100 5 10 0 0 0 0 1
device=OUTPUT
T 49550 46900 5 10 1 1 0 1 1
value=DRAIN
T 48900 46800 5 10 0 0 0 0 1
net=DRAIN:1
}
C 40000 40000 0 0 0 title-A3.sym
C 54500 50200 1 0 0 EMBEDDEDout-1.sym
[
P 54500 50300 54700 50300 1 0 0
{
T 54650 50350 5 6 0 1 0 0 1
pinnumber=1
T 54650 50350 5 6 0 0 0 0 1
pinseq=1
}
L 54700 50300 55100 50300 6 0 0 0 -1 -1
L 55100 50300 55000 50400 6 0 0 0 -1 -1
L 55100 50300 55000 50200 6 0 0 0 -1 -1
T 54500 50500 5 10 0 0 0 0 1
device=OUTPUT
T 54500 50500 8 10 0 1 0 0 1
refdes=pinlabel
]
{
T 54500 50500 5 10 0 0 0 0 1
device=OUTPUT
T 55150 50300 5 10 1 1 0 1 1
value=ISET
T 54500 50200 5 10 0 0 0 0 1
net=ISET:1
}
C 54600 48200 1 0 0 EMBEDDEDout-1.sym
[
P 54600 48300 54800 48300 1 0 0
{
T 54750 48350 5 6 0 1 0 0 1
pinnumber=1
T 54750 48350 5 6 0 0 0 0 1
pinseq=1
}
L 54800 48300 55200 48300 6 0 0 0 -1 -1
L 55200 48300 55100 48400 6 0 0 0 -1 -1
L 55200 48300 55100 48200 6 0 0 0 -1 -1
T 54600 48500 5 10 0 0 0 0 1
device=OUTPUT
T 54600 48500 8 10 0 1 0 0 1
refdes=pinlabel
]
{
T 54600 48500 5 10 0 0 0 0 1
device=OUTPUT
T 55250 48300 5 10 1 1 0 1 1
value=USET
T 54600 48200 5 10 0 0 0 0 1
net=USET:1
}
C 46900 40700 1 0 1 EMBEDDEDout-1.sym
[
P 46900 40800 46700 40800 1 0 0
{
T 46750 40850 5 6 0 1 0 6 1
pinnumber=1
T 46750 40850 5 6 0 0 0 6 1
pinseq=1
}
L 46700 40800 46300 40800 6 0 0 0 -1 -1
L 46300 40800 46400 40900 6 0 0 0 -1 -1
L 46300 40800 46400 40700 6 0 0 0 -1 -1
T 46900 41000 5 10 0 0 0 6 1
device=OUTPUT
T 46900 41000 8 10 0 1 0 6 1
refdes=pinlabel
]
{
T 46900 41000 5 10 0 0 0 6 1
device=OUTPUT
T 46250 40800 5 10 1 1 0 7 1
value=DRAIN
T 46900 40700 5 10 0 0 0 6 1
net=DRAIN:1
}
C 43500 44600 1 0 1 EMBEDDEDin-1.sym
[
P 43100 44700 42900 44700 1 0 1
{
T 43050 44750 5 6 0 1 0 6 1
pinnumber=1
T 43050 44750 5 6 0 0 0 6 1
pinseq=1
}
L 43400 44700 43500 44800 6 0 0 0 -1 -1
L 43400 44700 43500 44600 6 0 0 0 -1 -1
L 43100 44700 43400 44700 6 0 0 0 -1 -1
T 43500 44900 5 10 0 0 0 6 1
device=INPUT
T 43500 44900 8 10 0 1 0 6 1
refdes=pinlabel
]
{
T 43500 44900 5 10 0 0 0 6 1
device=INPUT
T 43500 44600 5 10 0 0 0 6 1
net=DRAIN:1
T 43550 44700 5 10 1 1 0 1 1
value=DRAIN
}
T 47300 46500 9 10 1 0 0 0 1
Digital IO control
